Umag,Ts,Ta,theta,phi,alphan,sigmat,Cd,Cd_old
7126.03,369.8585,1786.893,0.04243387,-0.05792863,0.1876144,0.8508053,5.01095805571786,4.984563
6191.472,399.2755,1689.44,0.009547655,0.06662084,0.800703,0.05172546,2.42218991083366,2.423519
6359.828,236.4254,1892.635,0.05699727,-0.02033315,0.2431642,0.3177168,4.30808139488491,4.275106
6480.805,282.7156,1371.072,0.06769118,-0.02625135,0.7282323,0.678794,4.20676404100738,4.141745
8396.48,248.984,1815.452,0.001013719,-0.0188335,0.9288461,0.8026726,4.37171105754108,4.36096
9423.795,403.4435,974.6081,0.005124267,-0.05644418,0.2131312,0.5145261,3.58211597491618,3.575472
7961.712,158.714,879.6678,0.02776249,-0.06029581,0.7134404,0.5919481,3.21671888086934,3.198376
6593.099,123.0943,1554.272,0.038446,-0.004916947,0.5988894,0.8955239,5.59894529595238,5.585724
6529.445,423.1243,838.6003,0.03380047,0.04268584,0.3132779,0.2568054,3.48086901233639,3.476075
8508.576,456.0521,475.7196,0.05390048,0.05910441,0.5755649,0.1073031,2.54199552604702,2.548635
9030.316,353.1518,1169.597,0.04704136,0.02756634,0.9444163,0.5564264,3.01726941507988,3.009861
5532.818,304.6641,799.5641,0.03168769,-0.002222578,0.3067891,0.207965,4.029723975286,4.025571
7085.311,179.4637,680.3418,0.002709866,0.05700759,0.9999078,0.3512539,2.22437357212545,2.231767
5920.624,486.9456,204.5646,0.01978081,0.0400899,0.9683241,0.7332612,2.83433243282173,2.8363
7564.872,290.0038,1543.489,0.0566351,0.009206498,0.8945363,0.9729106,4.61715751977403,4.583943
9298.628,499.5575,667.364,0.05290266,0.03665613,0.3658467,0.2987179,3.18949271427347,3.190622
6369.679,132.5287,969.3246,0.06780292,-0.03380493,0.04699716,0.8807384,4.94677304378146,4.937317
8043.859,252.6719,1872.693,0.02867385,-0.007901704,0.1980551,0.4931654,4.86892535804555,4.856866
9161.508,313.0486,1885.735,0.001002326,0.05163795,0.4757756,0.1712955,3.06909774195878,3.068231
9261.647,272.5378,1429.878,0.02309667,-0.02319376,0.2039037,0.007660891,3.41861415062908,3.426049
6484.172,324.5263,448.5107,0.009724457,0.02616159,0.2380248,0.369148,3.83047764396512,3.826049
5935.9,433.9915,1112.966,0.02588203,0.02040323,0.2285941,0.532147,4.8185233606346,4.808923
7356.672,143.8072,1510.483,0.008040977,0.008772293,0.009135886,0.07449859,4.14258478958773,4.15438
6902.897,345.6204,638.1028,0.05093965,0.06414368,0.9727169,0.7495295,2.88637040600862,2.870803
7947.296,330.5335,620.2669,0.01908568,0.04725923,0.1181652,0.7168117,4.00277512752111,3.983141
6727.234,215.807,1414.477,0.03510649,0.05960071,0.981359,0.91618,3.84855644245715,3.833293
8454.306,321.7084,1575.412,0.001921197,-0.05345305,0.8471841,0.7991961,3.76628285081677,3.73529
9059.092,144.4599,269.4954,0.06109692,-0.01143838,0.8569208,0.777788,2.96647440316768,2.942041
6460.533,244.8511,762.6586,0.007734516,-0.003950986,0.4458644,0.2239063,3.94662861421656,3.947507
8881.389,476.5949,522.6466,0.02570853,0.02634476,0.8659643,0.7034608,3.19925716290086,3.198458
8071.947,378.0971,1063.683,0.06335499,-0.004635733,0.2996435,0.5602794,4.19092536237861,4.158228
6677.076,419.988,575.9566,0.05868908,0.02778139,0.5570914,0.7271295,3.81772988889303,3.819841
8323.182,154.6356,1598.066,0.0339086,-0.05668121,0.1070002,0.3746849,3.74413603396065,3.737034
7077.44,166.0085,386.9328,0.02134397,-0.00428368,0.7923597,0.01847994,2.76641279148906,2.771345
5503.854,385.0424,1942.645,0.05889665,0.04619111,0.9306275,0.03899404,2.37391440844623,2.356262
6892.965,405.0559,332.0912,0.05497678,-0.01073208,0.7312318,0.02208618,2.64186786974656,2.625644
9299.463,444.9192,1609.676,0.05513389,-0.002645876,0.8226512,0.4492977,3.43849663420416,3.425811
9469.412,495.0779,424.8024,0.03376984,0.02241562,0.4541863,0.9695149,3.94064607553291,3.931919
8060.829,429.9023,855.4069,0.02856197,0.007566574,0.6548689,0.6840411,4.10120330451108,4.104258
5927.961,286.0663,1084.431,0.01023352,0.02213977,0.7542995,0.5074084,4.11488077242943,4.110497
9371.388,116.6111,244.8546,0.004624922,-0.03757568,0.6179386,0.1610113,2.77896694021869,2.776065
5629.528,229.6449,1754.683,0.0189448,-0.03904906,0.2815416,0.6372541,5.35052935968658,5.361359
7628.158,308.7257,1307.557,0.009040826,0.06083925,0.8106027,0.8387748,3.76370880190488,3.762108
5809.634,243.5197,1653.165,0.03962631,0.03953392,0.1252158,0.2350114,4.06608178263599,4.055751
7886.032,298.1116,275.5706,0.05148663,-0.008306032,0.4948101,0.8747461,3.80158066700269,3.803083
7718.927,362.9796,1988.839,0.06447497,-0.01301581,0.6209433,0.7697668,4.76275271731557,4.786525
7442.866,203.4473,737.8107,0.05763071,0.04072818,0.6608765,0.3058136,2.94952732241219,2.936358
5979.9,278.1359,1070.693,0.02446749,-0.05549288,0.8332924,0.4373981,3.23971793785764,3.240113
7990.841,109.0768,221.2981,0.0259732,0.0232377,0.9133949,0.1471046,2.3667753886676,2.363582
6816.29,415.827,992.3443,0.04487422,-0.02690601,0.6000327,0.5274114,3.87702476929392,3.862214
8303.351,425.4145,1469.347,0.04445917,-0.06738158,0.5830199,0.8414183,3.95602683914343,3.9293
7673.963,467.4887,1273.092,0.04449521,0.06058213,0.3311567,0.3498116,3.39834821308288,3.382267
7020.181,136.0051,919.3427,0.004935276,0.02135369,0.02073716,0.386603,4.40071814798203,4.387947
7107.998,301.6853,1294.004,0.0176648,0.04234149,0.3831425,0.8179791,4.69422113410739,4.709456
5646.769,410.6842,1247.154,0.01336207,-0.04944143,0.4065591,0.6137741,4.5402037908221,4.517291
6797.147,316.9713,1213.485,0.04362003,0.03228663,0.05217233,0.2700486,3.91480737894295,3.92777
7183.058,182.8488,1967.82,0.04661557,-0.03573705,0.08667519,0.4570133,4.55267724241537,4.506737
7004.059,173.0674,1230.854,0.04583968,-0.03456164,0.06257135,0.3982526,4.1471068065818,4.132627
9210.713,163.9698,528.129,0.02728424,0.02006733,0.4822894,0.1912081,3.21779469473474,3.22235
8240.828,226.6695,1959.305,0.04710125,0.01450388,0.1768026,0.1548052,3.76088672933082,3.750303
6031.698,339.2543,1722.03,0.009718795,0.04293939,0.5667798,0.405584,4.05713945987025,4.058131
7317.103,340.2727,500.3372,0.04702337,0.01841731,0.4363854,0.08953818,3.09984805726971,3.097104
5759.584,107.3711,778.3142,0.0261489,0.01290623,0.6358646,0.2601206,3.59530794073235,3.587347
9122.456,475.2459,353.9965,0.03798135,0.04389637,0.1625672,0.3288724,3.30969444816498,3.310342
5555.074,265.5374,1625.839,0.004865535,0.06158167,0.5182973,0.9828606,5.49601590941396,5.486682
6014.791,114.0894,1323.409,0.01979706,-0.002272392,0.5210913,0.1306414,3.8175471962941,3.794986
8690.814,461.4553,757.2252,0.04020053,0.01820137,0.8744763,0.3304018,2.84390930307893,2.822629
8639.45,235.9784,1178.233,0.0387059,0.03365451,0.5406401,0.5734832,3.77945868739411,3.771993
5965.652,124.5918,1777.864,0.05158119,-0.06572264,0.6729423,0.7867894,4.62549315855414,4.594972
7368.256,480.0632,1916.924,0.006630151,-0.01364844,0.3477545,0.9019831,6.17552149731134,6.16974
8666.642,332.3906,1148.043,0.02680514,-0.04056982,0.2631673,0.6693404,4.19922395822146,4.19755
6724.795,372.4555,1036.246,0.03597062,0.03786708,0.4131452,0.9335458,4.86529226583389,4.856907
6325.251,356.0536,1518.385,0.01758669,-0.003468837,0.3748935,0.8625256,6.22682946037826,6.220041
9439.819,392.0623,894.4457,0.03845615,0.029101,0.1475005,0.4810995,3.87653144546299,3.874346
7512.004,171.0367,398.7058,0.01547355,0.002556457,0.09883354,0.6514414,4.56606045942466,4.565278
9433.843,468.9587,1020.046,0.03454244,0.02988418,0.7470593,0.4237068,3.17916026114378,3.176998
7647.037,292.0609,291.1128,0.02443998,0.004982674,0.2525076,0.6012023,4.07443706704759,4.089425
7211.935,198.5522,1364.602,0.06144484,0.06899697,0.03258314,0.0451426,3.00690379662876,2.9926
6047.387,451.4764,460.3011,0.05519219,0.02094505,0.2704705,0.9252716,4.5099799662737,4.482966
6031.399,439.4594,599.783,0.02027863,-0.06649149,0.9058256,0.9494673,3.51281269473898,3.491193
7921.606,131.9154,1350.661,0.03408868,-0.02618471,0.8851743,0.6249081,3.67754451375167,3.671899
6619.001,443.3879,1694.497,0.03120178,0.004033551,0.4680734,0.8213913,5.78783682579981,5.788148
5955.786,221.8135,721.6319,0.06016877,-0.06047063,0.6810141,0.2176338,2.74940478647564,2.752108
9144.981,217.8934,938.2325,0.02924739,0.06625833,0.5091243,0.2450989,2.7952007617896,2.794868
7714.228,258.4336,364.2693,0.01028655,-0.04977798,0.3286774,0.4177935,3.28572378361403,3.281364
8717.747,195.8414,926.1617,0.06708724,-0.005776558,0.3991393,0.06161364,3.12207048609605,3.119074
7563.458,262.6124,1400.941,0.02349201,0.04121311,0.7712176,0.4669962,3.45687082862193,3.464135
6751.859,184.8321,1851.602,0.06021524,-0.05877675,0.3589102,0.9961156,5.28507596059371,5.264991
7244.248,381.8979,697.5842,0.05358664,-0.008359648,0.9557294,0.4744749,2.98268082400207,2.958022
5521.107,489.5729,555.0938,0.05707921,0.009908476,0.1372452,0.1288824,3.58713850060758,3.57781
9098.842,210.6432,824.1239,0.06729816,0.03403872,0.4261704,0.5405906,3.45081061698177,3.416635
5867.812,350.8508,1731.128,0.01141783,0.06971254,0.5394121,0.5899779,4.19052144657298,4.185828
8613.326,270.8219,1449.858,0.03778115,-0.0501594,0.6915689,0.09242143,2.66987298505588,2.663758
7563.79,391.7503,1202.617,0.03623806,-0.05892671,0.07306451,0.1164184,3.23992564375427,3.231541
5502.805,206.4689,1494.336,0.02718405,0.01712993,0.1523719,0.7539453,6.10616145839283,6.104624
9360.236,189.3284,319.4619,0.00938864,0.04378385,0.7663046,0.1822844,2.51246849562628,2.511632
6898.601,454.3388,1659.012,0.06394026,-0.04648735,0.7823855,0.2824289,3.05464972470463,3.014375
8974.75,365.8424,1832.815,0.04049383,0.03409678,0.01157648,0.649492,4.65187226822499,4.653654
8790.238,148.3199,1124.556,0.01461316,0.008336837,0.704867,0.9570643,4.70479389324545,4.716904
7601.703,100.0163,587.9034,0.0560755,-0.008670979,0.6431093,0.6916986,3.75558924519789,3.729371
