Umag,Ts,Ta,theta,phi,alphan,sigmat,Cd,Cd_old
7326.974,357.3137,655.2239,0.01165098,-0.05866835,0.1215866,0.3814233,3.20184163588476,3.190778
5542.354,125.6654,494.2834,0.03892839,-0.05771246,0.1645329,0.7917406,3.59609551730042,3.597396
5609.527,206.9274,1837.983,0.004653713,-0.00604126,0.8182222,0.1897126,3.23289662129158,3.224598
6212.436,100.1174,1032.803,0.04783408,0.005001034,0.01827396,0.6063463,4.25305759763288,4.25473
5991.877,168.7382,1230.442,0.00347499,0.01228182,0.4042491,0.1346007,3.53867664887928,3.521719
8061.015,280.2498,1007.295,0.0624154,0.04210254,0.4106708,0.2860089,2.92181141587552,2.927801
5833.594,109.7547,1893.959,0.01498476,0.004570008,0.2711202,0.4640841,4.48958464559426,4.482384
6092.087,415.2713,1219.134,0.0533054,-0.01031919,0.4932361,0.2307573,3.2841621280898,3.265392
6519.359,313.5708,370.1035,0.008559831,0.01366032,0.4315719,0.4679587,3.57584864348833,3.569075
5711.839,324.1981,330.0954,0.0231579,0.002678336,0.9962732,0.9405714,2.86050917121016,2.859679
9011.946,100.5957,1194.835,0.003943431,-0.03288779,0.1285331,0.172667,3.40662176598028,3.408185
6592.972,471.3041,1043.273,0.04159398,0.0668807,0.4913727,0.8883904,3.42410361271303,3.40883
9420.072,294.4272,714.4486,0.002244921,0.04219609,0.1106293,0.7460737,3.6097056029041,3.608609
8759.013,146.5832,1901.866,0.02123058,0.002449335,0.3431655,0.6263017,4.21005810071611,4.208654
7213.459,257.6798,720.2332,0.0345036,-0.05851335,0.5012845,0.8338449,3.27488565014192,3.265902
7448.673,373.3334,1261.034,0.03996866,0.06050927,0.733294,0.4986879,2.76739737616154,2.756576
9213.32,222.4907,1064.027,0.0434391,0.0659348,0.290563,0.1173418,2.7152264262291,2.703788
9136.21,130.2465,1296.202,0.004153576,0.04818088,0.1818144,0.3393954,3.25125813694603,3.25604
7253.909,386.3871,995.8196,0.004794684,0.02403528,0.5482359,0.8522372,3.85085610971875,3.837625
7288.65,369.6923,1167.697,0.02723886,-0.007425747,0.8068172,0.5643945,3.32738149189393,3.314977
8598.057,201.6701,379.9709,0.06288502,0.05165072,0.5303961,0.7859854,2.98218406429724,2.97952
6364.06,346.6904,768.4925,0.02473631,-0.04056491,0.5612705,0.2642932,2.97798565516482,2.974931
6792.702,229.6213,1559.007,0.03342298,0.05571467,0.7126416,0.6463094,3.15470316199867,3.139855
9466.016,183.6304,470.2593,0.01336953,-0.0449516,0.6839817,0.8810502,3.00948305366999,3.007937
8582.176,213.8651,520.1925,0.02573848,-0.05101232,0.1024472,0.163488,3.08442558461965,3.083361
8296.846,318.7263,1029.621,0.04265171,-0.03721423,0.3072788,0.9919519,3.86487901743062,3.87355
5564.154,160.3479,553.2287,0.05450246,0.01262707,0.8843611,0.9158613,3.21703795946244,3.207752
6367.69,220.1775,915.3883,0.04562076,-0.04904629,0.3676066,0.6439817,3.4751440392784,3.472124
9153.738,487.712,1550.67,0.05450404,-0.05361641,0.06960375,0.1188429,3.05742580671422,3.039585
6027.113,321.7538,1883.873,0.01767493,0.004942177,0.4726575,0.5126741,4.27161407501212,4.264286
7622.767,495.9426,286.2792,0.009887021,0.06421213,0.4612509,0.9446302,3.10776873872974,3.106233
8357.31,148.0815,1630.747,0.01843674,0.04148579,0.1836728,0.2477065,3.34395778469836,3.327121
6122.258,179.4478,1439.62,0.05896396,-0.06801433,0.3461606,0.2464682,2.93086971898537,2.908982
8894.544,285.4356,575.6814,0.04677758,-0.01613995,0.5966458,0.6258506,3.19906068375488,3.207
8573.243,393.5345,350.5468,0.004608911,-0.01698698,0.3538846,0.5764926,3.60721486161771,3.603269
8150.017,234.4927,1484.075,0.01162584,0.044776,0.4796385,0.2041505,2.95096416529139,2.936111
9426.066,368.5025,1000.632,0.05542084,-0.02842653,0.1346283,0.4448932,3.4513494247889,3.446141
6957.287,294.3388,391.6361,0.009642351,0.03926194,0.02734624,0.1338279,3.28430530902219,3.275874
5926.981,462.5861,1262.025,0.02431307,0.01276221,0.7717747,0.2910761,3.14810825875112,3.132995
6610.579,320.9637,1558.424,0.03300462,-0.04475625,0.395816,0.08611982,2.98617911173749,2.964858
7173.569,432.2371,1263.819,0.03419272,0.05734714,0.08892175,0.07101013,2.97952442204209,2.976807
7899.908,293.4601,1115.075,0.04983544,0.03487079,0.1037336,0.05769597,3.13862943772826,3.127636
7139.452,450.9731,686.6894,0.06693077,0.02876174,0.2156918,0.6646347,3.52325111704072,3.512479
8079.204,307.8537,1150.65,0.06981206,0.0220681,0.16895,0.4960739,3.51091423244029,3.503545
5756.166,258.3047,1692.926,0.01616216,0.02977832,0.5006555,0.1152362,3.14144729823556,3.149109
5777.12,397.2906,313.5327,0.02850016,-0.04406766,0.04580995,0.4122616,3.43518352192327,3.437977
7065.053,486.148,461.1906,0.02728509,0.0205386,0.6731435,0.3500778,2.99419749149557,2.998011
7536.013,278.9784,600.6108,0.009272434,0.06393022,0.41425,0.8743482,3.25021302444138,3.243407
5894.918,369.5479,1428.294,0.06219127,-0.03313669,0.6136203,0.7332068,3.64542488895132,3.64048
6631.586,449.8158,1228.095,0.005321667,-0.01695785,0.2393384,0.6119482,4.26512313777832,4.26474
6008.686,281.4722,1838.536,0.05354378,-0.03294786,0.3139494,0.1703744,3.25756841502933,3.256183
7024.396,260.7601,1570.018,0.06496667,0.04227312,0.1939889,0.7158011,3.78405258711201,3.729707
6233.837,452.8655,1112.123,0.05495218,0.03494069,0.5259144,0.2437739,2.97367473467532,2.959514
9103.086,468.1745,1833.934,0.01562909,-0.02929359,0.6801418,0.8138409,3.64010854727659,3.633721
7416.166,304.2343,228.3195,0.05149682,0.03807391,0.9493825,0.5371782,2.22875583474623,2.214912
6061.724,280.5982,482.6277,0.05511561,-0.06725931,0.9446473,0.2731964,2.0225366277012,2.028167
5752.599,328.07,278.0377,0.03027676,-0.02251928,0.5120816,0.3372308,3.18079836062883,3.182515
8628.914,346.35,528.1049,0.04216509,-0.01104561,0.157333,0.1574899,3.41786546760909,3.421896
8581.442,384.3734,424.0681,0.01413415,0.0004612668,0.860093,0.4387354,2.91391424771116,2.905355
8879.711,389.103,447.651,0.02738824,-0.06640447,0.1734867,0.8539639,3.31338740473352,3.295187
7182.151,315.5693,863.4974,0.03305058,0.04678088,0.9070326,0.4773889,2.50321560375132,2.503656
5919.518,460.6223,567.0885,0.03971423,-0.0347993,0.7923277,0.2900652,2.67307131384351,2.673544
7282.558,358.0701,1009.267,0.003595125,-0.01195876,0.9468667,0.06108581,2.40874603894014,2.399289
8270.596,258.4439,912.8577,0.03070851,-0.05666265,0.1995951,0.3701749,3.15376388923079,3.159451
6926.644,132.1762,1751.442,0.06668817,-0.02773014,0.9107318,0.4151267,2.6702363607339,2.641518
8344.27,491.5266,407.1538,0.05684874,0.05539416,0.615362,0.5487503,2.74777732913237,2.716366
8380.545,289.8053,956.6368,0.01425202,-0.04234218,0.3557484,0.02428547,2.90796695511434,2.909685
9345.139,116.6223,779.9112,0.05456184,0.009642586,0.8780785,0.1741106,2.40670375434316,2.413058
7896.545,480.233,857.3411,0.03181878,-0.05025906,0.5785196,0.4139814,2.91810628046251,2.917462
7266.326,105.5572,642.0041,0.01291324,-0.04919506,0.4472681,0.1594849,2.83951373957285,2.836139
9282.195,490.3276,511.5041,0.00498684,-0.02798167,0.9155019,0.3343568,2.43801720138299,2.443086
9366.335,268.5732,585.6893,0.03910655,0.04084771,0.6954,0.2809104,2.64391239374641,2.645362
8945.051,286.9451,435.8424,0.008412464,-0.03948185,0.6080642,0.3252508,2.83186343942263,2.821143
8112.99,475.5563,1298.709,0.00186383,-0.05874344,0.638167,0.09439837,2.49857242245448,2.493901
6959.753,333.2164,1802.651,0.02376157,-0.01917045,0.5754314,0.05427392,3.06266055722313,3.05945
7811.378,248.656,788.3782,0.01471511,-0.06135233,0.3908653,0.7363562,3.2468261565736,3.245269
8114.944,475.1826,406.9251,0.003604025,0.04370459,0.6378193,0.9101371,3.12352221117111,3.11484
5775.224,401.7485,1141.472,0.06837228,-0.05076041,0.5954583,0.03543217,2.48153697613029,2.479883
6369.468,392.4318,393.8748,0.047358,0.06050329,0.3662293,0.8650403,3.30743244866839,3.281742
5844.955,432.7341,1797.65,0.05659083,0.0360399,0.6641595,0.1469081,2.76828505959161,2.76749
7199.983,197.9179,813.538,0.04525665,0.017075,0.4423601,0.907222,3.81939406960731,3.801667
7113.064,316.3524,1323.931,0.04598162,0.0306621,0.5792437,0.3276801,3.07535226940585,3.062282
8058.21,316.5321,495.9603,0.001362668,0.02783997,0.7602779,0.2682596,2.72903203780839,2.730923
7884.756,384.5426,978.758,0.04244923,0.04188507,0.3794583,0.7276789,3.48193548413897,3.49373
7607.317,275.8687,1741.174,0.01190421,0.01824921,0.3926437,0.5418694,3.96898434101938,3.975542
6479.766,342.7885,376.5451,0.001538231,0.01823727,0.4535166,0.4063558,3.42665115355895,3.433882
6608.309,424.3206,1899.624,0.06427767,0.0656608,0.4458717,0.6248618,3.37826984194762,3.363509
9209.084,189.2324,1612.971,0.03304912,-0.01986414,0.64111,0.9463411,3.8059171383748,3.796601
7083.926,117.2981,468.0342,0.001747737,0.01459224,0.412227,0.6533277,3.73586628892381,3.744458
6070.675,245.5938,362.4554,0.04018301,0.05329202,0.6713454,0.4954134,2.76078799183494,2.758645
9327.521,185.266,395.9308,0.04673663,0.02873289,0.1124044,0.3926328,3.34427882612443,3.34251
8762.838,139.5099,602.8637,0.03710789,0.05756279,0.7847819,0.1487624,2.27213607476825,2.269723
7315.035,295.972,1326.238,0.008947151,0.02360975,0.6469407,0.6136094,3.55993170139888,3.565989
8441.802,333.9754,1974.173,0.03584902,-0.04791659,0.4962061,0.7396234,3.591400400033,3.565623
9174.516,242.5422,937.2762,0.01721206,-0.009103362,0.6688845,0.9120376,3.72023726712042,3.713692
7708.377,403.0911,215.5118,0.002089546,0.03354546,0.09932431,0.3386134,3.38154622799715,3.389846
8451.475,438.3702,428.3274,0.05307189,0.04892295,0.3623769,0.3710768,2.93846118134789,2.945657
8451.556,317.4315,1916.184,0.007651446,0.04935103,0.69638,0.8597963,3.41934468998915,3.421054
5870.56,149.6574,1876.128,0.06913887,0.008141112,0.3886429,0.6628136,4.1436882886478,4.111026
5572.888,464.8065,732.872,0.03681922,0.02454051,0.8679823,0.8925274,3.3698210045903,3.354762
6339.953,408.5171,1690.658,0.04360627,0.01431988,0.2326385,0.4301611,3.93386245689578,3.932902
5657.385,413.4462,869.8391,0.04251406,0.05836685,0.8431573,0.3367284,2.48243842534606,2.485412
9176.523,247.6571,332.9339,0.03717211,-0.02344514,0.2286071,0.8994112,3.64828038907153,3.634113
6552.855,257.3926,1594.356,0.03176927,-0.02291629,0.0827524,0.8104739,4.60980384384381,4.60561
8747.743,217.2862,942.3349,0.06410027,0.03826153,0.2769892,0.1363607,2.91681447319746,2.900154
8988.706,243.2865,1898.91,0.003063745,0.005266442,0.2198051,0.3140353,4.0430114997322,4.067079
5753.164,186.9528,1277.511,0.02800968,-0.05694766,0.5803381,0.5788243,3.30487807698101,3.293778
5801.338,241.6522,375.9158,0.03817946,0.02942478,0.2673978,0.681317,3.61366456448135,3.590586
8509.519,142.76,992.6047,0.0359522,0.02171558,0.9945998,0.1951673,2.02090759633335,2.025558
7360.742,155.9239,1445.521,0.05756657,-0.05034842,0.503018,0.2828146,2.90003778729716,2.878658
6166.752,185.9519,1368.442,0.02014056,-0.01622208,0.04806434,0.1835126,3.87973164906274,3.8845
8680.019,125.2101,283.6293,0.06960341,-0.04358607,0.6165995,0.3660925,2.61886671134809,2.598082
6843.117,299.0939,1365.935,0.03574972,0.02612727,0.9983703,0.2513463,2.17998271689043,2.170909
5637.265,110.7904,1580.797,0.005255586,-0.02205756,0.4504764,0.6686585,4.3401314314384,4.336039
9155.549,176.3642,853.4277,0.06643492,-0.02854521,0.1947932,0.7567359,3.57086330354958,3.538814
7639.725,159.1873,1211.669,0.06666358,-0.04799725,0.1668208,0.9716544,3.871141983511,3.855306
8972.955,357.0823,792.1685,0.01494335,0.05986516,0.4438802,0.5738156,2.99901615109724,3.000301
8427.769,303.0252,729.6802,0.04555397,0.006152591,0.07065733,0.4790861,3.80114558313744,3.789704
6469.48,311.99,208.5133,0.0001208098,-0.0159591,0.3843847,0.3353167,3.45113183496363,3.445242
6341.264,152.7365,789.2748,0.06865308,0.06787215,0.07968072,0.9080257,3.65677502264093,3.598828
8088.712,403.3715,1728.753,0.01970863,0.03386672,0.6393289,0.253391,2.98213106035931,2.979681
5726.975,424.5653,1274.255,0.0146512,0.02886508,0.238347,0.3650184,3.7747714669529,3.774769
7338.961,406.5118,1996.86,0.04273778,0.05539292,0.8593016,0.6847859,3.02010704564561,3.017138
8947.01,238.8883,1983.676,0.04360929,-0.003071868,0.3990769,0.6407235,3.96187088726873,3.934954
6663.698,484.713,1172.977,0.05515522,-0.05039994,0.8223005,0.5140561,2.76462011858775,2.7686
6886.87,232.7687,1653.033,0.008190872,0.006528673,0.4958417,0.9565653,4.79497033628622,4.780539
8381.796,418.7759,1420.195,0.00760179,0.05377704,0.5681561,0.1874324,2.7116223723468,2.704408
6693.207,263.8383,1863.825,0.02127999,-0.06382855,0.2735584,0.5324876,3.4825269996955,3.461726
6460.405,423.1635,1768.3,0.03614164,-0.05814625,0.7822591,0.2871018,2.65551010776443,2.632934
8402.814,422.5191,1095.476,0.02825044,-0.03065255,0.3110275,0.4736769,3.55442622035489,3.539143
6756.164,453.2971,1961.958,0.007622537,-0.02324335,0.5451911,0.5597697,3.93617713523472,3.917234
5795.066,172.034,1423.257,0.06525575,0.009362978,0.8427836,0.620654,3.31755211322649,3.285651
5794.773,178.5172,1712.13,0.01437757,0.02633123,0.04132945,0.2068269,3.82566558409878,3.844458
5625.368,483.258,800.9713,0.03839349,-0.002443157,0.3141952,0.7435288,4.22792642789163,4.224361
6282.671,242.2418,515.4559,0.02303319,0.02486389,0.9331201,0.7293765,2.85432678258292,2.845196
7541.902,382.4614,383.8469,0.03847824,-0.004894118,0.9977112,0.2110764,2.08603456298224,2.094528
6762.095,161.065,1198.682,0.05671924,-0.04444619,0.5929725,0.8576898,3.51868482194416,3.483911
6777.126,205.0003,1387.727,0.003535812,0.05602464,0.7988999,0.2123377,2.45495390967814,2.454508
8505.724,305.8487,1041.8,0.004650258,-0.06397128,0.9582417,0.8123695,2.50624119775158,2.491745
9389.766,227.392,1509.834,0.03503491,-0.05926114,0.1870105,0.9053003,3.68733381680281,3.676431
6582.726,113.9457,964.3271,0.05457189,-0.06219416,0.6203039,0.4884672,2.89011489496078,2.862875
9435.421,169.5347,1599.798,0.04848162,0.02389399,0.1550281,0.5625544,3.71459205949339,3.724874
7594.564,299.9522,1469.691,0.02607536,0.00887475,0.8259587,0.4499006,3.16495082434503,3.170711
7905.335,180.661,805.8647,0.0696468,0.02411213,0.8206532,0.949669,3.07017550424367,3.015678
7865.285,427.3016,675.892,0.01478299,0.02582761,0.895622,0.2264101,2.48472310822299,2.471916
9263.94,154.791,745.2913,0.04611108,0.0231703,0.5083486,0.137549,2.89845255005974,2.890309
9164.574,331.9054,307.3273,0.0526591,-0.007701458,0.1548085,0.617664,3.59044244805971,3.583656
6843.012,263.0062,1211.023,0.05428852,0.06095935,0.8398457,0.9610062,3.14824415174805,3.126959
9076.083,216.9213,437.9336,0.002313988,0.03602874,0.5626483,0.5014813,3.02112518745262,3.019275
9343.134,252.2905,1845.188,0.03991816,0.01498354,0.4540295,0.6780929,3.76099280663343,3.749327
7771.568,433.8331,1770.518,0.04104234,0.03466146,0.289316,0.7266247,3.9116438578575,3.904837
6693.994,474.3694,1648.429,0.05516263,-0.04535852,0.2420507,0.01740152,2.92985116683246,2.919967
8494.976,184.5593,455.3949,0.001586618,0.06809852,0.57163,0.05242853,2.36655018598185,2.371479
6041.221,212.5424,900.566,0.03822112,-0.04131323,0.7223097,0.5682242,3.13085082099676,3.118406
8576.808,164.3039,1989.839,0.05660707,0.006076866,0.06621542,0.5023677,4.00169263150418,3.976892
6572.592,250.9551,542.4114,0.03252401,0.04756515,0.2619026,0.3314499,3.16171185335953,3.158544
6215.653,155.556,966.4789,0.02721262,-0.03095437,0.2274536,0.3018474,3.56834067103947,3.564845
7251.412,167.1894,755.2734,0.01528683,-0.04230171,0.04970369,0.6217307,3.73216761162794,3.71808
8533.872,277.081,1333.48,0.05316046,-0.061309,0.05816227,0.4879812,3.36823038313597,3.341936
8366.864,282.367,1123.397,0.01763583,0.05332732,0.1444673,0.3111326,3.19620181792109,3.196906
7831.543,107.7751,1485.886,0.04181881,0.02870807,0.8728435,0.3971894,2.70737326982611,2.707982
5567.962,130.8232,781.5505,0.002553563,-0.0297934,0.1416121,0.7712849,4.25412715624775,4.24947
7939.139,174.4366,435.7814,0.06119174,0.03718252,0.5702111,0.2666632,2.71153229875217,2.711204
7808.414,304.6781,777.2981,0.03688106,-0.03438909,0.8638069,0.2004487,2.42268299832025,2.427517
8788.081,136.9415,1087.101,0.04968682,-0.001033598,0.8613246,0.7745488,3.15669586534375,3.12962
7291.536,226.5682,623.5575,0.05111296,-0.008186103,0.1007872,0.1963142,3.50447008195761,3.491699
7473.333,261.3685,1019,0.02793668,-0.0395984,0.9864673,0.0827719,1.92857382205746,1.924273
5550.931,349.3276,1950.824,0.04134188,0.05325362,0.7362372,0.6904978,3.54831488625492,3.544824
9062.284,355.0274,1401.067,0.02201937,-0.009082973,0.4376535,0.05355798,3.26800492870763,3.267274
7759.926,432.8241,949.233,0.06130187,-0.02916597,0.7939011,0.6560839,2.94281048773117,2.940612
9155.364,235.401,365.8552,0.06684033,-0.06915122,0.7968006,0.3582326,2.25871035096427,2.256892
6333.337,390.1523,822.4857,0.06658351,0.04758711,0.2011532,0.1919694,2.98609488031842,2.991931
6242.436,261.1283,382.2275,0.0007701289,-0.004173117,0.6485823,0.5852511,3.59809912755357,3.587652
7463.531,481.5718,455.8713,0.01261212,-0.05524217,0.05568488,0.7417444,3.50947027144761,3.500479
5606.668,310.2247,1412.865,0.06568766,0.05892423,0.4990605,0.677292,3.45270418212061,3.456071
7296.628,113.5869,405.1794,0.02718574,0.03410066,0.03373722,0.2139535,3.41516616977845,3.405214
6091.519,227.1212,1501.013,0.06284321,0.05197565,0.4220896,0.4844244,3.2826516382997,3.265062
8592.713,322.5914,1163.786,0.001982788,0.03776949,0.9929841,0.4050849,2.1941664757677,2.188629
7819.824,498.721,699.9695,0.03323918,-0.0113757,0.8922025,0.4662862,2.76918917704695,2.770317
6925.845,292.455,1849.218,0.01873065,0.05798573,0.9911907,0.8564781,2.84759559159107,2.852994
7891.317,138.0462,742.9662,0.03745974,0.04272564,0.8503845,0.2571285,2.40823686886601,2.402981
5544.88,221.6026,1394.263,0.01799476,0.04938171,0.09816506,0.1166939,3.22673357070157,3.224739
8351.232,428.9959,1545.696,0.06508757,0.05710039,0.06047218,0.7667338,3.64919009078368,3.65118
7259.892,263.3991,485.3246,0.03456548,0.03654355,0.3406576,0.9273675,3.62669658109273,3.634796
5954.182,170.5536,1465.292,0.008599873,-0.007110047,0.1179641,0.4549633,4.51720746864308,4.52367
7789.169,466.0568,803.7281,0.03783834,0.004481037,0.8265626,0.5169305,3.02626686248279,3.016611
8753.825,187.7268,555.2136,0.05950556,-0.02589589,0.1788937,0.2766324,3.23388750677118,3.220072
8849.998,133.0836,1914.367,0.04380699,0.04991372,0.6670506,0.05930925,2.49555120947352,2.484135
8096.882,184.8577,1937.195,0.009238913,-0.03477427,0.6858871,0.7873543,3.64050145060857,3.647828
8873.091,407.491,1429.709,0.003717179,0.04143745,0.1827733,0.4091846,3.44584555141559,3.456733
9495.014,181.5184,412.6003,0.003740943,0.01019177,0.9784481,0.7985095,2.61248045479742,2.612929
9047.22,423.6717,664.1296,0.02112345,-0.06971058,0.6575842,0.6711625,2.74206167626909,2.741142
8516.643,202.7414,864.6004,0.01158387,-0.03690792,0.344422,0.03327287,3.00019684033535,3.005932
7307.793,159.5544,1367.362,0.01957999,0.06359739,0.5503191,0.6024095,3.09756881404299,3.098812
9012.562,412.2036,545.1037,0.05814276,0.05168349,0.2298707,0.075673,2.80250336098091,2.803249
9163.882,488.2455,1046.669,0.0363716,-0.04078722,0.2648959,0.1933591,3.1455661837754,3.13636
8046.317,205.3498,1452.185,0.04284404,-0.0571984,0.2414122,0.07091239,2.88009889090565,2.876621
9349.681,349.6892,1381.132,0.01571628,0.03869731,0.5987134,0.4523201,3.07964627053207,3.077096
7686.466,440.2132,302.353,0.01001362,0.05812114,0.6309536,0.3903512,2.62605803819381,2.611076
8445.131,194.1329,203.4639,0.04319874,0.01107305,0.6315417,0.4087242,2.95248828358347,2.942263
7635.568,259.84,1003.425,0.009484385,-0.06927628,0.4054371,0.4465446,2.9422083679863,2.94566
8956.74,479.4559,894.1012,0.01289999,-0.0507907,0.08506957,0.1582115,3.14384764815839,3.135298
6548.598,344.1189,1860.43,0.05456166,-0.03336723,0.5690941,0.002105274,2.68886283210141,2.681592
6271.705,331.3535,1596.289,0.05186828,0.03135872,0.01070657,0.3992777,3.78915070952516,3.800983
5686.081,475.7941,1535.825,0.06377194,-0.02265735,0.8889048,0.9112822,3.67106831815742,3.670614
8581.008,477.2084,256.5501,0.04013809,-0.05023219,0.4785845,0.3339945,2.81822647763961,2.81829
7694.56,146.1893,429.1021,0.06711213,-0.06307053,0.2216855,0.9824185,3.39129243262523,3.35145
8911.777,107.59,224.9144,0.06617111,0.0567156,0.9118144,0.04716943,1.87573617755159,1.882951
6060.358,133.3543,1459.214,0.004306695,-0.06833847,0.1112503,0.8206253,3.91559681178245,3.891324
8257.113,204.792,1079.406,0.01994358,0.01492715,0.9359516,0.06738602,2.33291925974959,2.332295
8730.223,225.807,548.0442,0.01128522,-0.06051343,0.2122541,0.2402902,2.93769156230127,2.934355
9434.081,390.7673,591.9127,0.004932491,0.05362028,0.5829138,0.3491332,2.71236193187376,2.704067
7769.173,224.7922,975.8502,0.04811839,0.01388751,0.3237522,0.6293713,3.70497735836961,3.702592
5714.84,454.2126,1116.956,0.06252016,0.0561367,0.1388332,0.9524372,4.0414192006255,3.995688
9145.922,133.7951,1831.421,0.007181274,0.01329314,0.33234,0.4294343,3.88159488787,3.876227
5718.641,275.2524,1907.54,0.04388624,0.03160819,0.9747562,0.9025204,3.5413761648962,3.527094
6868.225,101.8973,1699.091,0.0492009,0.05464233,0.4489735,0.1040189,2.75829794275787,2.768288
9315.274,112.9591,1926.082,0.01688307,0.05298698,0.684056,0.3089099,2.70447895592692,2.705698
6769.113,184.0011,264.3479,0.02657063,0.02108582,0.2204342,0.7057745,3.68147991771571,3.678025
5936.775,456.0614,1663.91,0.02397119,-0.06349898,0.8759935,0.9016115,3.3454949617099,3.331848
6832.779,483.9095,1816.909,0.005338782,-0.006997451,0.4854288,0.9184148,4.88009359701622,4.873048
7165.071,175.8364,934.8733,0.0400115,-0.0623281,0.007885504,0.2331551,3.14395411244963,3.140686
5975.601,334.2633,310.6683,0.02526098,0.04697433,0.567619,0.7926195,3.16209927521801,3.159435
8858.859,391.1041,1505.072,0.06742297,0.003852859,0.6784708,0.6514882,3.33513504518483,3.298005
7327.03,166.7301,961.3022,0.05606065,-0.02369633,0.1073219,0.6601578,3.84421471167429,3.846599
8580.637,141.7954,738.075,0.02337203,-0.05680363,0.4250573,0.6663453,3.14813091440654,3.144452
9317.641,193.5668,1843.279,0.02484199,-0.002892683,0.738759,0.3845996,3.28147033936765,3.267999
6596.136,228.5574,618.7217,0.04441156,0.03805099,0.2790774,0.4115484,3.29739071614209,3.285938
9003.086,186.5639,718.8327,0.03018325,-0.03109004,0.6535331,0.3723498,2.94720901244257,2.940187
7613.63,410.8665,1959.023,0.04153947,0.01142831,0.8621488,0.2050856,2.70867210851885,2.713278
7958.332,392.9746,824.2745,0.01710978,0.02812294,0.2371802,0.1971421,3.36557274024367,3.366564
7231.646,322.9477,761.5877,0.03422624,0.06146008,0.9204975,0.1382844,2.00730150962676,2.000742
6983.979,417.7168,995.4961,0.02854002,0.04837449,0.9452513,0.01963439,1.95459781754072,1.950334
7143.792,180.9839,1510.78,0.03297394,0.04188723,0.1900599,0.05192424,3.11982601304629,3.110637
7154.902,247.2804,717.4654,0.0460353,0.0687665,0.5863453,0.2092213,2.49348027037335,2.492443
5708.786,174.1237,1672.359,0.04459303,-0.02877946,0.090779,0.6676076,4.39194444378391,4.368712
6456.666,167.665,1647.155,0.06333759,-0.05832043,0.7803511,0.2611647,2.52265075928511,2.507149
9284.723,221.5032,856.9052,0.04260421,-0.05532946,0.8640818,0.5214674,2.47886213868387,2.480862
5561.962,374.5005,1874.321,0.004882822,-0.01355813,0.1851858,0.1563956,3.95497313481435,3.944867
7663.389,453.7492,1397.491,0.06247884,-0.005790676,0.602308,0.9849853,3.93677319607986,3.947934
7068.644,382.0901,975.7133,0.05864593,-0.004095989,0.174716,0.3868119,3.68654023365086,3.688041
8687.568,492.7138,639.6393,0.04738394,-0.04650683,0.7814643,0.8972946,2.93102937507398,2.941215
6764.04,428.5498,1984.012,0.002557045,0.02559961,0.2300498,0.4637734,4.03996323487022,4.047321
7035.626,314.4622,1728.031,0.03397756,-0.02572014,0.6883673,0.6876784,3.66995198347819,3.667051
6079.829,190.1403,891.7887,0.003841503,0.06384157,0.3510606,0.3759333,3.02914346540668,3.037058
8507.065,248.9276,422.192,0.0494653,0.02894438,0.9892265,0.3419033,2.01549293077615,2.009495
8543.21,431.0593,1344.113,0.02632376,0.04572913,0.1474209,0.4558434,3.46240952966458,3.455734
6158.839,458.5833,342.1762,0.01434526,-0.03571,0.8713032,0.3677303,2.54001286423424,2.537555
8910.987,387.9938,577.7334,0.003164439,-0.007176406,0.2956567,0.4531336,3.83868935886383,3.830506
5525.499,103.5835,1377.215,0.02936474,0.003321328,0.6420684,0.9398988,4.60584067626877,4.583307
7991.418,216.6178,1250.508,0.03353185,-0.05434188,0.4756297,0.9538152,3.59653141173206,3.599188
7080.286,237.3125,241.8189,0.05153525,0.03527752,0.8536599,0.6236501,2.54856872309722,2.544869
9332.247,402.4009,1948.345,0.05321816,0.01310273,0.5761919,0.6077981,3.48761206818444,3.481703
9051.507,339.2398,689.938,0.03163062,-0.02115307,0.5442787,0.1295624,2.98283143600068,2.990246
8327.889,162.7302,233.4544,0.03434215,-0.04735649,0.1273269,0.1802467,3.09651339250624,3.086806
7324.623,121.1097,1103.643,0.03644419,-0.02942536,0.7730912,0.3633951,2.87592309556497,2.87231
6789.33,352.7094,1379.526,0.03282413,-0.051277,0.918912,0.8349825,3.0482917901793,3.037106
5842.221,394.0762,1192.612,0.04834182,-0.0677748,0.7006353,0.8115088,3.28378543862053,3.251901
9258.358,326.3256,223.2914,0.06706867,-0.06775151,0.8230422,0.8269259,2.52596738829911,2.524072
9496.591,388.5457,1780.171,0.01514926,-0.04686101,0.4550662,0.2320681,2.9773630994586,2.972373
5747.962,391.9591,1149.411,0.04401012,-0.05873884,0.6093303,0.5981807,3.23241372610855,3.207682
7933.369,187.4794,1549.464,0.06792891,0.06557597,0.2266888,0.04209672,2.6633399407331,2.680242
7389.317,299.2117,732.5088,0.02141761,-0.02394053,0.5260445,0.9168784,3.81134260819654,3.807117
7905.222,101.031,954.162,0.0192123,-0.01060065,0.6924765,0.5459314,3.40689555546685,3.4176
5992.865,470.3267,281.4237,0.04106312,0.03235852,0.8199397,0.2625264,2.49124354174645,2.498972
8775.745,359.9681,674.1561,0.0009788529,0.03318829,0.8242208,0.9988823,3.09875214137361,3.103978
9127.787,410.4873,206.317,0.0493761,0.02279751,0.8360015,0.8933437,2.72189275908905,2.70154
7827.028,494.8908,1952.487,0.06079564,0.01239809,0.04412078,0.6417776,4.16290336658403,4.12669
6629.209,103.042,806.6293,0.04576511,0.004976861,0.8892997,0.5775178,2.97148615293779,2.961162
7556.772,430.1027,1749.513,0.05904236,0.006593534,0.7523812,0.2978577,2.9674729476409,2.955146
9207.229,200.8009,598.1397,0.0126806,-0.04841829,0.7072831,0.7720392,2.92998428593736,2.918245
7586.264,374.276,1204.578,0.04862903,0.0571383,0.4196831,0.5753335,3.22519173213998,3.200999
6350.421,236.4917,1535.021,0.03569718,-0.03963025,0.3631125,0.175587,3.18849729635132,3.194454
7690.13,202.2218,1317.437,0.0495787,0.06037595,0.2549696,0.7129978,3.4881538789501,3.471534
6979.784,128.491,1888.207,0.01978441,0.01460979,0.4805319,0.04671054,3.22831750562147,3.209796
8452.912,428.0166,866.8864,0.02409393,0.02086105,0.5046911,0.5722046,3.46846665888099,3.46232
6635.015,266.9271,1579.039,0.06043622,0.05025759,0.8987719,0.1328013,2.17399608290688,2.157873
6048.787,344.7452,1301.141,0.06633758,0.05378999,0.8103759,0.1123648,2.2671291440641,2.254794
8305.249,393.9067,930.7687,0.03514174,0.04948905,0.1063716,0.4320108,3.35852117209335,3.359932
6405.625,108.7066,847.5193,0.0526127,0.06064411,0.3968761,0.6281589,3.24505840272941,3.233591
8859.811,438.9335,587.5016,0.04525581,-0.06910542,0.651429,0.7066084,2.77214357194586,2.775522
7655.999,319.7481,1968.306,0.04490499,-0.04127026,0.7978694,0.06449754,2.41398650859693,2.406129
6740.791,371.5686,1794.97,0.06267653,0.05472243,0.210915,0.9505538,4.08976619089739,4.072735
8635.59,499.4218,1631.439,0.004482562,-0.05964249,0.7119745,0.7827882,3.12950297041769,3.122578
5876.971,476.2048,409.1474,0.06313951,0.04550946,0.9325853,0.8754567,2.64736163270698,2.647835
7477.417,134.9011,1855.898,0.03026962,0.006260557,0.7042522,0.3690231,3.38095926053014,3.358932
9198.449,141.5111,1943.109,0.04443464,0.0669903,0.4066271,0.007453756,2.53225333393196,2.520186
8651.581,131.3495,1441.199,0.02815661,-0.03427515,0.536748,0.6044993,3.45804970452845,3.452071
6036.859,204.0266,1257.938,0.01356268,0.04058961,0.5386008,0.2247414,3.02901240100315,3.033451
6898.649,236.901,766.5869,0.05127722,-0.03781269,0.6662636,0.4477388,2.91239051064902,2.902742
8238.104,353.3107,1183,0.002301266,0.005960219,0.2817072,0.02687306,3.58630375307338,3.587617
6173.924,153.68,678.4809,0.04940694,0.03470389,0.1922393,0.657431,3.66555283273738,3.645028
8385.311,318.2503,1362.514,0.03611683,-0.01838838,0.7236167,0.4896408,3.18850455914412,3.186871
8030.956,427.9802,792.3991,0.04275115,-0.02708466,0.2407197,0.08389828,3.17216835260507,3.157592
8797.059,486.6189,835.5389,0.007572185,0.02700839,0.8019212,0.4575717,2.86670657255034,2.861808
9268.545,104.4145,1893.628,0.03897335,0.0524583,0.8831275,0.9223769,3.05387096400044,3.033533
7308.078,353.0114,1054.741,0.05210931,0.04322861,0.1971936,0.4010451,3.32517226538516,3.311855
8327.347,224.0391,1987.894,0.0005950799,0.03214579,0.3121945,0.4271792,3.63416767634393,3.624045
6164.034,308.7765,579.2424,0.04986626,0.00444949,0.6222201,0.8716532,3.65914518319466,3.65793
6492.737,493.978,612.041,0.00114484,-0.01080501,0.6878135,0.2037402,3.15407531103769,3.152944
8810.668,167.3647,631.6954,0.03803389,0.0320173,0.8817287,0.5317203,2.57829573063659,2.579005
6901.154,211.6695,1038.249,0.04608363,0.04324322,0.5116126,0.4356213,3.11484071468998,3.108068
8139.325,476.8389,1282.405,0.04182901,0.04948069,0.61273,0.08855481,2.58365298846608,2.579723
7900.727,286.0914,322.7096,0.06254891,0.0430588,0.2685817,0.03400997,2.78225760336514,2.769056
6614.979,489.6723,1234.998,0.02310073,0.01702145,0.1896641,0.3733838,3.88500820948123,3.877129
8090.485,325.4838,1474.625,0.02001419,-0.06269747,0.4632542,0.7700803,3.36562651188372,3.352154
6831.424,295.1684,1446.108,0.03291478,-0.002348432,0.4664024,0.443789,3.80915543626005,3.814553
5896.439,212.2499,1189.55,0.04656519,0.06191882,0.4399565,0.326851,2.97817226823861,2.972228
7952.481,110.3754,1857.572,0.0004082356,0.0181348,0.3416859,0.3945885,3.82775977191295,3.832493
6261.929,215.3224,1114.032,0.05440817,0.03094605,0.7599715,0.8010853,3.37022208065919,3.352277
8119.736,249.8173,769.0861,0.0007637997,-0.04395028,0.2943926,0.5330531,3.36912432396613,3.373382
7465.681,396.284,918.6043,0.04795269,0.04410991,0.1049663,0.4408326,3.4173331163657,3.406395
5720.708,463.8344,1201.924,0.03242159,-0.06558531,0.9478433,0.87004,2.97287832379898,2.959959
6184.919,228.234,1477.348,0.04172819,0.04723796,0.6442778,0.2606379,2.8759032720775,2.867498
7160.254,306.6706,1905.209,0.0345761,0.06400146,0.4020455,0.9970366,3.90511660125966,3.893254
5929.812,448.1023,904.604,0.02999923,0.04016466,0.5417395,0.3283121,3.11150934283496,3.104292
6272.789,320.6745,1236.408,0.02087951,0.03892317,0.02633574,0.5365333,3.94406526769902,3.94416
6981.676,262.3558,1707.38,0.02728422,0.03447923,0.02289108,0.5530685,4.08817232942973,4.088449
7132.59,412.6929,1312.871,0.02470348,0.03546467,0.9430961,0.7032501,2.9170558616341,2.923368
8763.422,236.2798,1461.11,0.03312455,0.0005415258,0.4743396,0.3209141,3.52018799316377,3.511999
7160.527,178.3711,1203.884,0.03088938,0.01150989,0.9138586,0.3122722,2.70312808246726,2.700508
7737.14,214.8447,1720.604,0.01663613,-0.06318079,0.1502235,0.744501,3.71179458794686,3.696821
5920.903,137.5786,538.2821,0.03261747,-0.02337932,0.6813491,0.7979094,3.46289832295751,3.458425
7442.871,126.8072,1529.549,0.007309342,0.05379875,0.7320572,0.07778217,2.39905554079875,2.412144
9122.148,247.0133,210.0031,0.00408154,-0.004287297,0.5774183,0.5526722,3.42476040286455,3.42364
7270.52,338.5587,1826.48,0.03018603,0.01375169,0.7353813,0.2740933,3.11446097386557,3.11071
8275.22,379.7878,1108.28,0.04628914,-0.04040884,0.9242957,0.5746736,2.58867675616324,2.571738
8440.544,408.9635,1075.358,0.05350897,-0.06822241,0.6057176,0.4390968,2.72091727016831,2.709048
7027.235,397.7696,1598.507,0.02827229,-0.06175721,0.3219665,0.8787821,3.8009327594367,3.773037
9132.274,124.0331,245.45,0.01070935,-0.06421743,0.4406936,0.344778,2.71533743232817,2.718932
6470.025,329.1848,868.5155,0.05038035,-0.02891064,0.6292402,0.2366906,2.8813121163945,2.874553
8053.092,398.9665,1724.259,0.03978839,0.01842481,0.3780198,0.543637,3.74873431449141,3.736573
7746.451,451.7187,1639.32,0.03290927,0.06039844,0.9803676,0.04013274,1.76486314664574,1.762055
6548.703,298.6577,1337.687,0.01140549,0.0282043,0.3566219,0.3405279,3.56206353674875,3.564483
6169.257,324.7946,329.2683,0.01657495,-0.06738363,0.1353439,0.1113259,2.83721670103867,2.822734
6491.392,467.4496,829.5557,0.008774614,0.03854043,0.1495407,0.5171327,3.65895571239905,3.670577
6065.306,468.814,1363.775,0.006504262,-0.05869119,0.3715861,0.5245163,3.4054263505373,3.401916
9168.498,296.2814,1777.228,0.02179302,-0.01040677,0.5345008,0.8324538,4.06398048328085,4.071543
9045.268,219.7649,1026.198,0.06544302,0.04660098,0.5900605,0.114562,2.52088993408627,2.517293
8213.096,367.7716,763.3705,0.05967389,0.05418421,0.6581825,0.1712433,2.45570985739928,2.450551
9330.061,345.1816,1621.959,0.001957483,-0.03390287,0.5162987,0.6122696,3.48140659505483,3.497572
7031.906,264.5355,910.3109,0.04212016,-0.01962085,0.8864058,0.6756943,3.01518171075393,2.994697
7231.753,305.0685,1538.233,0.0373107,-0.01393717,0.3899996,0.6951135,4.05658971899815,4.063135
9377.468,260.1778,831.8236,0.04210235,0.01829262,0.7034929,0.4033641,2.9145788700142,2.913702
8852.697,121.7031,644.1693,0.001976858,0.03921668,0.01984806,0.8665701,3.83447932744705,3.818449
9129.461,416.6562,1911.649,0.04603088,-0.01232923,0.4642645,0.0684548,3.08620505919474,3.081104
6011.054,114.5903,1539.865,0.04516786,-0.03463493,0.5319295,0.3640342,3.31097267058812,3.317517
6309.836,368.1923,1266.821,0.051686,0.04236684,0.5069335,0.2372791,2.96038769123736,2.939269
5622.347,145.312,1566.74,0.03804897,-0.02339746,0.7745559,0.8465321,3.99488327302101,3.974343
5936.159,111.5512,1794.207,0.04522952,-0.05041022,0.705552,0.422504,3.10251729977028,3.07498
6065.284,208.4797,212.9575,0.004684958,0.06703354,0.8004559,0.8768348,2.66100321748175,2.657318
5988.115,457.3971,1014.624,0.06664567,-0.04567035,0.5607661,0.7532063,3.41931764736498,3.408156
9359.689,144.7731,1879.591,0.02104498,0.06653977,0.6111708,0.177549,2.50974758288193,2.508719
6133.651,410.3081,1267.682,0.01646732,-0.06287529,0.0392745,0.6653197,3.76737872860578,3.747669
7046.735,158.3056,1738.683,0.0625037,-0.02277877,0.6431709,0.9142397,3.87643765220085,3.837328
8694.594,450.4439,1433.2,0.0329929,0.01818576,0.6983521,0.5868384,3.31578254520229,3.315098
6020.853,355.708,1834.587,0.03740326,-0.06759279,0.6724251,0.8797629,3.62803688933407,3.596803
7934.574,378.2575,759.1933,0.0411231,-0.004256353,0.2599375,0.7525753,3.96723642852264,3.948343
6402.578,467.992,1218.09,0.01677936,0.02925586,0.7022379,0.5202433,3.33748675927924,3.344838
7867.32,354.5365,1868.751,0.02605908,0.05224821,0.7784114,0.6610527,3.07141756668049,3.074642
8044.62,372.3929,1928.6,0.04321091,-0.03469082,0.0153567,0.3559998,3.69841126626486,3.697202
7147.764,353.7764,825.0639,0.01680571,0.03655457,0.2140721,0.7421119,3.79668575423796,3.793545
5724.266,380.7102,340.2103,0.001505552,0.02691948,0.9791571,0.689337,2.58247492330063,2.577072
7100.712,250.3665,968.4253,0.04082793,0.008378209,0.2519588,0.04397856,3.30693117181243,3.312781
7775.435,288.06,1705.161,0.05470681,-0.04884386,0.9258453,0.313134,2.34035070530251,2.327594
5944.004,429.2692,1483.169,0.005177733,-0.0658322,0.5392893,0.3485088,2.96339930441198,2.95118
5578.242,381.5217,1049.318,0.022495,0.006417084,0.08961621,0.2550715,4.01095258575435,4.016947
8344.213,350.9263,474.2585,0.0135636,-0.02130812,0.9556461,0.7600479,2.68786843671619,2.690598
6446.652,119.8572,1126.185,0.05740712,0.01652457,0.1371208,0.8821873,4.28207837247456,4.289693
6497.722,496.6795,1709.982,0.04612627,0.02482076,0.2913778,0.1794533,3.35383433492494,3.340109
8867.63,213.2009,254.168,0.01761131,-0.01532382,0.5421067,0.04866413,3.06226079959391,3.043985
8764.324,337.6053,1139.716,0.02459923,-0.02257595,0.08325971,0.2209721,3.63986268181922,3.632853
8487.125,476.7911,472.6148,0.02930026,-0.06755923,0.003705729,0.9672629,3.52518448163714,3.52384
8298.896,119.0022,938.5143,0.05311804,-0.04893529,0.7180643,0.960861,3.17972374826479,3.15954
7986.694,245.8425,297.031,0.01014753,-0.0185784,0.8566079,0.3625707,2.69193415947571,2.695681
7225.145,404.7859,1964.542,0.05673915,0.04813189,0.08720987,0.3213543,3.38288221950479,3.398018
6507.616,480.7267,1633.806,0.01650996,-0.004558304,0.8041442,0.7484806,3.98858853379853,3.997163
8797.179,309.046,1846.325,0.06902546,-0.0131287,0.8825398,0.01385899,2.23569469602763,2.231277
6175.535,139.6865,1499.474,0.04378126,0.06055725,0.302912,0.9482651,4.00664642418269,3.99869
8536.304,223.5313,230.2778,0.003688559,0.04382424,0.8909151,0.3041002,2.25447577548566,2.259511
7653.202,102.6626,700.7505,0.01056824,0.05683397,0.001878087,0.6088821,3.46687934366329,3.46806
8473.257,225.3697,1848.767,0.02334365,-0.04473883,0.8136013,0.03277069,2.32126954074038,2.333173
6644.881,461.7298,357.6703,0.01371865,0.004651922,0.05408187,0.01806411,3.7163538302055,3.714091
6595.229,498.1451,1642.35,0.01218568,-0.005546126,0.4517656,0.07327564,3.47247896516034,3.47908
9413.909,368.9984,932.9766,0.05045723,0.04381712,0.8050257,0.9942885,3.01773036071248,3.021347
6582.248,406.1099,204.0073,0.01641328,-0.001285632,0.9402497,0.925948,2.9181959192011,2.916505
5714.44,155.1003,279.3988,0.06156691,-0.03074753,0.8912257,0.354676,2.36306648440327,2.363956
8438.798,154.0443,460.3243,0.006234043,-0.0177891,0.04697466,0.7086906,4.04174393338281,4.041849
6664.085,159.6933,1255.149,0.03694313,0.01109546,0.4582398,0.6999531,3.99576623434964,3.979663
9102.017,153.021,1703.9,0.02011869,0.02669902,0.3641335,0.5671597,3.72078185737908,3.73308
7327.179,114.9742,1679.225,0.01465494,0.01937984,0.6548403,0.5965493,3.69486546916365,3.70619
8141.887,360.53,879.1372,0.02603769,0.02232447,0.3168737,0.6963621,3.77822786309747,3.791539
8935.298,203.8868,1106.606,0.05189828,-0.008227496,0.917934,0.07975859,2.28577557422366,2.280788
8722.303,164.6872,1424.131,0.03413499,-0.01166435,0.4289512,0.0937121,3.21968253575581,3.215095
8837.453,386.6659,1872.881,0.03243958,0.03734815,0.8749687,0.008447066,2.22632384834712,2.229057
9225.028,367.3767,1531.678,0.005142014,0.04808998,0.3690673,0.8305412,3.60548659298266,3.617646
8608.452,239.3906,1001.559,0.03656458,-0.04037243,0.3269016,0.5587838,3.42206949785748,3.435799
6322.692,498.98,1051.404,0.0143964,0.05840512,0.95659,0.9921655,2.97408227440153,2.974663
6956.81,359.5248,1764.394,0.05343784,0.0124437,0.02495299,0.5443208,4.16431238811738,4.167005
5639.792,318.8633,1547.793,0.04890363,0.02895999,0.8583874,0.5716891,3.2089598453871,3.18761
8216.973,405.0131,1406.935,0.010833,0.03533114,0.5810271,0.5995699,3.37588847995751,3.375685
7020.484,195.7531,1753.638,0.06320315,0.05289765,0.54701,0.8408199,3.55898770757955,3.533885
6792.119,414.5732,318.2442,0.06570565,0.03780048,0.4779961,0.5569008,2.99688943826906,2.96193
6361.023,438.5081,1518.327,0.01970123,0.05078723,0.2974748,0.1509163,3.05118679244279,3.052006
8906.27,473.54,873.0538,0.04292261,-0.005835093,0.1766915,0.4074379,3.69056689857742,3.695943
9468.856,323.9558,839.4931,0.03564152,0.03284667,0.5158174,0.235734,2.95951756173244,2.93865
8361.446,319.3217,593.4727,0.04489192,0.02629706,0.009259022,0.4198149,3.56930115922167,3.537333
8169.583,179.7352,1718.349,0.02704928,0.04015538,0.3879517,0.2450152,3.17450713975899,3.175099
7733.811,210.4206,397.299,0.01459171,-0.02038784,0.4679874,0.3914859,3.33558571624845,3.347559
6676.603,460.8113,1820.221,0.003464847,-0.001418588,0.06856074,0.9248043,5.53064345829149,5.524649
9372.19,398.3483,1700.695,0.04494927,-0.02247003,0.7309843,0.9373688,3.5581812762304,3.540204
8031.66,457.7806,1636.111,0.06715891,-0.006163729,0.3731039,0.07687353,3.10819659774987,3.097972
6923.619,162.0172,1471.058,0.01902443,-0.05220307,0.5891284,0.5008039,3.17139361300264,3.164506
8542.27,335.0779,535.1993,0.05487106,-0.03909257,0.9291217,0.08970823,2.03537600227983,2.03184
7326.882,435.8231,596.1706,0.03119848,0.05885564,0.2444366,0.4591287,3.10973899949106,3.113486
8286.221,192.7265,1312.07,0.02672468,0.03915759,0.1863179,0.8679853,3.97205782333616,3.9685
6005.585,416.3005,493.0945,0.04811645,0.04333588,0.4886352,0.1232083,2.76540121090569,2.746414
6538.633,116.8853,923.4151,0.03651783,0.02658196,0.6400789,0.7119625,3.47635574541275,3.470594
8748.462,251.5973,1302.162,0.002687166,-0.0530959,0.552102,0.5505209,3.09080563032616,3.08261
8024.328,141.1059,853.1057,0.03310259,0.02007975,0.02107575,0.1762933,3.5704593400087,3.570132
6882.7,400.9145,333.5652,0.05988076,0.02807201,0.06379981,0.6706969,3.54155423250169,3.528889
8513.244,470.4969,899.9151,0.05247489,-0.05558209,0.8796914,0.09996992,2.09669360047021,2.085965
7157.324,244.4352,1740.662,0.007272213,0.04685093,0.07418288,0.6693723,3.97406919298116,3.965725
6723.957,255.092,1454.898,0.0192747,-0.05848542,0.6753045,0.4429065,2.92729757977518,2.921295
6165.503,358.5286,1814.555,0.0568204,-0.02072718,0.7616099,0.6373776,3.53274504155424,3.543733
6452.913,171.1693,1128.325,0.02641739,0.0253764,0.2022728,0.294031,3.6343515370899,3.634237
6968.961,171.9673,1780.952,0.06150072,0.007876574,0.4168922,0.7779139,4.12256573414534,4.126579
9240.293,227.8315,1607.893,0.0691084,0.05373438,0.02550899,0.8626205,3.72857850484064,3.68752
8718.586,472.7413,1716.744,0.06260221,0.0308394,0.8694607,0.6743178,2.88425536285909,2.896117
5620.983,301.1433,1315.208,0.03518608,-0.02243893,0.3080368,0.3329455,3.71586555478765,3.700514
6050.224,444.4922,1427.034,0.04640902,0.01449721,0.3912819,0.330286,3.57152632336106,3.564272
6053.956,290.1102,1622.155,0.02561078,0.02053869,0.08004046,0.3529683,4.04153394020018,4.038899
5958.311,129.2379,1081.251,0.04362231,0.005041505,0.317894,0.5104003,3.94402067757506,3.926809
9428.02,342.0987,1734.999,0.012207,-0.02693056,0.4446853,0.3680785,3.44116653479956,3.438261
7051.899,397.1453,524.9871,0.04872833,0.06386492,0.2494903,0.4455064,3.03011110566271,3.033635
5824.802,292.2015,1453.369,0.03036903,-0.03698308,0.5658532,0.7249597,3.88856198097068,3.88416
9415.349,494.4917,1725.985,0.05928606,-0.01197589,0.04270945,0.8738619,4.25690607414785,4.251358
9016.062,400.692,1349.66,0.01216411,-0.002690042,0.1055653,0.5833276,4.37411957999476,4.351492
5996.281,323.2657,628.4032,0.04789154,-0.05466015,0.5664114,0.2426543,2.73778327243273,2.742498
7945.876,218.8592,345.5646,0.03413254,-0.01851525,0.1295391,0.7582917,3.79714644681649,3.797361
7675.459,150.5567,1978.616,0.05119887,0.04661591,0.3584053,0.2486739,3.09603047268131,3.089874
8921.739,468.7051,715.4441,0.02102162,0.01037681,0.9364742,0.8633184,2.96018278977464,2.957605
8930.555,285.1906,1119.581,0.02971536,0.0353294,0.7395514,0.8001747,3.21899692288197,3.210771
8233.171,331.1535,1757.481,0.03819595,0.009121804,0.8162412,0.5061846,3.16677298663366,3.172177
9091.637,388.0134,271.0423,0.01672158,0.04695868,0.4908105,0.2522947,2.78697771378702,2.782336
5734.485,156.9641,1358.453,0.02015097,0.04862546,0.2505946,0.3175983,3.38134758346866,3.382063
8698.724,426.0773,1161.464,0.04386128,-0.03734434,0.7959892,0.5357031,2.84019400424498,2.843004
7166.695,329.8739,1334.779,0.06204275,-0.002793498,0.1153245,0.3937607,3.8095449538708,3.803923
8244.617,419.5216,510.2359,0.01036806,-0.06821234,0.831013,0.945791,2.71587715474924,2.70935
6150.015,447.3958,315.2136,0.03986654,-0.0526348,0.9507308,0.1980034,2.02721182932827,2.035217
6814.713,195.2332,1021.917,0.06371478,0.009287558,0.1246583,0.3053872,3.56673980620175,3.540648
6364.835,340.7111,1606.153,0.04982369,-0.02541473,0.4920609,0.5619811,3.69650819248566,3.691438
8156.761,139.0257,327.587,0.06206191,0.001524583,0.2840237,0.9764402,3.7194751783283,3.722655
7190.068,341.4089,990.681,0.0656338,0.02161022,0.01443509,0.2655637,3.45311264578744,3.445897
7667.683,278.6181,970.8177,0.032352,-0.0480181,0.415451,0.4179137,3.1453543044923,3.145181
9327.612,420.858,507.4744,0.01809586,-0.03988822,0.9724611,0.7542722,2.3825232707824,2.390266
7035.488,380.8714,1655.147,0.04978328,0.001197586,0.4602427,0.8318319,4.27831234313114,4.246076
5792.522,469.5035,1258.749,0.03470363,-0.0007269528,0.08442463,0.9661024,5.10866276280574,5.109423
7111.303,191.6362,289.8173,0.01419801,-0.02527587,0.52427,0.8077629,3.44200180094542,3.447268
9374.095,165.5633,1467.598,0.04035399,0.05210557,0.8465305,0.5094906,2.61658366001121,2.609816
5910.661,383.0259,1590.702,0.002106168,0.05285429,0.4849388,0.7830388,3.80627983339846,3.813333
9139.37,463.0015,520.4491,0.007452653,-0.06921084,0.9934867,0.5032419,1.92903598364277,1.929495
5875.031,229.2041,359.4941,0.06543076,0.00868595,0.9086309,0.9692515,2.9616009882407,2.919835
9249.762,303.7553,1383.88,0.001008775,-0.05051597,0.5883667,0.7761051,3.27514328572639,3.272036
6633.676,118.0016,1327.98,0.02145267,-0.06068627,0.574817,0.49496,3.06205115120512,3.049469
9214.321,284.7337,1746.935,0.06423231,0.06738205,0.6652777,0.1210847,2.34292003153294,2.340037
5893.909,107.0361,1756.548,0.02913393,-0.01879319,0.3947428,0.9901334,4.93228646482193,4.927551
5702.421,405.899,1133.409,0.01954012,0.01140762,0.8412549,0.1739253,2.858930312645,2.86063
7213.682,350.3698,1809.451,0.0492703,-0.04129466,0.1722554,0.3599588,3.51426068853329,3.482832
7841.745,297.9063,757.6592,0.01932057,-0.03585836,0.03515138,0.2393072,3.49127648940427,3.480964
7395.641,157.9154,1934.917,0.06368991,0.06597312,0.5379473,0.1275549,2.55196983669465,2.556646
6059.189,272.3998,644.6578,0.009382933,0.04486477,0.6016632,0.8086819,3.36570901451412,3.359741
9062.422,488.8955,1329.724,0.02931176,0.004759088,0.9313112,0.2161002,2.54192133459403,2.532981
7704.584,337.5912,1135.987,0.03688478,-0.01821871,0.1615229,0.8223281,4.19847892450817,4.197671
7757.05,375.6092,1805.511,0.01307065,0.03532833,0.8334713,0.9794729,3.60432513845805,3.618831
7511.834,419.9604,1110.408,0.0430834,-0.04841868,0.7764102,0.02706662,2.32832993955807,2.317202
8542.499,252.8984,1554.5,0.05931683,0.01940719,0.7620686,0.9757043,3.51143448839172,3.507266
6474.972,269.2958,298.6703,0.06416823,0.03055619,0.5579421,0.8556561,3.1793956927294,3.131782
7424.474,111.6398,1852.731,0.01458653,0.03542287,0.9715272,0.3766449,2.48065271520476,2.478547
8699.975,456.9253,1077.226,0.001897058,-0.05394821,0.7509167,0.056887,2.32662591043487,2.328504
6013.659,336.5833,1187.227,0.06457688,-0.006193891,0.2572551,0.951105,4.45279994404737,4.420626
6466.893,302.2796,973.8168,0.02957691,-0.06327071,0.82132,0.2993775,2.41546134397444,2.418044
9207.433,122.0411,1280.567,0.03606785,0.03988134,0.520436,0.8485106,3.49244310063455,3.487112
6014,261.6566,1496.247,0.06688282,-0.06695048,0.8097355,0.5041995,2.75355192658951,2.747842
9391.746,301.2788,898.2658,0.01458039,0.05479903,0.5585841,0.223385,2.6631976604942,2.65813
7640.005,182.1699,830.994,0.02164581,-0.05463139,0.893311,0.1000548,2.10407115196314,2.102415
8031.405,340.918,1491.863,0.05332973,0.01303972,0.7193621,0.53446,3.21523505192939,3.19385
6725.623,332.2353,1389.381,0.05980779,-0.02548708,0.9412775,0.5180926,2.71755851856055,2.723015
6266.613,243.6535,849.6087,0.02871473,-0.007398941,0.6073457,0.7990177,3.909269383242,3.908866
6332.498,345.6776,1922.536,0.03370536,-0.02866352,0.8664556,0.8602426,3.79232602747343,3.781036
9198.694,499.8926,239.6324,0.03643055,0.04138665,0.4946123,0.3771973,2.9057365295265,2.896518
7326.461,244.8132,1978.202,0.06016248,0.05144375,0.7751592,0.731371,3.17397262590953,3.154786
8856.699,192.8471,1563.904,0.007937731,0.03521817,0.7249652,0.5604536,3.11624973498079,3.120584
6353.611,361.8398,795.3297,0.03264803,0.01651446,0.382656,0.6503866,3.83212079400306,3.816471
7263.56,452.0193,1227.166,0.009967801,0.04830612,0.7630966,0.3002183,2.65460609171408,2.653826
6806.238,343.9462,747.6508,0.01414698,0.05181658,0.9530639,0.8255151,2.64875740066219,2.651111
5567.458,115.6993,1555.759,0.01921357,0.02444201,0.8492704,0.4002321,3.1744833849333,3.176873
5657.828,238.3335,540.0432,0.04317984,-0.04274402,0.9196382,0.2859167,2.32522163271725,2.319588
7317.79,147.6786,1744.205,0.01447618,0.0640951,0.3010861,0.1649726,2.86840352086934,2.871647
8104.125,160.6667,1920.349,0.03205767,-0.03554503,0.2780113,0.1845024,3.31021751292952,3.307686
7248.498,472.9222,1605.1,0.003594921,0.0379662,0.988029,0.8941974,3.02887083359016,3.036234
7719.131,105.6141,1035.803,0.04465052,-0.05331211,0.9543626,0.4817543,2.33233223018747,2.329765
5589.695,246.3664,1190.275,0.0256,0.008464105,0.9011248,0.6880183,3.51352242700225,3.516532
7110.962,446.6309,235.8213,0.01369563,-0.02586277,0.03805604,0.4567894,3.69035859757034,3.676149
6378.763,466.9947,1478.498,0.0423665,-0.05936978,0.6283527,0.7954627,3.48391818138617,3.444382
8986.284,177.4151,1785.643,0.05084988,0.03514193,0.1146268,0.2789976,3.37446589204065,3.373339
8040.816,491.8896,1270.079,0.008237673,0.06097943,0.05016624,0.4312994,3.31269455558699,3.319637
5943.944,121.4035,1157.672,0.01844108,0.004721664,0.7135346,0.4723039,3.61651005201395,3.610084
6132.056,257.0639,1751.609,0.006673252,0.01738333,0.8322278,0.8516986,4.08209130960599,4.074729
8993.147,179.169,1644.846,0.01192307,0.02157278,0.1965135,0.4148914,3.8262078522698,3.808794
6237.473,127.9316,1532.159,0.05194085,-0.04072522,0.6495907,0.3031064,2.96239297740359,2.955451
8209.049,464.764,1936.887,0.02675477,-0.0002173836,0.324227,0.06004454,3.49976414695186,3.502545
8382.413,280.9801,1447.718,0.04535402,0.004487184,0.2239458,0.9359184,4.36392394770096,4.348171
6911.557,144.8952,1891.342,0.03136297,-0.05258557,0.7204249,0.6167852,3.24085740314605,3.240332
7718.388,422.2289,1354.212,0.02705642,-0.01144662,0.4465641,0.7214804,4.02239082901547,4.031393
8770.5,434.176,487.0195,0.04783671,0.002791528,0.2525196,0.4254796,3.52100867628977,3.515759
5692.377,128.092,581.6647,0.04412851,-0.0216629,0.2886422,0.4746612,3.59672544169333,3.592162
7257.463,365.3384,604.6521,0.01299314,-0.03401864,0.3181379,0.7073572,3.63371299507186,3.641459
8834.983,474.5389,1342.498,0.06197776,0.0663389,0.5406942,0.7049347,3.04992807803869,3.051977
8409.058,222.1812,1091.542,0.03826735,-0.0142018,0.4568475,0.7577092,3.77358310981927,3.761841
6992.501,359.003,1493.609,0.05714953,-0.001124693,0.1239628,0.09777938,3.50657490394122,3.48866
8194.623,103.7018,1023.301,0.03845577,0.05332489,0.462894,0.3238617,2.91441935478199,2.902149
6681.664,102.358,1417.017,0.06866708,-0.01149721,0.3687475,0.5635383,3.72597909692416,3.689277
9289.768,279.5926,1912.702,0.02307526,-0.04275364,0.5142513,0.3424879,3.10249300445936,3.103478
6823.556,392.1724,1214.446,0.04347045,-0.06450565,0.203688,0.9726507,3.85860397196346,3.855602
8863.461,157.3127,514.3208,0.04858429,-0.01347859,0.2341407,0.105988,3.25373884095748,3.240441
8619.192,131.709,449.3107,0.001823181,0.008885172,0.731246,0.7103291,3.32548423874528,3.315907
6084.319,255.4365,1435.895,0.01983026,-0.002508658,0.03693703,0.7806318,5.04664316660009,5.034969
8445.624,362.0919,274.4426,0.06125172,0.002823464,0.9484868,0.1683694,2.17408529048314,2.171759
8538.727,218.0726,1307.834,0.03767933,-0.01403752,0.7499768,0.09207497,2.73028249038263,2.725678
7520.213,385.7773,1174.022,0.03067805,0.05740477,0.436905,0.4204276,3.02897365812954,3.030362
7968.015,440.7481,1442.232,0.06958854,0.0310446,0.2439975,0.7136356,3.66846467972511,3.671274
5604.582,395.6393,1005.193,0.02051022,-0.01896842,0.1312575,0.6941673,4.48329956628321,4.463448
6881.185,289.162,1239.812,0.01868529,0.01418364,0.465386,0.4706314,3.76399067966739,3.755323
7011.319,117.972,464.2784,0.02055254,-0.05233292,0.2661345,0.03830161,2.84635514370717,2.848521
8419.193,287.3374,1156.341,0.03223132,0.009778366,0.3008353,0.7788583,4.06089119532004,4.043398
6841.105,409.4729,343.9533,0.0003429997,-0.03130217,0.2654683,0.8047122,3.67916840621429,3.687832
6024.755,347.7716,843.5039,0.0236941,-0.04984946,0.2160832,0.9261275,3.96043659973481,3.950029
7361.212,104.1581,268.1983,0.002410194,-0.02547118,0.1807862,0.09635307,3.35856812774317,3.351889
6156.084,228.8669,1071.909,0.02320706,0.03813229,0.2930484,0.4658295,3.5819302600661,3.58204
8958.123,415.801,1099.24,0.02044556,-0.01224143,0.3335337,0.9894895,4.23979184095727,4.250572
6374.363,110.8429,500.0518,0.001173047,0.01621972,0.8552971,0.7895833,3.22062176659244,3.222967
8011.727,268.2494,1868.449,0.01502905,0.05196852,0.8767571,0.09578689,2.20043228214192,2.206099
7143.624,274.5676,414.5479,0.02812828,-0.05354366,0.4277947,0.9860346,3.3779102313825,3.374667
8388.518,376.3405,1823.996,0.02567114,0.01502456,0.3982863,0.2082824,3.44204637884673,3.434425
7667.094,207.6526,354.1032,0.0002067121,0.02710732,0.8372484,0.605663,2.79105767573065,2.782961
5575.494,480.8924,833.9449,0.06825557,-0.04199253,0.584553,0.08076163,2.58531459301039,2.595488
7828.89,312.386,705.487,0.01543566,0.03170566,0.8487655,0.1355735,2.44656096275364,2.438689
9476.189,470.8446,1641.585,0.05613148,-0.06358151,0.8517162,0.03682628,2.04711685152025,2.040711
8251.448,231.7217,336.6754,0.06461841,0.04869472,0.627966,0.4826182,2.67503626016681,2.669748
7148.1,327.3279,386.796,0.05765641,-0.04333184,0.4978926,0.1496023,2.7039428295973,2.701523
7633.382,153.3987,1840.347,0.01507174,-0.0181965,0.1132053,0.9552038,4.90862466748003,4.913032
5756.16,427.0635,1628.134,0.02065582,-0.03017496,0.3835062,0.5547853,4.03177462097773,4.031746
6474.627,490.9449,1730.055,0.02714241,0.06176872,0.7063697,0.5255935,3.01739363740703,3.014907
5786.014,387.28,773.2726,0.06106735,-0.05171355,0.9815185,0.03797396,1.78025774313006,1.784244
7328.355,442.8849,374.4526,0.06843993,-0.04129426,0.8382297,0.6590852,2.5857126453699,2.580068
5701.359,448.8499,412.1084,0.04436368,0.03259891,0.6337034,0.1280624,2.69341695608899,2.694798
7781.188,220.7044,571.4547,0.06069647,0.02193825,0.7489481,0.5818317,2.86078920518226,2.838653
7995.845,418.8066,1068.068,0.0122867,0.01712635,0.4693308,0.8190839,3.98024674258593,3.974738
9464.109,144.1821,682.5686,0.04686727,-0.02648623,0.008463195,0.3830321,3.52617121342627,3.539075
6054.694,352.0489,1522.661,0.03535137,-0.02761661,0.682623,0.9321554,4.11679302372188,4.098585
5804.694,149.0123,1463.065,0.01666232,-0.03285613,0.3100178,0.8025027,4.38261231724516,4.3798
7569.837,208.2812,1819.83,0.04374381,-0.06890454,0.7539057,0.7679856,3.09622134534415,3.076191
6907.744,317.7632,476.9034,0.05914806,0.05751407,0.7165832,0.7883117,2.8595899166397,2.863405
6955.874,451.579,1018.797,0.0549536,0.06963025,0.8178145,0.836137,2.90117427689543,2.870706
9427.15,266.025,527.5449,0.01435931,0.005246409,0.2136585,0.5381252,3.87814851880661,3.866301
8466.268,101.5278,1039.355,0.04854968,0.03413779,0.9348169,0.5401993,2.49567889562101,2.484595
6998.963,443.3024,998.0434,0.04767238,0.04339942,0.9848953,0.6525063,2.48569744873891,2.477339
8475.323,364.5472,497.0689,0.01291516,0.02970613,0.07873447,0.1518604,3.39925159877899,3.389037
7005.532,413.833,1074.247,0.06374344,-0.006532036,0.8022603,0.5708778,3.11301508611936,3.097243
7754.895,254.5863,216.5941,0.04620431,0.001879333,0.4986516,0.1629426,3.06774358299893,3.060489
6164.426,106.4026,387.2173,0.04501508,-0.05513179,0.1450959,0.6095482,3.37438250441014,3.370589
5553.589,426.4253,1375.987,0.0568915,-0.008984371,0.2056653,0.1241438,3.46729643061165,3.460811
9273.523,124.6088,1165.879,0.04961645,0.03549608,0.3721181,0.8507918,3.57633588606137,3.554336
9439.197,469.8516,1082.864,0.01536051,-0.01150129,0.7836574,0.9579318,3.58837308374949,3.59543
7996.618,169.7825,1821.861,0.06372526,-0.02722959,0.1889869,0.378179,3.50743101858388,3.5157
5633.917,445.1998,551.6418,0.03289999,-0.02988292,0.8355457,0.4685454,2.86465011371731,2.857782
7436.739,372.4962,1083.927,0.03399761,-0.01156478,0.7724068,0.7174191,3.43249018288085,3.434384
8938.006,116.2087,490.6096,0.05182929,0.002146077,0.532759,0.8151289,3.45228375004339,3.448743
7433.085,276.1952,958.3848,0.02327124,-0.06557327,0.01736869,0.9066918,3.73685976642139,3.731264
5911.121,213.1175,1908.677,0.01095254,-0.02278417,0.3315839,0.5053528,4.24751589681479,4.23447
7959,484.8319,1181.95,0.02669886,0.01753278,0.7561295,0.1674795,2.81957367533364,2.806142
7648.75,266.5424,1932.267,0.06797859,0.01262142,0.2826983,0.169732,3.27935381320912,3.247668
9150.74,402.2949,1544.14,0.05732637,0.06230762,0.6914623,0.6395004,2.88185315262761,2.855335
5746.265,256.2241,907.6627,0.03874903,-0.01427001,0.3305195,0.101553,3.31548777671445,3.313221
5589.875,324.8894,1216.639,0.03776045,-0.05794637,0.3055516,0.02904107,2.82370968149946,2.816193
9090.284,265.2661,1946.831,0.04077263,0.01175312,0.583397,0.4910518,3.45610163498253,3.445333
5680.663,354.1279,534.576,0.01804113,-0.01350528,0.483987,0.7617261,3.9330346792101,3.948124
7616.847,478.3481,564.0244,0.02082407,-0.03384685,0.9834755,0.8872898,2.62030277968902,2.624072
6362.473,330.4422,983.7418,0.009464231,0.005834567,0.0866613,0.591116,4.51027145882436,4.501712
9247.523,241.5532,746.9088,0.02309333,0.06396119,0.3198316,0.6834101,3.14263528817238,3.138346
8522.754,443.7016,1958.122,0.004944983,-0.06725684,0.6793524,0.6338054,2.9919609721507,2.981266
9019.151,421.951,1474.179,0.004880521,0.02087458,0.9301675,0.2774319,2.56566759051211,2.564872
8172,329.3481,1384.78,0.04716857,-0.006820217,0.00469711,0.6737496,4.23211851481336,4.248917
8971.319,327.026,505.442,0.003258351,-0.02839893,0.4178404,0.5110249,3.33488464079722,3.350712
7836.871,196.7407,1774.981,0.05284833,-0.05646643,0.7410102,0.8771869,3.32228043413119,3.313628
6471.338,313.9331,1610.274,0.03019412,-0.06430753,0.3540785,0.5891235,3.43704668001002,3.437173
9493.769,291.8207,451.2713,0.04112229,0.006730261,0.3288678,0.6970085,3.5816055361111,3.593537
7183.568,416.9018,1177.551,0.06272312,-0.005912259,0.1841317,0.9544267,4.31790883082449,4.293333
7424.25,135.4197,337.7423,0.03626103,0.06313894,0.6635936,0.6344017,2.71711454336433,2.721612
6530.337,123.5346,1252.076,0.04799533,-0.05979422,0.9604601,0.8475378,2.83443371623934,2.807805
6574.257,130.7903,468.6457,0.001729862,-0.028503,0.6451318,0.2723974,2.9664848138457,2.968706
8009.541,174.8499,969.8759,0.01601615,-0.01742444,0.6191916,0.6981112,3.63408565962492,3.633198
6437.631,151.5354,1675.283,0.05672992,-0.03279227,0.01301374,0.755537,4.28879201307315,4.296245
5533.169,232.8221,906.3653,0.007320264,0.05428004,0.5974529,0.7016637,3.33020199137241,3.34254
6460.064,485.7582,1626.397,0.06555595,0.05034308,0.8442248,0.9233128,3.3437818316815,3.312554
6895.632,252.6897,1771.796,0.0670161,-0.02434656,0.6906621,0.1540647,2.73681711339485,2.741981
7921.309,466.5479,594.5624,0.02641246,-0.04591983,0.2749339,0.2293627,3.07154010207449,3.073706
8905.995,484.3408,1800.307,0.05618949,0.02858164,0.275295,0.480024,3.498719742535,3.494959
6521.538,151.1443,1487.15,0.004174885,-0.009280423,0.9231178,0.07472228,2.58540712678958,2.59526
9245.914,445.2688,1851.067,0.03956895,0.06903979,0.09580684,0.615492,3.39516968086552,3.391188
6212.011,355.2382,1123.928,0.04262184,0.004498453,0.6351574,0.3060764,3.28182124046559,3.271821
5623.476,315.1137,440.5527,0.04821987,0.04326304,0.4005207,0.6931382,3.35385515409111,3.338347
8740.578,395.2372,1414.418,0.04487644,-0.01198681,0.3487721,0.5519365,3.71452798413232,3.696007
7890.546,343.1155,650.0346,0.02276063,0.02443665,0.4419755,0.1302625,3.10823042899288,3.111455
6538.588,196.2041,1175.748,0.008983143,-0.05763248,0.04378432,0.4347307,3.49028949688588,3.490197
7278.731,314.2304,703.7906,0.04226766,0.02567901,0.2855123,0.6489196,3.6245260195026,3.611442
6422.829,161.4461,814.1059,0.06082484,0.0591195,0.9042457,0.4604088,2.36785349258748,2.37972
6912.12,384.8575,749.7488,0.04478596,-0.01572216,0.07738389,0.3856046,3.73365203898922,3.726158
6210.636,445.8448,1776.759,0.01082825,0.04710296,0.3351973,0.7794673,4.05631832688697,4.064684
6167.824,391.2681,1410.357,0.009294689,-0.02453106,0.9575615,0.2713431,2.60692934977433,2.600652
8313.508,335.7911,946.4042,0.03664375,-0.005166599,0.6616372,0.8691882,3.66601544944869,3.658835
5753.169,223.9492,1668.789,0.009624541,-0.01808981,0.7688724,0.839223,4.26498087402496,4.275426
9221.289,383.4109,882.1952,0.02985587,-0.05963636,0.9902507,0.9582778,2.42940528405657,2.425801
6262.48,444.0219,1465.472,0.0331367,0.004084699,0.005646743,0.9837189,5.1655234801059,5.154451
5957.021,152.2638,659.16,0.06934507,-0.06870291,0.9873159,0.2938256,1.88143224553428,1.864562
8237.771,206.765,723.012,0.0145136,-0.04423013,0.6523942,0.006229834,2.52602794432047,2.526068
5999.565,420.3681,1541.767,0.002010032,-0.04713624,0.3158287,0.7257572,3.98636857064271,3.985505
6359.95,115.2754,1208.274,0.003297131,-0.004056575,0.8680341,0.5556597,3.51262094387429,3.522584
6909.916,477.7204,1994.258,0.02430149,-0.02242087,0.7156632,0.8804176,4.14482804458155,4.139269
6177.195,405.3888,885.1591,0.0128654,-0.02267244,0.9641862,0.8848574,3.23272239983617,3.233932
6867.137,112.3602,517.7377,0.03908501,0.001470331,0.4733387,0.9098474,3.8607787897762,3.868581
5992.821,156.6552,1050.2,0.03820529,0.01098913,0.01169407,0.9031838,4.70612680314286,4.712465
7430.449,459.0431,873.5107,0.01133201,-0.03830024,0.7086446,0.4021456,2.91634058586806,2.921481
9194.084,182.5092,752.2173,0.04156974,0.05100148,0.7513398,0.5578322,2.70286809009004,2.700079
5800.619,418.0601,1682.608,0.05162219,0.02941036,0.9097824,0.08509832,2.29439910142873,2.288558
6399.524,199.9465,1710.239,0.01127194,0.001655481,0.5099303,0.4622261,4.11723830435512,4.134362
8057.048,455.2354,827.529,0.02342831,0.01715988,0.2451226,0.5081069,3.76215368042327,3.755977
8716.842,142.029,809.7241,0.04474869,0.02936363,0.659025,0.6473075,3.09384826859424,3.083209
8151.076,483.1685,272.2195,0.05506694,-0.0473952,0.2483089,0.6809591,3.21733225137155,3.206868
7712.832,336.2407,1346.604,0.04489896,-0.001084913,0.8524652,0.9646059,3.63338323540732,3.61675
7731.014,379.2833,1760.872,0.007519809,0.01842373,0.5492307,0.3191282,3.46823661503003,3.464715
8792.727,464.1509,1200.402,0.004007554,-0.01646002,0.8651123,0.9006934,3.43530203376295,3.441768
9082.655,411.4199,1170.154,0.05330762,-0.04227098,0.06262959,0.601101,3.58081457779994,3.567022
9498.64,340.2885,955.2826,0.06726708,0.03170708,0.6175962,0.5476821,2.93171793812239,2.9333
8641.191,296.5295,1859.445,0.06261488,0.04088153,0.728288,0.9130819,3.36365291028883,3.325436
6467.377,347.2502,1186.189,0.03536868,-0.05709114,0.1488693,0.7504659,3.7871335623343,3.773866
9471.438,165.612,501.0658,0.03821703,0.01508131,0.7909854,0.1408739,2.59182135136156,2.583862
7454.053,452.6807,1241.864,0.06646758,-0.06468218,0.4579771,0.06665398,2.53518581601569,2.537073
9262.821,201.2361,1679.801,0.03358847,-0.06144839,0.1754041,0.4512115,3.27304437004915,3.26129
8285.305,210.1698,1672.807,0.003004751,-0.03130305,0.7435196,0.04468858,2.63251779931248,2.635336
7946.667,363.8835,888.4677,0.0665391,-0.06322843,0.4090159,0.4691275,2.9384212522899,2.92031
7599.604,362.8103,1999.336,0.03288466,-0.02654065,0.1772329,0.01218668,3.28498308914749,3.302534
7986.507,473.7086,1613.114,0.0347389,-0.0256908,0.5332765,0.9201143,3.99589069676825,3.996007
8775.302,240.5437,861.3387,0.01020712,-0.03180387,0.2876816,0.6429365,3.63881313975825,3.644124
7109.255,458.1376,1393.383,0.02621999,0.05626438,0.4715241,0.01125416,2.60718793063756,2.60875
7720.655,472.2058,1128.924,0.003373404,-0.02853224,0.5913942,0.9811544,3.88692918162916,3.890679
7323.129,138.63,1980.947,0.006585895,-0.01782844,0.5137229,0.2252472,3.48552111591055,3.491036
7973.597,240.1542,1094.157,0.04146393,0.04792504,0.09409112,0.5692616,3.55708369931753,3.557866
8298.732,219.211,430.6217,0.0102594,-0.03588319,0.8118769,0.250038,2.52882503914323,2.528068
5739.161,209.1877,1137.103,0.04874319,-0.02772219,0.5633924,0.965049,4.07107037257125,4.056299
7042.313,163.2282,1694.059,0.05629761,-0.0229007,0.01297104,0.9420714,4.57137598766822,4.584789
6774.074,375.2752,1927.118,0.05421322,-0.01570964,0.2069711,0.1526116,3.460131234932,3.461458
8205.326,356.714,753.3529,0.0005575017,0.01183174,0.6232992,0.1949102,3.17116528047873,3.17283
7505.028,268.8376,1223.469,0.06170273,0.003874778,0.2088943,0.5300513,3.81595638210454,3.820724
7619.926,126.4786,1617.504,0.05067742,-0.06457113,0.4240734,0.8444765,3.55661613060549,3.548897
7935.11,198.0473,927.9084,0.001560686,0.05083524,0.7693254,0.9334505,3.11991933806936,3.129824
6914.575,366.2416,1087.554,0.06924397,0.01648335,0.7096025,0.4181536,2.95995037786824,2.941475
5843.596,300.5509,1624.823,0.0234584,0.01408491,0.6142843,0.218843,3.34470550081456,3.34688
8062.402,233.3041,1100.424,0.03142373,-0.02122055,0.1535051,0.9684047,4.32519663916423,4.32483
6877.659,119.2611,688.318,0.03926457,-0.05474334,0.1015172,0.1539065,3.07953804185324,3.078964
6262.362,437.2121,291.0524,0.06797951,-0.005757047,0.1305001,0.6276505,3.64911126084992,3.615423
8530.916,448.4966,211.2345,0.04031565,0.03282499,0.4591388,0.4106496,3.00627145816258,2.995364
6181.544,253.2476,1971.462,0.01740258,0.02109655,0.09739546,0.3985227,4.22771417963549,4.229714
6529.46,305.5284,1309.628,0.06004807,-0.01021132,0.07665503,0.7233518,4.28587906625779,4.243385
7714.528,222.9855,1044.78,0.01035545,-0.05622477,0.3817608,0.6184264,3.29690153152986,3.288675
9030.579,377.5366,1058.133,0.05279674,-0.065856,0.3097577,0.4374112,3.01127710170117,3.004504
5572.121,332.6881,705.8369,0.02633457,-0.00848267,0.1229572,0.8959233,4.61854024109413,4.629981
6882.44,112.5133,346.4288,0.03128704,0.04580654,0.2468791,0.3797456,3.16286739453708,3.160279
9464.337,461.5599,741.126,0.05848012,-0.01463257,0.2777668,0.8498835,3.68715172124616,3.654731
8890.734,435.0157,1827.335,0.04061051,0.05037903,0.3365944,0.4754653,3.31536091165467,3.306056
5957.836,341.9071,507.9824,0.04273189,-0.06035892,0.9593754,0.2694687,2.03974103834025,2.041048
9285.929,362.4977,1663.269,0.04989772,-0.05496842,0.9682994,0.8860238,2.70759647441112,2.69838
7615.089,441.3041,1788.385,0.02913606,-0.005160368,0.421594,0.747845,4.29288488653142,4.292433
7343.277,283.0778,626.0561,0.05983646,-0.02015987,0.02933295,0.04992441,3.2747760577631,3.26137
8848.391,279.9087,459.145,0.02386712,-0.03015321,0.9523466,0.5937546,2.45455528115918,2.452619
8354.029,425.8076,1066.796,0.03715427,0.01851223,0.529914,0.05537435,2.94190112647052,2.939511
7774.432,479.9709,883.0262,0.06220708,0.01812452,0.9614417,0.8985855,2.81077659359585,2.811212
7724.84,231.297,1686.138,0.004937518,-0.002380149,0.7991827,0.9342961,4.20076471260373,4.19824
6064.381,271.6998,1479.847,0.03635382,-0.02841285,0.8972976,0.145567,2.49647743182395,2.49232
8586.987,337.0007,549.3418,0.01609836,0.008982639,0.05933531,0.4264072,3.92650077236632,3.921903
6925.824,298.1672,1924.146,0.009566195,-0.006745881,0.9147552,0.858601,3.95919842754252,3.963492
7940.22,370.4461,561.1487,0.03717207,-0.003567351,0.09150447,0.6034298,3.95677058172455,3.940205
7537.774,199.4397,1991.209,0.03970927,0.06463716,0.9229112,0.7090894,2.77521331892372,2.771405
7437.713,409.8655,886.6323,0.05691324,0.03596424,0.4341412,0.6007502,3.29007104847631,3.273197
6740.564,389.5146,1508.594,0.03285087,0.02925079,0.6760074,0.1433633,2.85154271747065,2.84419
8146.078,234.9154,1603.696,0.02112956,-0.008480391,0.7779356,0.8385087,3.78743703620782,3.795997
6037.314,123.1518,875.9384,0.00381896,-0.02972109,0.1702586,0.8543489,4.30808976947896,4.296453
6976.399,281.9892,465.0267,0.05103643,-0.04383818,0.9769151,0.9887238,2.57637183489337,2.585951
8644.541,283.5888,259.1879,0.001778968,0.01230998,0.6109972,0.6927027,3.33919794325036,3.339791
6144.228,312.699,708.8025,0.03855319,-0.04466658,0.2533945,0.6447825,3.60330052684765,3.615509
7072.071,151.7731,261.6516,0.03550375,-0.01372439,0.7447153,0.009647738,2.63605288158278,2.625072
9190.97,188.7245,962.073,0.03166541,-0.06787603,0.2339144,0.3071706,2.9280757065248,2.911954
6889.798,373.6473,584.8826,0.02694569,-0.04098878,0.1677103,0.817394,3.77810250007357,3.776243
7772.786,407.132,1237.646,0.0333312,0.02123046,0.1916561,0.9385247,4.29027692974293,4.27425
8687.864,277.6402,251.4153,0.03016039,0.03163353,0.5728121,0.05069404,2.75678481135015,2.744133
8427.645,361.5422,503.2557,0.04742123,0.01423786,0.2119304,0.8069042,3.72823978383781,3.725737
5745.667,300.2588,365.5723,0.009565994,-0.04967268,0.04062313,0.8896525,3.78828309855746,3.778802
6078,273.4954,635.1662,0.05964234,0.01284184,0.6690967,0.3220245,2.94052492404101,2.940665
7428.176,365.9051,931.2777,0.02029178,0.05519765,0.1433089,0.5847207,3.44297337027045,3.445213
6277.513,372.8885,920.0253,0.02883433,-0.02226598,0.06517829,0.7730636,4.33825835777708,4.35168
9411.755,481.8014,1102.99,0.06712741,-0.04539539,0.195492,0.9631778,3.65316412171879,3.655423
5673.091,310.7135,1615.742,0.05926031,0.0599346,0.119557,0.5293829,3.64489869456122,3.65765
6177.724,143.775,1569.165,0.04089634,-0.06519035,0.1590429,0.275757,3.19221307053152,3.176981
8954.524,120.314,1783.977,0.03875344,-0.01894237,0.9738618,0.6857407,2.82053095433523,2.805614
7827.404,177.988,1592.643,0.0145292,-0.009888192,0.002172884,0.7963758,4.78954317107307,4.794757
6044.28,237.904,252.9571,0.05355431,-0.01268924,0.3490582,0.00497973,3.04510305558024,3.03701
6642.384,140.5951,1814.956,0.05465835,0.0448322,0.7671777,0.8090507,3.44506327147588,3.446154
7819.161,134.4779,1830.24,0.01438459,0.03830448,0.2602463,0.1028207,3.17037080799776,3.16965
7641.022,210.8958,1967.364,0.005342282,0.01102773,0.3756905,0.2706426,3.78619092050404,3.788746
7295.578,411.6993,891.0561,0.0512621,-0.06663857,0.4296975,0.09012027,2.60705694366604,2.592471
6724.434,123.7743,1600.758,0.0581016,0.05121199,0.1399566,0.9701774,4.1615114927444,4.151859
9145.442,198.7716,764.9453,0.03418577,0.0532547,0.5531121,0.2892643,2.72636502020424,2.724199
5742.423,128.9098,1408.273,0.0417539,0.06924065,0.9676179,0.3800188,2.24003899902719,2.226605
6426.927,273.6918,482.464,0.04957408,0.01332075,0.4381565,0.01053858,2.95390807770076,2.943874
5956.477,259.5158,1862.765,0.06665329,-0.06919103,0.7463881,0.3962204,2.77182304687599,2.744225
7870.566,297.5244,988.3523,0.02798225,-0.02151524,0.2048651,0.9317265,4.2313805955802,4.210244
5837.84,389.7071,661.5076,0.03477766,0.06196411,0.9391282,0.2836336,2.13091094132314,2.126823
7505.009,276.4472,1513.684,0.06156093,-0.05513073,0.0002817308,0.6141772,3.65800612487149,3.622188
6793.269,290.6781,666.909,0.04610805,0.06337922,0.8290945,0.2590601,2.27976591558291,2.27886
9280.797,269.6618,817.3262,0.01844878,-0.03052481,0.9053327,0.7221798,2.78837645772372,2.799011
8648.853,370.9547,1808.118,0.0007681472,0.02547401,0.2587076,0.1096147,3.38191759998951,3.374794
9254.804,246.611,324.4425,0.04583827,0.05841043,0.3390593,0.1268406,2.71841521621552,2.717181
5982.869,271.5615,1812.037,0.03271937,-0.005916639,0.3850397,0.7141099,4.55641318912073,4.557929
9115.113,439.5805,616.0336,0.06615776,0.01043129,0.05266528,0.7943137,3.77730851674832,3.785176
9092.966,348.5666,276.147,0.03539016,-0.06451709,0.3523258,0.5463101,2.92296269398868,2.927355
6891.17,497.7647,911.8882,0.02747759,-0.004929583,0.224597,0.1993431,3.67816154636082,3.669972
8325.012,181.7666,838.0145,0.02139627,-0.04816416,0.1584971,0.9211233,3.75414950675767,3.763408
7785.444,194.9859,649.1719,0.03115379,0.03900703,0.7259556,0.1813803,2.60697050677056,2.601861
6914.089,244.0432,1767.55,0.05188398,-0.05290377,0.9694009,0.3104831,2.24536073897544,2.224323
5718.575,366.6018,1013.42,0.001834197,0.06817528,0.125567,0.4330105,3.28742795215965,3.290549
7276.824,496.2528,1587.28,0.06652212,0.006375273,0.3862232,0.8900281,4.1532849439026,4.168572
6925.243,322.3479,1702.713,0.008777809,0.06968389,0.9629598,0.2172869,2.00557979137954,2.011948
8254.598,485.4305,1686.877,0.01667429,0.01823663,0.6346381,0.6307623,3.68722168209421,3.689189
5563.909,301.9421,1420.798,0.01624669,0.04955313,0.1791592,0.02015599,3.01135560259845,3.011609
6237.103,401.208,669.4879,0.06714433,0.05263359,0.5193283,0.9952047,3.4253211693862,3.380989
6519.094,335.3315,1437.59,0.0006202913,0.02015836,0.7891111,0.6495934,3.59123299281323,3.584159
5976.246,383.8179,1676.642,0.02160567,-0.04959458,0.8996164,0.02178655,2.14234259264719,2.133987
9179.46,135.7224,680.9039,0.02166896,-0.009378918,0.4138419,0.8236798,3.81770000593537,3.821881
7304.3,169.1082,361.4221,0.0297164,-0.007930904,0.4769381,0.3955033,3.35523070085667,3.362042
6526.713,232.0164,299.6826,0.05224388,0.005921932,0.7650755,0.993021,3.23272175165074,3.198088
5890.492,156.0722,444.8757,0.05088671,-0.06174783,0.7877301,0.4865866,2.56506746106429,2.567207
6205.023,274.1816,1063.782,0.06802857,-0.03172999,0.486741,0.5156643,3.3109167530509,3.273214
9270.45,487.1972,541.0754,0.04985537,-0.06229855,0.7457515,0.1068577,2.24935372659393,2.246468
8377.41,264.8659,1585.998,0.04411878,0.05405234,0.3279394,0.2313662,2.99663796656185,2.989652
9010.414,282.4422,728.6775,0.04399763,-0.02996619,0.7108757,0.06299947,2.55422495431551,2.555355
7587.71,380.1045,1404.775,0.01924109,0.0695758,0.2360351,0.441335,3.123304872555,3.136438
8172.35,423.3912,1527.441,0.05220741,0.0389255,0.03132052,0.9308005,4.11843718727235,4.095842
8904.252,176.5126,530.652,0.05999986,-0.04660426,0.4825803,0.5885183,2.98456970882252,2.992987
7496.271,217.6921,1321.477,0.03219879,0.020484,0.7794922,0.8836353,3.59608886996655,3.581303
7985.318,214.7201,1306.475,0.009102351,0.04908503,0.8573945,0.7026598,2.87262657848474,2.874094
8820.333,482.2997,1582.824,0.01926225,0.01127747,0.3299959,0.2953294,3.66515338878608,3.6615
6893.806,193.655,221.0761,0.02603076,0.02370482,0.3378909,0.9787619,3.66358368458744,3.656166
5842.692,434.429,1721.701,0.004094818,0.005333085,0.8964176,0.1475267,2.92228616772589,2.923076
6434.996,490.7391,1886.126,0.01867379,-0.06127773,0.4039075,0.08165093,2.79330135325087,2.775967
7381.676,459.8242,1030.176,0.02958474,-0.04040185,0.636399,0.7646264,3.39188801532481,3.404399
7128.461,127.2049,1293.285,0.05046343,-0.01720858,0.604054,0.1611588,2.95638351470724,2.963167
9287.446,134.3895,1399.297,0.04348995,0.04987278,0.5356451,0.5223983,3.0663975373866,3.074102
6919.365,192.3033,401.8969,0.0447994,-0.02751587,0.6946149,0.9874643,3.27650675357022,3.26303
9438.262,278.05,381.3927,0.02147707,-0.06118596,0.8276677,0.4769722,2.37457106209544,2.366618
8824.143,312.809,1450.86,0.06201598,0.05489633,0.2702895,0.6558033,3.35345286781977,3.312508
9169.201,460.2079,1248.814,0.05095283,0.04848943,0.8034165,0.1440452,2.33289168655314,2.325045
7434.153,230.6301,1144.388,0.04563603,-0.0425439,0.5179753,0.4216298,3.11474459106638,3.118547
6050.403,495.3161,1396.594,0.06975507,0.04341932,0.6475682,0.221923,2.69811526368471,2.712966
6487.126,238.7724,619.9417,0.06508587,0.02635169,0.8306991,0.2029109,2.41650532317389,2.405725
6197.553,450.1655,1877.98,0.03281483,0.04163332,0.6559093,0.02244427,2.61819201349535,2.62281
8128.618,126.2363,589.3906,0.05061363,-0.01441681,0.01605751,0.5876565,3.7914395514432,3.792923
8861.819,122.5802,558.9821,0.006724175,0.05798879,0.921509,0.9594221,2.57937373201761,2.576658
6474.672,104.8394,1370.228,0.0263991,0.05032863,0.1188425,0.324859,3.39121796970223,3.402791
6337.433,360.1254,1575.724,0.06649678,0.06897345,0.6064149,0.513306,2.97228843779404,2.948973
9191.124,487.5209,441.2184,0.04290275,-0.05533778,0.5104831,0.04139884,2.56150957323125,2.556825
5912.447,274.8036,638.6493,0.05834506,0.01026093,0.8548769,0.3535466,2.70036490470097,2.70277
5997.228,307.3294,1291.205,0.01750549,0.04200622,0.6894585,0.7287422,3.53091944904143,3.522019
7334.413,386.8584,1372.904,0.02913553,-0.01509855,0.7210474,0.8854515,3.85994508915432,3.853512
8383.973,230.2239,1882.448,0.01183415,-0.03664163,0.937206,0.09146012,2.21305874094029,2.205191
5539.398,180.0961,1232.788,0.001093972,0.02290651,0.7260527,0.4713331,3.45050593564123,3.460403
7298.043,240.8863,665.8101,0.03846386,-0.0005307387,0.8948206,0.3743336,2.74549606628254,2.728613
6862.598,494.1366,1275.413,0.02692583,-0.03207828,0.1095002,0.1654285,3.49979540994894,3.508751
8655.136,270.2127,1055.244,0.06693093,0.01894018,0.3458296,0.4783079,3.32126451638846,3.338175
8383.203,258.8992,771.2666,0.03283018,-0.01300225,0.3204087,0.8189027,3.90854237370011,3.89388
5851.476,163.7288,1763.805,0.00531276,-0.04191345,0.5238927,0.3574841,3.37777657917085,3.374604
8709.451,170.1585,633.006,0.0258733,-0.01570187,0.3618771,0.2983418,3.41102064446395,3.401288
7819.604,327.9805,1658.914,0.01905951,0.02127539,0.4878675,0.1208771,3.21226475006736,3.202913
8975.201,218.4682,1798.548,0.04857733,0.003267083,0.2805097,0.3516223,3.65406069535655,3.640202
7464.613,147.0803,652.5865,0.03863601,0.05114928,0.1164212,0.2198679,3.12394246056487,3.129441
8335.706,348.1916,736.0827,0.0103383,0.05161407,0.9639441,0.01478014,1.83613251989761,1.83843
9145.037,158.6626,260.1661,0.005718294,-0.03664708,0.4819461,0.8437087,3.24148256651368,3.237572
8581.675,163.0977,1360.201,0.0257955,-0.03065203,0.3255836,0.8056143,3.95463094999371,3.940758
8064.465,497.5844,692.2482,0.05744909,-0.05965981,0.6601637,0.2145076,2.47759733738539,2.463701
8506.173,190.6936,1930.138,0.06049701,0.06253862,0.3049244,0.2880379,2.96858868396068,2.960861
6375.561,394.8938,1011.134,0.03529139,-0.03300213,0.5646795,0.7302198,3.62916945709126,3.639886
7473.114,265.8522,1337.221,0.01513709,-0.0643651,0.2697367,0.9431069,3.72685284951316,3.73081
5900.983,364.2964,398.7508,0.03727917,-0.05241541,0.9666713,7.265197e-05,1.83557567450096,1.828876
8019.303,407.9899,903.7488,0.007094886,-0.04199261,0.5550435,0.4833706,3.11999420574427,3.114833
6620.775,264.2488,989.2821,0.003282695,0.0589512,0.1326613,0.343994,3.23206372211238,3.224823
6067.186,363.5773,1207.567,0.06482697,0.02527661,0.07344489,0.4282532,3.69237064016862,3.662315
6604.494,251.6644,1138.74,0.06978681,0.05671191,0.6507089,0.9855763,3.40074432621004,3.410567
7454.204,377.9472,1789.471,0.05778033,-0.04961885,0.6007429,0.8411379,3.55427391728245,3.545919
7309.024,242.9749,238.9457,0.006066621,0.03735937,0.7144442,0.4487263,2.74538084773499,2.745663
6199.342,233.9416,1271.305,0.03178332,-0.000396575,0.7017633,0.7695408,4.00535667537681,4.020409
8813.308,482.7098,1061.492,0.06220879,0.008432502,0.6214513,0.2445434,2.92043370581139,2.906211
5962.152,206.3447,372.0459,0.01711174,0.003749116,0.7407996,0.7751531,3.49809222044415,3.486474
7211.809,190.9,1015.548,0.06702506,0.04066454,0.06737848,0.3155041,3.28093335038937,3.272443
6867.235,288.5964,1969.598,0.05404313,-0.02374194,0.2350305,0.4503635,3.79555904482369,3.804113
9363.538,321.2417,635.875,0.06465992,-0.02496736,0.3424388,0.5669048,3.27995694056182,3.240528
7393.24,183.2112,1089.384,0.06285204,0.04490788,0.8859163,0.7908986,2.83366553914691,2.802584
8050.66,173.4595,711.1357,0.01162025,-0.02087533,0.231751,0.7651721,3.98668489673931,3.99077
8279.578,351.7056,368.7463,0.04842633,0.03120253,0.9707579,0.2678136,2.05936252596135,2.043877
7811.066,287.9434,268.4086,0.03457386,0.03442271,0.0647867,0.8453171,3.67360361513647,3.661667
7671.407,381.8446,840.9324,0.001554525,0.01189936,0.3804094,0.4996702,3.82574644097403,3.819438
9207.236,297.0473,944.5601,0.06043768,0.0622593,0.5859816,0.7004893,2.93599516838329,2.910266
7793.449,339.7952,1897.358,0.04634572,-0.05095711,0.3741569,0.3564625,3.21119251849721,3.191717
9416.661,345.5221,680.5372,0.03943837,0.03005481,0.8808114,0.5928041,2.62064974003725,2.620561
5502.762,277.3416,355.8222,0.005089076,0.005417816,0.02049822,0.3614224,4.14532357739134,4.151455
6828.873,165.1884,1287.044,0.002453255,0.06823605,0.8075222,0.4247936,2.54793425636336,2.554103
8483.118,403.8305,860.0376,0.04054905,0.02199378,0.7540144,0.5944408,3.02050907977608,3.007367
9468.924,203.0971,1340.916,0.02579765,-0.008900971,0.9024771,0.7341269,3.12888259290481,3.126244
6660.192,456.7878,531.7896,0.01942066,-0.04311347,0.6038002,0.9993835,3.44888640700088,3.459788
7781.393,449.204,1224.224,0.06248652,0.04056705,0.8871024,0.619411,2.69609249520618,2.665932
7910.762,207.4325,236.2886,0.004977823,-0.06082688,0.8286166,0.4932695,2.37407243472328,2.374954
7794.528,440.8188,266.0908,0.06697916,-0.0057832,0.8144957,0.2920385,2.55414001815368,2.558165
9393.925,216.2755,200.0273,0.04309743,-0.01457596,0.7178465,0.928814,3.03322131937826,3.031689
7034.223,334.5465,1320.967,0.04636847,0.05977324,0.3223629,0.6312145,3.40631857665853,3.387606
7782.223,289.5746,1620.093,0.01067695,-0.02136886,0.2981751,0.6360618,4.13110417597965,4.128183
6618.317,311.3894,1575.152,0.01163958,-0.01624359,0.5737221,0.1882821,3.35888921059167,3.361154
6618.371,198.9817,1565.665,0.05877855,-0.06248536,0.3061631,0.3871156,3.1905459553687,3.160872
7384.483,436.2079,1636.42,0.05692076,0.0154979,0.09343559,0.8241672,4.31087127230854,4.332948
7718.188,234.3681,626.9961,0.02240416,-0.03571598,0.1629074,0.2019777,3.309193029855,3.314737
9227.293,150.1445,950.8013,0.01467016,0.02410642,0.05108734,0.2540683,3.63184119002404,3.623204
7524.69,455.1561,1732.815,0.02194566,-0.02583467,0.1655613,0.6631909,4.25936638785953,4.26627
9307.652,209.8729,982.0558,0.0006201103,0.04160405,0.2862612,0.6103137,3.44124112389475,3.441213
6839.618,175.3489,570.5953,0.01017292,0.03865553,0.7579321,0.06970436,2.47746125270023,2.476372
6640.996,137.8585,1651.84,0.04451041,0.01911016,0.7916255,0.4041822,3.07345843094257,3.073956
8757.355,489.3265,568.6061,0.05882503,-0.03186838,0.729046,0.01696178,2.4024464350233,2.407294
8060.774,433.2093,798.7069,0.01117615,0.04274873,0.5054995,0.3299174,2.97353094517305,2.973571
5644.605,205.7909,1736.911,0.01903333,-0.02451775,0.4524441,0.4971894,4.035224826761,4.035871
8968.538,378.9172,1904.199,0.03010485,0.0502919,0.7660789,0.2387676,2.55922692370296,2.556065
7287.12,270.6968,1279.198,0.04574383,-0.03363638,0.02838594,0.005687502,3.22632103779615,3.223408
8471.514,437.9945,219.6207,0.04674333,-0.03515564,0.9160409,0.07260943,2.09760722749838,2.102142
5771.71,197.2832,1350.44,0.006848253,-0.01014093,0.05351756,0.2282689,4.16486893275161,4.170317
9193.531,253.7717,1432.241,0.04979186,0.0316698,0.3773465,0.03930378,2.89897417608536,2.893468
7623.642,471.773,572.8162,0.003205428,0.0347856,0.3478131,0.0876788,3.04475545268178,3.050437
6919.89,267.9923,1318.521,0.06609475,0.05245018,0.912549,0.2495152,2.20190401256747,2.189609
7123.01,325.7545,1666.119,0.02170957,0.05677219,0.2072721,0.7813832,3.83672720185966,3.824548
6293.198,142.9679,1097.214,0.0207306,-0.0122394,0.5941514,0.9363108,4.2758981438233,4.260991
6136.857,239.6717,1962.575,0.05753522,0.05957694,0.942843,0.9805743,3.37709333919554,3.340502
6856.606,309.761,1660.222,0.06949633,-0.02426843,0.5549701,0.360503,3.17920116698696,3.177617
7467.051,200.1655,1288.836,0.0375163,-0.03425278,0.09278355,0.7685671,4.08582487231033,4.082924
5785.041,462.1455,1391.446,0.01352976,0.03634477,0.9519502,0.2560687,2.45764373855788,2.458114
7189.119,114.1852,489.1376,0.0682344,0.03215974,0.7944838,0.6919031,2.76591813564031,2.764139
7657.465,431.804,425.954,0.0366401,0.04123953,0.2566064,0.185376,3.06290057197663,3.060581
5860.657,425.5843,1284.551,0.04590515,0.04428545,0.2965282,0.9413301,4.18679559088233,4.176701
8923.925,376.4039,580.7559,0.03247393,-0.02776414,0.006744664,0.5271094,3.72723662794317,3.709153
8771.354,177.0666,1161.013,0.01045757,-0.06733533,0.9996955,0.2109539,1.71382778421744,1.709714
6728.73,293.9858,820.6489,0.01712972,-0.04738333,0.2726928,0.9736296,3.87184372760041,3.880051
9448.336,459.3549,1375.118,0.0008397534,0.01196184,0.05754705,0.6720561,4.34455604329285,4.34283
8224.518,186.2347,1146.308,0.008394034,-0.05920565,0.4330237,0.8726407,3.42186930309521,3.430904
9493.571,429.7484,1456.813,0.03635313,-0.04681279,0.3935088,0.4908532,3.25950461937544,3.253386
5872.532,306.9683,1953.83,0.04173418,-0.006671867,0.09673674,0.1419989,3.78767082111076,3.785448
8991.414,415.0968,1515.051,0.02892065,-0.02523722,0.3572988,0.5809051,3.71245859801413,3.717228
8935.575,200.425,226.0905,0.02066958,0.0031426,0.4015434,0.5289432,3.51308713666963,3.519065
7963.307,316.8221,655.7968,0.00957809,-0.03879055,0.1986427,0.2797357,3.31129597506502,3.300498
6387.918,370.1759,1523.619,0.01826369,-0.02880574,0.1331641,0.1602472,3.58928693871481,3.599411
8711.474,118.7698,1588.329,0.01307039,-0.02785155,0.262289,0.2274653,3.48256337216912,3.468269
8521.543,161.9235,647.9069,0.0650026,-0.02196564,0.834965,0.04576188,2.29770994540748,2.285748
6755.403,250.7599,1504.285,0.05346823,0.06509161,0.1268916,0.003839573,2.79579199158083,2.782805
5527.516,447.0928,1517.089,0.04546871,0.001245566,0.5932482,0.3821215,3.64403885524069,3.619699
7029.021,408.3281,478.1203,0.03527687,0.05773909,0.03763316,0.6355375,3.40727832537451,3.394959
7146.923,249.5371,726.4483,0.003853438,0.0568655,0.2634196,0.7389078,3.41729673819607,3.41747
6030.683,425.1469,785.1715,0.006784658,-0.0620287,0.7373043,0.745043,3.0160776212775,3.014256
7839.251,421.5323,311.9457,0.04835628,0.0269613,0.4300868,0.8275897,3.33175219684706,3.311892
8346.633,454.5939,1402.91,0.06154989,-0.01498831,0.6623197,0.01585634,2.63838092008413,2.647237
8454.469,215.7685,1170.933,0.02557298,0.01855416,0.4235586,0.762401,3.85412212129162,3.855076
6320.292,145.745,1253.066,0.02594215,0.02348586,0.4494278,0.2073698,3.30706775857298,3.322934
6066.572,404.3019,1786.677,0.0155613,-0.06202748,0.9951005,0.9473027,3.10408892674431,3.08333
8999.306,235.7134,657.3497,0.01678397,-0.05923019,0.7883049,0.5075152,2.53343397152032,2.533034
7060.682,214.3203,1944.347,0.03007264,-0.02450173,0.1512152,0.9624992,4.79635635372934,4.798613
6434.415,365.0032,1070.721,0.01448171,-0.06484635,0.2225849,0.1827882,2.95649884963063,2.937083
7802.481,346.9086,1745.286,0.001214415,0.01374169,0.9653568,0.974269,3.58349318856921,3.583019
6401.022,147.5463,1865.584,0.02186499,-0.0530792,0.6241098,0.03130394,2.56229553632588,2.552683
9486.247,400.0343,1714.85,0.03410403,0.03489323,0.023336,0.7400232,4.018184750363,4.00651
5996.041,385.228,712.8456,0.04325315,0.0350168,0.9261903,0.2812695,2.37142102671973,2.360572
5799.002,351.5109,453.2413,0.04781387,0.06368479,0.928984,0.3479555,2.14783564928383,2.14996
6162.787,209.4753,563.4098,0.04774952,-0.03584307,0.04762037,0.1192563,3.25344428107734,3.244455
7043.571,413.0657,557.7383,0.05198258,0.03606449,0.686913,0.2223611,2.62997717337248,2.617824
9083.618,291.2025,1871.219,0.06577288,-0.0508426,0.5212949,0.4619201,3.0063428235122,2.968194
6860.673,226.1693,795.9093,0.02286358,0.02123835,0.5467265,0.3165834,3.25318964165784,3.257726
9418.557,333.1151,523.4177,0.04350848,-0.001221269,0.1427587,0.5196252,3.73256470597543,3.73706
8250.11,189.0064,846.1305,0.03890265,0.0436754,0.6998231,0.9190483,3.21693745835369,3.217903
7965.813,262.7807,321.7356,0.02399241,-0.05612702,0.3342614,0.5395859,3.04924687225058,3.051722
5904.749,431.3222,1759.934,0.04844687,0.06151338,0.06192541,0.4850139,3.64822113963495,3.649142
5521.263,194.5982,947.4256,0.01300128,0.05039999,0.7869114,0.1556001,2.47299117756673,2.4604
7752.6,106.2169,615.6382,0.05043518,0.04827136,0.9060996,0.5799283,2.45069321994749,2.431245
8621.489,378.6821,613.5588,0.05566739,0.01833397,0.2478313,0.05821174,3.08033064905505,3.090948
7253.628,396.5032,1195.487,0.03417859,-0.03718939,0.5189978,0.7848235,3.66937949145907,3.656741
9280.769,290.8419,303.222,0.002890574,0.0355335,0.5079885,0.7199638,3.1653294265421,3.147905
7405.792,478.9786,292.1571,0.02778853,0.007718708,0.927318,0.0254436,2.31396651908857,2.309167
7449.955,343.5297,685.8044,0.02782368,0.03574023,0.6326305,0.02333255,2.65505419243532,2.64868
6664.713,270.8255,1525.833,0.0174358,-0.0607987,0.7587979,0.110672,2.37483186825113,2.3763
7217.35,109.3535,851.0991,0.03267662,-0.05909513,0.4892904,0.3022423,2.82887809711385,2.820644
5750.683,356.3492,1994.829,0.01984185,-0.03307796,0.200409,0.8039436,4.73747732689766,4.724516
8258.594,478.6349,926.0175,0.03084482,-0.06563877,0.2258739,0.09811826,2.7853882001785,2.778348
5809.415,168.1906,924.6178,0.05814659,0.0392299,0.5437105,0.2841983,2.9318759930131,2.918339
8111.828,140.063,605.8942,0.01628397,-0.02336918,0.360633,0.9964593,3.93211226295806,3.945383
6643.134,136.6249,1684.808,0.01382502,-0.04276734,0.3972361,0.41654,3.48691545731772,3.463161
7691.493,273.0582,546.6375,0.06097849,-0.06853808,0.1717523,0.1923497,2.84052963989001,2.823842
7636.384,361.0857,778.5386,0.004190051,0.01500284,0.1560305,0.1393934,3.62113132775671,3.630953
7508.22,465.6831,348.4288,0.04253541,-0.05280639,0.8409605,0.1133182,2.20791553971415,2.204756
5913.192,292.9436,895.4336,0.06563202,0.0319042,0.8478326,0.5958364,2.87324530516627,2.844663
6369.639,136.1753,1026.29,0.03806801,-0.0340886,0.4116734,0.3896986,3.37374535468121,3.375057
8440.915,172.8829,1791.755,0.06266631,-0.04384545,0.1404753,0.2417301,3.19482219899022,3.193394
7726.217,197.1627,1059.785,0.002126217,0.06285046,0.693035,0.2340838,2.48325332452594,2.498273
7688.963,109.1901,309.5668,0.03163073,0.06713386,0.4209806,0.1074654,2.55503463337258,2.558388
8088.495,285.8837,419.6203,0.01972343,-0.03373317,0.9002584,0.8280016,2.75035366078261,2.757908
9414.594,446.1872,1939.368,0.009372263,0.00679826,0.3381851,0.7353687,4.35734851216622,4.35797
6421.726,303.2317,1356.35,0.03852239,0.05709899,0.8772427,0.9049079,3.19016170022566,3.190699
6116.307,439.9992,1578.229,0.02781304,-0.006522027,0.3767272,0.8912108,4.79102279181811,4.77847
8691.247,326.5525,693.4315,0.06667696,0.0542897,0.3706148,0.6798515,3.12339800813693,3.078672
7978.484,465.3201,1179.796,0.03923829,0.06384436,0.2555108,0.5499065,3.22503970157951,3.237467
7718.35,108.1739,479.1286,0.06574829,-0.05561366,0.4260928,0.4581901,2.88337373627821,2.885583
6947.393,371.7643,1649.656,0.04462192,0.01437334,0.03441437,0.9776627,4.78216572396179,4.795441
8925.146,436.9704,1345.166,0.06168173,-0.0332307,0.8456416,0.864721,3.03670472729637,3.008168
8697.418,417.4614,295.2543,0.04129085,0.06761958,0.1360483,0.8295231,3.26151419061959,3.26605
9007.828,286.794,607.4947,0.05460425,0.02462321,0.1083467,0.7323119,3.64652062151542,3.644117
7685.718,272.5267,1147.511,0.0492348,0.04762356,0.7553667,0.4239409,2.72136270452235,2.714897
7572.843,376.9279,244.3337,0.05496598,0.01553917,0.03049184,0.6865273,3.65868287838962,3.662726
8221.876,348.9653,774.7491,0.06597601,0.05529187,0.8708117,0.4361718,2.33681306340675,2.310587
5538.058,435.4251,1975.033,0.06634079,0.00491263,0.5278926,0.5231195,3.90446143734663,3.900062
8105.455,182.9444,985.5437,0.06732947,-0.0453482,0.2923832,0.3457262,3.06251009115518,3.061948
7771.091,311.0774,1956.641,0.05019352,-0.01998603,0.5594984,0.5650524,3.57598737914942,3.573491
5994.732,320.257,250.0909,0.02234838,-0.02851428,0.3593942,0.7371197,3.57796349045921,3.575334
8093.484,295.4249,1489.065,0.05805388,-0.05003136,0.977964,0.1667009,1.93831655008088,1.924153
5685.846,442.6107,1130.981,0.02191792,-0.01769015,0.5022182,0.186547,3.37404560596105,3.3803
8947.606,284.2917,811.5623,0.04045856,-0.02682497,0.1462253,0.7168332,3.75845976125256,3.764784
6126.901,283.7094,725.3477,0.04902515,0.06670953,0.9853491,0.8961816,2.55063881085151,2.532451
9437.283,221.0483,1501.524,0.01852547,-0.006847094,0.5990525,0.9177813,4.02370893831227,4.034125
8391.51,463.425,1243.707,0.05261791,0.0005868304,0.7859694,0.1038987,2.67110927872277,2.661503
9261.836,436.5936,1656.864,0.004283691,0.06366953,0.0716766,0.8370865,3.66831923419643,3.677049
8152.64,442.1848,1245.768,0.02371198,-0.02426635,0.07519915,0.108138,3.53663011338056,3.537118
8361.779,455.9848,1294.863,0.02100123,-0.008736851,0.815668,0.3183742,2.99931571157075,3.002248
7600.473,399.4995,1941.421,0.06307299,-0.06533432,0.209126,0.7200187,3.61529045864593,3.605854
6943.247,188.1137,1352.567,0.003712188,-0.01561237,0.7648639,0.2966482,3.17330364371521,3.165672
9368.807,420.4258,1034.915,0.0281181,-0.007008414,0.9828488,0.6380473,2.65325187085929,2.641167
9403.701,256.4629,917.4271,0.01600697,-0.03641055,0.8124539,0.06570878,2.41952104816689,2.411496
6929.253,309.2334,622.2824,0.05230599,0.05159678,0.7349272,0.6327914,2.82044997062255,2.823506
7002.989,189.9535,399.8649,0.01577801,0.01709739,0.4087002,0.5263219,3.56446159965065,3.557954
7075.527,191.2273,1696.35,0.02791104,-0.03432302,0.7278075,0.4920816,3.25979642774566,3.256547
9128.195,267.5486,1222.266,0.01522956,-0.06726615,0.4183864,0.7497856,3.19667843717376,3.196988
7315.501,398.599,418.2432,0.03759083,0.05000997,0.5563175,0.8427789,3.15697624928111,3.15471
8804.526,302.6587,609.7822,0.05397471,-0.06856599,0.6978147,0.6549841,2.69565956099131,2.680798
6160.006,394.6601,305.2473,0.03684989,0.03090441,0.6566957,0.1900126,2.74190951945321,2.7388
8082.984,330.2532,287.0589,0.06800524,0.01004263,0.1630419,0.07888357,3.1562158737008,3.165909
5853.818,125.1048,351.5722,0.02313012,0.03502984,0.5878919,0.1782349,2.83768202362702,2.844578
8007.193,211.5587,817.6009,0.01525114,0.02436524,0.8086986,0.751397,3.16882867931967,3.174136
9275.146,328.4327,1153.846,0.0002541768,-0.03157477,0.3503359,0.7939062,3.76827465200967,3.768785
7904.89,350.7097,698.1769,0.03000015,-0.04979019,0.5286925,0.2631825,2.81721880627349,2.806423
6950.481,308.1894,1246.474,0.04055075,-0.04162764,0.2838311,0.816774,3.92037225634964,3.898506
9348.263,166.3411,1289.257,0.008333981,-0.04159258,0.4701707,0.7590953,3.49043582943376,3.47461
5828.044,374.8561,1688.903,0.0575264,0.04490649,0.1201936,0.0639315,3.0848773435973,3.081014
5619.235,149.4075,1806.944,0.06908982,0.01840879,0.2179313,0.02815783,3.15125067418546,3.115007
6242.014,129.6619,416.8687,0.05930422,-0.02970746,0.7705047,0.5909125,2.82503476187351,2.828173
9207.584,399.7279,1561.314,0.06573935,0.04999034,0.1602129,0.1314907,2.92619550518707,2.917916
9328.724,497.0647,671.8548,0.04049179,-0.0508563,0.07273782,0.03091646,3.01577116813142,3.006461
7687.389,441.976,878.5067,0.04383973,0.0027589,0.2188593,0.001159994,3.32532733389461,3.325225
6497.159,120.6914,801.74,0.0506203,0.06214377,0.618938,0.7867838,3.15313421500615,3.146125
8779.983,203.5882,1416.733,0.01717901,0.04954493,0.625813,0.6823763,3.16526283101721,3.159471
9087.775,306.24,1918.091,0.006696148,-0.06306238,0.4325952,0.6765875,3.30701226671519,3.28823
6979.867,172.4396,443.1394,0.03148077,-0.008389533,0.08109923,0.5828032,3.94491987164976,3.950164
8430.061,492.8142,1889.996,0.05414842,-0.05191768,0.4077579,0.08477965,2.78080395299544,2.764665
6096.682,492.0305,1670.405,0.05635074,-0.02853763,0.4358287,0.7633027,4.04303804851855,4.034736
7467.836,255.9072,433.1171,0.003422413,0.04510182,0.6705173,0.5420554,2.85357609545454,2.84805
5564.499,254.2304,1494.69,0.03338688,0.03734837,0.677261,0.8355503,3.93956986616289,3.937007
8810.996,225.1403,695.8176,0.05198141,-0.03260558,0.7478126,0.7183093,2.94146810108365,2.9249
8721.124,173.6765,979.4011,0.02128686,0.02824901,0.3656479,0.2586044,3.27325441116052,3.277476
7116.647,357.8839,1155.29,0.01891384,-0.01288818,0.9759311,0.3469711,2.58792792483834,2.584769
6125.655,143.3576,1552.832,0.02015418,0.03684458,0.5516915,0.8618022,4.06177140494389,4.059146
7135.476,493.2662,739.412,0.008066382,-0.05280616,0.1699562,0.622766,3.48112372659848,3.471778
9070.601,132.7569,1520.891,0.0618928,-0.03417875,0.152187,0.8685382,3.87957582901381,3.870649
6674.81,339.1061,389.5657,0.04174837,-0.01157921,0.6266388,0.3094739,3.02399622014992,3.026253
8961.494,148.4778,1120.855,0.02975078,0.009866793,0.03297011,0.3888525,3.90766393360623,3.890008
7892.489,447.8781,1331.845,0.003383494,-0.0546249,0.299283,0.5979466,3.43161413575553,3.417894
6934.696,488.7228,783.3618,0.06767232,-0.03365407,0.8732333,0.8217006,2.90538406426423,2.904856
7770.367,414.0637,671.0234,0.03591454,0.01293643,0.9389994,0.6581695,2.75510662660696,2.746636
7751.948,248.2529,1572.405,0.03231009,-0.044416,0.6740379,0.1223642,2.66349622323248,2.66012
8578.076,171.3259,940.8674,0.06050294,0.04376594,0.05683168,0.1257448,3.05940001140496,3.053759
7581.262,230.9223,1987.356,0.02348903,-0.0363215,0.7420743,0.9299544,3.81057622451256,3.815099
6638.187,338.0889,1304.546,0.002750572,-0.04118586,0.4689668,0.2159899,3.09289813914192,3.091911
8318.336,430.7854,319.4174,0.05487613,-0.06646992,0.5222778,0.1424103,2.48813182521898,2.489195
7691.465,367.1655,248.3117,0.012843,-0.02109081,0.3032114,0.8148829,3.69309758582721,3.696744
8664.372,315.8601,231.1331,0.005382845,-0.0145658,0.9032113,0.6453162,2.71363133514372,2.722242
