md.1,md.2,md.3,md.4,md.5,rmspe.1,rmspe.2,rmspe.3,rmspe.4,rmspe.5,tim.1,tim.2,tim.3,tim.4,tim.5
58.5506845824814,68.9861242648298,48.680920255614,179.814278022554,151.797252038106,19.5043928003108,16.6570293372579,16.7491099403232,19.4506812880094,16.3887932411281,71.754,13.0209999999999,9.87700000000007,10.504,5.27199999999988
63.6917305548655,77.7839655658963,57.8101610827289,298.983305788276,219.934472098056,26.858952339575,26.5608853487712,25.1199867557762,27.7653821772569,25.2750508878234,68.91,12.3839999999999,9.50100000000003,10.172,4.76899999999995
40.5410083211215,38.8431042147137,29.6261223334146,113.644539953369,77.6715095851148,14.2439814934402,12.9203456298708,11.14009183536,14.7881570496302,12.3583188372517,67.22,12.183,9.45800000000003,10.2159999999999,4.67600000000022
62.9709942006712,69.3903187946432,53.3876530513466,333.189743776409,225.263059789056,26.8529491147193,26.699649062412,25.3136317034537,27.8432764133636,24.747856717739,68.5719999999999,12.359,9.39499999999998,10.3260000000001,4.9620000000001
57.7441993394728,61.4140224069249,49.0674192653082,271.507215432309,175.028931763558,22.6702861124172,21.1847692941185,20.3382924157663,22.6780028965657,20.4093902240008,69.3860000000002,12.478,9.59199999999998,10.437,4.97000000000003
40.2914856340847,38.0092327449894,27.6208148397628,119.570857483371,96.6097427717932,14.394117224924,12.5714259702822,12.8154635050462,15.9153758597959,12.43739585268,69.831,13.0609999999999,9.61299999999994,10.486,5.20399999999995
56.9184538411671,67.1256491595988,54.6848736606931,299.559267999331,222.290459086111,27.4313327264828,26.6452451526975,25.279805502721,27.7030720210911,25.138172934002,70.1329999999999,12.6420000000001,9.87999999999988,10.503,4.88999999999999
58.6584196972641,68.5509595846106,49.3536022317745,172.318317272252,137.305916016162,16.1171730090878,16.5031849891483,15.1644733200546,18.2917541664867,15.711472541564,69.3379999999999,12.7189999999998,9.82000000000016,10.718,5.02300000000014
52.9657651201741,66.3531929802612,48.5573921464799,211.10910292849,162.890684759071,19.5533884036808,18.9921112270462,18.0002224130252,21.1334460277179,18.0348178653092,71.5989999999999,12.8890000000001,10.019,11.0479999999998,4.96400000000017
54.338224825403,69.445092648338,52.484146563634,349.056217844004,240.414977417919,28.6441602193128,27.9064815994387,26.1262133957273,28.4426763090127,25.4918939643502,71.7359999999996,13.1320000000003,9.70799999999986,10.867,5.39499999999953
58.3416533935556,54.0302663892868,44.3913130597061,181.10799958189,122.80845326264,16.4103657460769,16.3844524175378,15.6810299740457,18.1016633403019,15.717870265628,69.3090000000002,12.3730000000003,9.45399999999995,10.1689999999996,4.9210000000005
59.5471013306556,61.8894891224443,47.8249063248141,178.103903787006,145.85602358491,17.128945725094,16.1770126583078,16.1983720785902,18.8615512549472,15.8124451321214,68.473,12.3810000000001,9.33600000000001,10.1119999999996,4.75799999999981
63.3164708347082,75.1632937780511,56.8883742980625,289.00211294904,219.17235998738,26.2366537484061,26.5142230042171,24.6812143250464,27.3146168328358,24.7110571333616,68.2670000000003,12.0519999999999,9.20399999999995,10.1940000000002,4.85500000000002
34.277657626129,38.0736800886604,29.1196684962598,113.548903153734,82.5767988638335,15.6848441715733,13.4916681564376,11.1977165221625,14.7205662997631,12.2607885050135,68.2849999999999,12.3000000000002,9.30299999999966,10.0340000000001,4.76100000000019
63.8875083605567,60.5072472741588,53.6308633049603,335.527285249365,225.899806779441,26.5068527735685,26.7302447712672,25.190728316105,27.6729125478724,24.6037261782329,68.4349999999999,12.2040000000002,9.23899999999958,10.2619999999997,4.95399999999995
58.2195554298473,75.1690296023594,51.2100708188726,265.487429057205,209.048570670176,24.7899513788333,23.5938299017608,22.4879151538255,25.1097788900939,22.0531857278184,68.26,12.2780000000002,9.36699999999996,10.0499999999997,4.96900000000028
37.0239957873065,38.6215316559975,26.5094045361662,124.223559114968,91.003210680617,16.1839126443179,11.8808544688205,12.5136882770526,15.5993867413714,12.4357036963618,68.2830000000006,12.2660000000001,9.3959999999995,10.1700000000003,4.96799999999985
69.1008837446602,70.2014177502214,54.4438165858445,299.291060400184,218.790193283042,26.109291786212,26.0762829093546,24.2859327437886,26.882589229497,24.0732698284978,68.1090000000004,12.1300000000001,9.2440000000006,10.2349999999997,4.79399999999941
58.8208607617325,62.2025434563527,48.3739232272817,183.05588798388,135.230201089789,16.6257274948432,15.805134298932,14.7593246836042,17.7541380410297,15.1677266381929,68.3029999999999,12.1119999999996,9.28000000000065,10.0969999999993,4.80599999999959
61.363827435933,60.2132794575788,49.8444027641596,213.117538261639,153.934454935568,18.6856910721987,18.6046667766789,17.6317824866526,20.3171361736253,17.7535666535667,68.2860000000001,12.2650000000008,9.33700000000044,10.1610000000001,4.88200000000006
60.7226738517011,71.7368080651841,54.1027449071328,351.158900704547,256.38534883627,30.5104938847553,30.0265979883076,28.3110776076043,30.6075535415063,26.8980361843465,67.9879999999998,12.0920000000001,9.33500000000004,10.1070000000004,5.24400000000014
53.5947247244728,54.1893854430148,45.6059707807416,170.10586237324,142.548393390627,19.9214998741393,16.5368218244476,15.9521489364058,18.4680991790429,15.5047200999103,68.0400000000009,12.183,9.35099999999966,10.1850000000009,5.08099999999968
54.9912440700985,60.1297562935067,46.579367552584,156.908779687549,124.185443971225,16.7272668143672,16.2783971845065,15.1864537639262,18.5930778352043,15.5242279738308,68.0239999999994,12.221,9.29600000000028,10.1169999999993,4.73600000000033
66.4438529535376,71.4107428718865,55.5220210936786,300.485622626911,217.057775812728,25.6587023858971,25.2966343273509,23.4631721038848,25.959228716505,23.2895421233414,68.3760000000011,12.3319999999994,9.2510000000002,10.0030000000002,5.15300000000025
39.4087658962079,36.5644472029513,29.0678603418583,117.299951445173,80.3341969944889,12.1692527962739,12.4893861376786,11.1148746327671,14.2699852588806,12.2025793649745,68.2429999999995,12.1060000000002,9.10799999999972,10.1400000000003,5.01200000000017
56.2706128291236,62.8327842416266,55.2609776621482,343.73369093642,218.253455751852,28.5340477419576,28.3910411007366,26.4905949529483,29.0048117546568,25.9956177290925,68.0079999999998,12.0999999999999,9.2839999999992,10.1370000000002,4.7819999999997
55.6496324038223,71.3589004665774,52.3321880234896,267.193458440149,219.617633366253,25.3302004970715,25.1615973023204,23.402632613619,25.947405168719,22.7844440813801,68.1600000000003,12.2179999999998,9.37900000000036,10.0620000000004,4.98199999999952
38.7622659133923,35.1657129873401,26.4314106943654,137.190088484421,90.5315845203378,15.7414024750801,13.6715160070767,12.4314707359842,14.9378644238928,12.4004717421326,67.6240000000003,12.2520000000009,9.26899999999978,10.1639999999993,4.86899999999969
59.3408855176107,68.9347356950415,53.3565400465691,286.195957886064,214.670846059404,25.2501568681856,24.3621253884543,22.9210456098349,25.5476939472707,22.9159120160667,67.7359999999999,12.1199999999994,9.22800000000007,9.99199999999928,5.07099999999991
47.9421153022361,57.2531085914727,45.1259396038171,155.349986184852,118.450710528442,16.9566283216098,14.9782360836298,13.5012889718818,16.4550803583626,14.1402901202219,68.0829999999996,12.1429999999996,9.23999999999887,10.1070000000004,4.7440000000006
54.6471364852485,60.5549587366686,51.6604926879857,237.293816078353,153.797178547401,20.4132810124426,19.6226429232465,18.5292522483751,21.3311126817078,19.0176305322751,68.0820000000008,12.2420000000002,9.38999999999896,10.0110000000004,4.91800000000057
61.4373217272164,59.4046187596236,55.166657326534,359.560254082686,251.703217397492,31.0953674888539,30.9840319226106,29.4550342247406,31.7528586183947,28.6109167818132,67.8060000000005,12.1489999999999,9.24900000000025,10.014999999999,4.95700000000079
50.2410665287959,52.9975063804765,48.8820858964507,174.703149376146,135.217432209683,18.9312198633312,16.9021926190351,13.9164897252724,17.8649379192485,15.1446186119975,67.6880000000001,12.2059999999992,9.29800000000068,10.1210000000001,5.10199999999986
58.2633460752507,64.4787267275145,46.9897448473045,171.347821027466,129.111494158487,18.7446339935192,15.2071443992009,15.2452769010028,18.2229387710993,15.6471909187869,67.864,12.2889999999998,9.33300000000008,10.0060000000003,4.74099999999953
55.9366634529209,67.6161233169658,52.1068444157691,255.963017681241,209.660856349874,24.0072064588911,22.8311610257652,21.2545805843147,23.9014634712409,20.9420151165669,68.1540000000009,12.3029999999999,9.23799999999937,9.9680000000003,5.3179999999993
32.1207999966608,46.5409251040518,31.9497222168622,115.101704392717,84.627303808576,15.2213272384406,12.3634429140786,11.3508260575087,14.4175212943989,12.6400422011172,67.8240000000001,12.1429999999996,9.2510000000002,10.2749999999996,4.68999999999915
55.6656490519736,73.64944155795,56.2870578017569,345.57624228184,225.395637871473,29.812941277982,30.2949588882711,28.4305014365363,30.8401756298901,28.0652675553636,67.9440000000009,12.1919999999991,9.27299999999968,10.0129999999999,4.57200000000012
60.2800599661916,67.844139605078,52.5867343318562,250.657359017695,214.822127319899,24.60124312657,24.0976890870848,21.4255021357345,25.1808584781544,21.7400231985109,67.9610000000002,12.1629999999996,9.35000000000127,10.1679999999997,5.14199999999983
42.1014502961603,42.5272787131843,26.4314544958366,118.297102278474,91.0195604694108,15.6903788413134,12.2902461950218,12.520571455982,15.4724342093604,12.5097218241942,68.0659999999998,12.3200000000006,9.29499999999916,10.3230000000003,5.15900000000056
58.2239618681413,70.7293030811809,51.6333642492865,276.982525367558,216.780126650661,25.2146197608556,24.1323796953327,22.2017738977386,24.8397078513296,21.9418337627444,68.2110000000002,12.1399999999994,9.23599999999806,10.0389999999998,5.13699999999972
43.253280345006,49.4242715343105,37.7803487547543,120.076529275192,98.4289797150136,13.1260559777747,13.633117344495,11.8116473271999,15.1682978948492,12.8221488219156,68.1499999999996,12.2030000000013,9.36099999999988,10.1449999999995,4.87800000000152
54.8423786835049,68.2173944747173,55.4506782483264,250.983161297985,168.014934000865,23.0925130725567,23.0219482199301,21.1798314544789,24.0875852929348,21.4990313579384,68.1899999999996,12.1240000000007,9.29100000000108,10.0689999999986,4.6880000000001
62.7836103366198,69.8581480399044,55.9378485581309,328.593323656449,254.408015292405,30.8188275937281,30.0701564446653,28.5222178912001,30.8993355353306,27.7126092626431,68.2039999999997,12.3029999999999,9.39300000000003,9.99000000000069,5.08399999999892
46.2302946241975,47.3345028756401,46.977114512791,164.328725275693,116.876174943449,18.2307621620195,17.3234073188416,12.9745011441311,17.2963881432605,14.4506162888035,68.1669999999995,12.2749999999996,9.36599999999999,10.1149999999998,5.21500000000106
50.5491103343119,66.3939310676917,48.6382487252829,176.227908196795,147.612558297486,17.9007063729755,17.2670733542909,16.7848241795966,19.8823604149245,16.968278976763,68.2519999999995,12.2299999999996,9.27800000000207,10.0169999999998,4.93199999999979
54.9402231474328,64.5035312458414,51.0388874494045,222.232592975657,183.691583472324,22.1199874510604,20.3390700514551,18.880477256446,21.6176859820742,18.8371727707325,68.3500000000004,12.1880000000001,9.35900000000038,10.1039999999994,4.92699999999877
52.1917038551276,55.1929087761963,40.397390429154,140.531610278752,88.1917454296139,13.5370103396406,13.810196324643,12.3422354792365,15.6238946877146,13.7238242746301,68.4399999999996,12.2520000000013,9.2480000000005,10.0880000000006,4.64199999999801
54.4578481968257,65.867129234979,56.0444513947953,363.641958769093,247.836706454829,31.4456154258971,31.1729562109431,29.6641219927313,31.8483731711601,28.9383505075369,67.9770000000008,12.2130000000016,9.15599999999904,10.1000000000013,4.7489999999998
63.7055656087154,62.7072427034884,49.0004578864883,202.929538950956,201.996892759111,21.846148959246,21.6918581304045,20.1402152084715,22.7774489639564,19.2714443532983,68.1589999999997,12.1599999999999,9.35900000000038,9.97900000000027,5.3720000000003
41.5907756175243,43.1326050349313,28.403993145586,123.763662834182,92.4516259127538,15.3292431000228,14.2640823998337,12.9579735166215,16.2855372971264,12.9601989180209,68.1709999999994,12.3589999999995,9.24799999999959,10.0219999999999,4.89199999999983
56.4008955435891,66.1712463251363,51.2345723335724,279.546526385461,219.416106593655,23.978628805101,23.3501071649736,22.513939396481,25.027836926303,22.1619387364651,69.5839999999998,12.6010000000006,9.47000000000116,10.1479999999974,5.22299999999996
38.5263985129007,34.6595737186597,27.2901467231768,114.831668956979,78.460674963875,13.8274605170841,12.1986406543675,10.5629733828361,13.4485407844556,11.7275185767475,68.6639999999998,12.3209999999999,9.37700000000041,10.2250000000013,4.65799999999945
57.8968579874253,66.9513401983914,57.0105816853021,291.978723504368,198.171514779087,25.7118538247234,26.367702035441,24.2071608816219,26.8042123711997,24.341518897109,69.1579999999994,12.6080000000002,9.48299999999927,10.1580000000022,4.70700000000033
52.3357666383656,67.4768562556531,54.4194897996672,273.827121972544,232.926239005153,27.6305747615097,27.0605590463957,25.6190674276817,28.20548917483,24.8872292512602,70.9499999999989,12.7230000000018,9.7470000000003,10.7969999999996,5.23799999999846
45.1722101240766,47.8685486766791,34.5148680017148,149.801614298926,103.376578503203,16.9265172925809,13.8539543831995,13.7776177713022,16.3863606757458,13.6395651961354,69.2539999999999,12.4220000000005,9.42199999999957,10.6609999999991,5.33799999999974
53.1421491810363,71.4870261646422,51.3144921196335,235.207877931055,187.737515321771,24.3111203063797,20.3637027611286,19.7088964219521,22.2468861066762,19.2490044734164,69.753999999999,12.4070000000011,9.56099999999969,10.152,5.3169999999991
55.2099176270741,73.0286942549195,50.3562281677526,204.267335363417,159.008015082917,18.2163566324531,17.8452187697783,16.9926451210044,19.664189809977,17.3136683312674,69.4930000000004,12.4579999999996,9.53699999999844,10.2480000000005,4.93000000000029
53.7627088869059,59.9849941083713,48.5722767708017,167.861135727023,117.118289713565,17.0678774469266,15.5031598937027,14.7657414451491,17.8358555215872,15.5972982417348,69.509,12.7299999999987,9.72500000000036,10.808,4.90599999999904
54.1837877379784,71.1542862142874,56.2116925041177,373.863110271743,250.422050571247,30.8297562045654,30.7883552982494,29.0657602534905,31.1691840577511,28.4694879606343,70.983000000002,12.8109999999979,9.78100000000177,12.1639999999989,5.57900000000063
50.4133039757602,59.7723693292727,46.4968632356866,226.392171880789,140.228967600691,19.410649946699,17.9765616413182,17.3326186104363,19.5119966476398,17.5134080999807,70.8860000000004,12.8179999999993,9.67699999999968,12.4269999999997,5.73400000000038
44.6386238018514,53.2834883981138,38.1833645528179,153.159160964137,114.990170878934,17.1126243574996,14.2031951316377,14.056691198858,16.7367816590911,13.8652943227978,70.4550000000017,13.0189999999993,9.86699999999928,10.6530000000002,5.19300000000112
57.1071094288634,71.3383199034567,54.2965680138816,289.610639304664,223.647311546897,24.8683106861723,25.3120888359767,23.6364981126563,26.2227236044155,23.4903081360681,71.9930000000004,13.2040000000006,10.2489999999998,11.7110000000002,5.35800000000017
30.8846483764416,36.8118364825492,25.2162785202688,101.646573745184,69.7969505734147,13.6994293287961,11.7153421821407,9.91858375858225,13.8905689310497,11.6875120292153,70.7140000000009,12.8199999999997,10.0190000000002,10.7310000000007,4.92600000000039
59.3659693368377,58.8768044750736,57.1321315474721,326.375287175761,222.695256774448,28.2161614831927,28.1027876276558,26.1154275650035,28.4835862995658,25.95438964763,69.8309999999992,12.6509999999998,9.65299999999843,10.6740000000009,4.83699999999862
57.3183162590606,66.4945908039561,50.5045051809615,287.914602944606,180.484441930005,22.9423940007594,22.9047902291406,21.982150165488,24.1226935993834,21.8650144966435,71.9099999999999,12.9039999999995,10.0620000000008,11.3260000000009,4.97899999999936
38.2625530307669,36.4657433661368,30.4695242220971,139.845993456711,99.8664243125082,16.0126047861529,14.8749899035614,13.2318888792955,16.076363130167,12.9318460732109,69.7509999999975,12.54,9.7430000000013,10.3549999999996,5.35199999999986
59.3917132972324,68.4861719610073,53.2088590722796,265.790612143444,206.820846320206,23.4491165103299,24.0524304745168,22.8722117464524,25.3072232860672,22.4071555003365,69.9469999999992,12.5240000000003,9.58700000000044,10.2740000000003,4.95899999999892
60.5781211867595,57.3995006644475,50.5110080929278,187.406156680764,142.912485548484,17.597232272973,17.384204760988,16.0490593161205,18.932065442972,16.6414113442769,71.6800000000012,12.936999999999,9.83800000000065,10.5409999999993,4.99100000000089
54.7254021335746,64.8965624476255,51.6150471219774,207.89391830314,147.337040383246,20.2189087665364,17.6620065974319,16.8564729961492,20.0026987590641,17.1942403617133,70.4680000000008,12.6480000000001,9.7450000000008,10.5139999999992,4.9380000000001
54.6318247808475,67.7491145219465,56.3037877472598,338.969135480633,227.280121386779,28.8621578999167,28.3650542855577,27.1590557433208,29.3363638857189,26.7317430529313,70.3900000000003,12.7079999999987,9.48199999999997,10.192,4.69000000000142
48.9609421595016,54.1068950411824,43.1544621446452,180.278989885727,116.758797138664,19.5523848440233,16.6207157887335,15.7052418511197,18.3355572443478,15.909662490599,68.3970000000008,12.1969999999992,9.33799999999883,10.1680000000015,4.82099999999991
54.4356365934483,54.2485387296458,45.6689708535987,167.744410332464,134.376929055159,17.4525884578206,16.0214028787601,15.4347494562636,18.140234890949,15.2085892398888,68.1270000000004,12.262999999999,9.26300000000174,10.1969999999992,4.83600000000024
57.6477133698544,75.4954070877038,56.348169928529,316.960878965815,222.997263573994,27.5892417232501,25.5659589072257,24.8038915344764,27.4600096953328,24.846748398204,68.1020000000008,12.2550000000001,9.17199999999866,10.1619999999994,5.05500000000029
33.7917783891451,35.6067535302564,25.8428035188079,109.682932885502,70.7518644269961,14.9286706947473,11.9282134302751,10.4324793068478,14.0115205340496,11.928293209621,69.043999999999,12.2100000000009,9.37299999999777,10.2660000000005,4.70100000000093
57.8273848740155,65.5201777346912,56.6578589077725,326.923824503356,225.842919511139,28.5401789274925,27.8849523337423,26.4436468103532,28.9844313611763,25.9128927166234,69.7779999999993,12.8120000000017,9.43100000000231,10.3749999999982,4.86599999999999
54.33598285515,66.0651431399073,48.0310176720237,237.131386000276,172.0516489467,21.858950863691,20.5646843843073,19.6951851894504,22.2583220933851,19.6475104714063,68.8339999999989,12.4080000000013,9.60200000000077,10.3739999999998,4.81099999999969
42.0684259208744,36.2803360134287,28.4543891113475,137.943763350946,98.3001324331715,14.5025269606604,14.5386251603566,12.9349035637636,15.7290251211836,12.6104485665269,68.900999999998,12.4169999999995,9.28300000000127,10.271999999999,5.15900000000147
52.5352112644141,69.7681650312551,54.5530067606143,289.819032525211,217.990909313533,26.7652140823125,26.7532367938144,24.861583547646,27.099165480593,24.613365490821,70.1890000000003,12.5660000000025,9.64699999999903,10.4389999999985,4.95499999999993
54.3598655701616,64.1362425124838,50.3982139342463,183.753337770086,140.080773456298,16.2828625727705,16.8502795692545,15.9408479634012,18.536468286346,16.4589341880778,69.2249999999985,12.4569999999985,9.6190000000006,10.1930000000011,5.16999999999825
48.8674948402832,62.9534864069396,51.9776406295128,235.309514735005,156.686206391435,20.2972713346849,18.8584662795763,17.89207990619,20.5026362611146,18.1068714190298,68.9969999999994,12.4160000000029,9.51300000000083,10.2509999999984,4.75699999999779
61.6948623141049,69.4776815325056,54.490677373558,336.462883890731,225.650293009065,26.4147867918981,26.8606071770833,25.5236837258586,27.9183729577942,24.9848650762636,68.8210000000036,12.3219999999983,9.37800000000061,10.0630000000001,4.8550000000032
48.1739559543866,52.0527497168028,42.1934276888474,184.671968658059,113.796424293106,18.1463873425928,16.2704609599825,15.3314029009034,17.6455874154498,15.5065652902813,67.9230000000007,11.9079999999994,9.12499999999636,10.126000000002,4.80400000000009
55.8055994589177,62.3767247992246,47.637432089868,195.380901912552,143.606078045994,17.3030717574518,16.5989905641835,16.2712156206352,18.8006254751508,15.9701871594722,68.1329999999998,12.1700000000001,9.17400000000089,10.1869999999981,5.10399999999936
64.4400020442634,72.2397546036809,58.0070196420901,310.169029581049,223.626481719669,26.9214556633485,27.3422041672748,25.4765288854834,28.1564086814229,25.529693763722,67.8340000000026,11.8819999999978,9.05999999999949,9.90300000000207,4.87299999999777
36.6289428023031,38.6194144757713,27.5155258468279,109.657443969714,73.8848704827895,12.4324740357347,12.8774499102957,10.798091476601,14.4876747745065,12.171036020417,68.0720000000019,11.9169999999995,9.12099999999919,10.0799999999999,4.56900000000132
63.1379568455243,67.0190758785563,53.9517505496324,339.302514634447,223.531704951929,27.0712118312661,26.7019504997858,25.4965888705493,28.066756115641,24.9278253525593,67.9550000000017,12.0210000000025,9.08600000000115,10.0770000000011,4.93400000000111
