Umag,Ts,Ta,theta,phi,alphan,sigmat,panel,Cd,Cd_old
5849.868,423.1983,1902.776,0.001196151,-0.02294535,0.0348554,0.739519,90,3.48575185318651,3.786729
8439.743,148.9437,1842.817,0.003359597,0.001001518,0.8566426,0.813407,90,2.69970064098321,2.688293
9181.079,284.622,1523.094,0.005957882,-0.03168928,0.4522557,0.06919076,90,2.28066771300599,3.133624
8254.939,418.7679,1706.346,0.01931847,-0.02060915,0.316485,0.9449537,90,3.30428514240006,3.487258
6997.693,199.6669,1952.472,0.01438802,-0.03689836,0.9605996,0.9003709,90,2.49627733026927,2.413193
6304.778,452.2634,1781.525,0.02554392,-0.04221527,0.6303855,0.3645565,90,2.44694438032879,3.013632
5986.813,449.1967,1378.645,0.04986178,-0.003700357,0.2420676,0.652321,90,3.25501218487809,3.537091
8350.321,442.5166,244.2248,0.02051485,-0.02643785,0.4863512,0.8678133,90,2.86460241038388,3.211103
6735.876,220.9673,1664.849,0.02615492,-0.03491377,0.06971452,0.2210365,90,2.74729455642789,3.591374
9339.533,158.2202,936.4059,0.04094516,-0.03281317,0.7722071,0.5373414,90,2.33127307431615,2.748078
8534.231,292.3065,1829.301,0.04119384,0.04752491,0.4176688,0.5556883,90,2.72480255208414,3.272816
7948.449,206.0895,836.791,0.02518591,0.03660803,0.2582536,0.2464471,90,2.5503994885537,3.360091
9461.654,353.783,698.8271,0.001789545,0.002826189,0.2953041,0.7086658,90,3.04411797403961,3.41422
7923.493,175.5841,942.668,0.03655167,0.02483274,0.5094427,0.9571148,90,3.04890638882396,3.245129
6348.431,363.3214,791.7331,0.03622243,0.02556285,0.2225252,0.3995524,90,2.7909827871927,3.448669
8117.741,180.2507,1996.616,0.01890862,0.0505727,0.5858948,0.5135083,90,2.5473064987485,3.067668
8922.086,166.1151,1244.471,0.04868235,-0.0164455,0.5360937,0.5068219,90,2.65728418912778,3.105282
9386.933,444.1099,1103.149,0.01485013,-0.03648972,0.3587081,0.1598333,90,2.40230943803468,3.233639
7431.896,227.717,1222.617,0.02665803,0.02027541,0.5557887,0.714179,90,2.84707239952377,3.148002
6491.032,187.3942,1635.564,0.0213982,0.03958957,0.8818392,0.259211,90,1.9858550065405,2.521897
5915.343,317.5774,915.9403,0.003862706,0.006073411,0.330318,0.7588277,90,3.20846623074145,3.441616
7507.725,102.3927,1195.662,0.002359853,-0.04339859,0.1799115,0.234793,90,2.60089341525284,3.448371
8608.236,212.4703,1050.906,0.001113574,-0.04887276,0.4261341,0.4710843,90,2.58637573727083,3.218772
6833.763,388.7349,1302.301,0.0400677,0.03791052,0.6438084,0.8800253,90,2.89458732726898,3.072577
8373.243,109.1695,1856.736,0.02893122,0.04770629,0.141007,0.1094298,90,2.50621416085004,3.469118
8544.73,246.4317,632.4512,0.02016209,0.01651751,0.004927595,0.9307354,90,3.36757569955343,3.737316
6481.778,395.7422,1154.66,0.04463943,-0.01164424,0.1041689,0.4613567,90,3.03780017279405,3.592957
6300.722,460.4076,857.926,0.04069336,-0.04140356,0.2732872,0.2057656,90,2.5158451727313,3.352348
9124.782,126.7443,362.3186,0.03430724,-0.01227875,0.5943709,0.5435163,90,2.55455640109438,3.021549
6301.727,336.3882,291.305,0.01898008,-0.02316718,0.1906012,0.4978443,90,2.84494615618261,3.474683
7378.674,434.2978,392.0743,0.0203332,0.02346704,0.3924476,0.450259,90,2.65018505468367,3.258412
7097.362,430.2966,683.0489,0.01503131,0.02887012,0.7197999,0.8093825,90,2.68269460704397,2.907897
6016.674,251.7914,605.5806,0.005774371,-0.008842158,0.7240754,0.9846824,90,2.95000331149602,2.958611
8260.327,478.997,1693.226,0.003354816,-0.02915588,0.9094851,0.6410221,90,2.30933582836848,2.51251
7834.226,381.5391,528.5725,0.01229551,0.0363149,0.6129636,0.413904,90,2.37931145314662,2.972579
7465.597,497.8659,1565.615,0.03665906,-0.03052137,0.2309089,0.6364581,90,3.03175249104728,3.497503
7522.424,253.9099,341.4944,0.05178372,-0.05004654,0.05847388,0.6152628,90,2.90290792496942,3.582645
8767.326,256.2098,1646.031,0.009804757,-0.03913696,0.2159341,0.1123933,90,2.47779518173569,3.391668
5627.251,216.256,1037.993,0.04134135,-0.01283771,0.1644572,0.8974714,90,3.47765243129091,3.645155
7587.402,398.3453,1593.662,0.01653827,-0.0493711,0.9979976,0.1909098,90,1.55223986956296,2.063628
6615.938,147.4061,222.4465,0.02035817,0.01188943,0.6600969,0.1687474,90,2.19987984920979,2.869473
6969.734,260.3385,580.6306,0.04240125,-0.02763893,0.1594524,0.6882216,90,3.04295544998443,3.533105
7267.207,349.615,506.3676,0.03615411,-0.04023794,0.6010941,0.2635776,90,2.25671352328043,2.954979
8831.454,345.4013,486.3631,0.04005205,0.04419967,0.1891579,0.08894182,90,2.39285997961371,3.366736
8753.041,192.8335,1540.996,0.00523624,0.001963903,0.9227726,0.4072512,90,2.11981264322468,2.418374
8956.936,309.1065,894.4558,0.01824264,-0.0009537986,0.4350567,0.07113161,90,2.41132132209517,3.162645
8112.056,313.6646,1129.651,0.007299564,-0.018139,0.375653,0.03192123,90,2.3544228471673,3.222346
9052.228,467.9505,625.6482,0.04048515,0.02819964,0.4780014,0.4469373,90,2.55983362468299,3.150162
5751.837,238.818,562.9211,0.01111818,-0.03206703,0.6554897,0.9645344,90,2.89997102260463,3.049466
8664.146,107.9512,726.5264,0.03821813,0.03116778,0.7070603,0.8356417,90,2.65796650080002,2.917751
6913.087,436.5039,404.9853,0.02510116,0.04619956,0.5277842,0.7823791,90,2.74176053436783,3.149082
9311.292,320.0378,719.7362,0.01401968,0.03994882,0.7507751,0.8411275,90,2.57677950784036,2.840991
7973.07,152.087,443.3997,0.0169246,-0.0336094,0.2690962,0.1738821,90,2.46864607902308,3.319334
8975.86,409.9752,1294.479,0.005731984,0.02294445,0.9358734,0.6276188,90,2.20244189784439,2.408615
8176.895,470.5854,1616.891,0.01046439,-0.02267858,0.9451029,0.870654,90,2.4624245298262,2.44922
5924.316,369.4307,1938.823,0.03126782,-0.03896187,0.8228751,0.2744856,90,2.14740218967831,2.693502
6430.23,474.337,418.2006,0.01157129,-0.04995025,0.8942082,0.1232368,90,1.73828287356034,2.43188
7171.063,229.71,1975.722,0.04830635,0.0015171,0.0252965,0.4822085,90,3.22630428557623,3.693756
7358.967,459.6788,1070.754,0.04865006,0.02627317,0.837515,0.01177753,90,1.82025841090122,2.554954
5954.668,115.4377,1238.895,0.01379622,0.001221999,0.1319587,0.3730387,90,3.01852366725611,3.580159
6915.008,377.7517,1432.08,0.03467759,-0.0103996,0.8618855,0.05734821,90,1.88937681028505,2.538655
8959.763,385.6365,1737.542,0.01117207,0.02171522,0.5755622,0.994133,90,3.09230312580078,3.185658
6607.99,333.2665,256.5004,0.04001277,0.01659402,0.3407706,0.3069742,90,2.59998087476073,3.283192
9324.578,414.639,1878.278,0.01580157,0.03585483,0.979296,0.3378538,90,1.79114244670979,2.189413
6285.166,328.7602,1757.576,0.004143568,-0.03853169,0.287913,0.4395872,90,2.83378099860362,3.43516
7676.857,407.9992,747.4263,0.04569552,-0.0199838,0.1214398,0.9193233,90,3.32279928525845,3.639036
7706.756,233.0373,1002.737,0.02515411,-0.001755941,0.4457,0.699807,90,3.00515515653142,3.272979
6463.391,364.3581,213.1116,0.04936946,-0.02908682,0.6203008,0.2913495,90,2.28106960611018,2.93668
8489.688,489.4401,1470.303,0.03763374,-0.01551861,0.7858927,0.5811498,90,2.47928618474043,2.768376
6289.017,134.4605,1358.31,0.02643696,0.04471948,0.8788691,0.9288972,90,2.65253676125012,2.655461
8445.613,120.3527,278.4959,0.006748432,0.04928686,0.3018171,0.7735869,90,2.85151821276592,3.384254
8164.854,280.7513,551.5302,0.001406437,-0.02385539,0.3863207,0.5232283,90,2.72168432710222,3.28003
5901.64,178.8536,349.5812,0.05200251,-0.01220992,0.5463755,0.4253671,90,2.5575831596497,3.068076
6604.28,302.503,1404.662,0.04135513,0.007056194,0.9574881,0.04965412,90,1.68588687646741,2.272351
5779.188,128.3568,1090.687,0.03003438,0.005859517,0.6955143,0.8285337,90,2.96605840415691,3.000261
7818.37,306.1812,1449.43,0.04284676,-0.01311266,0.3200293,0.137285,90,2.54895477111917,3.312416
7028.596,274.1325,317.5026,0.01240054,-0.01818483,0.1149728,0.5777378,90,2.97628954253661,3.556372
6045.863,290.6194,769.06,0.04464019,0.008644489,0.5663416,0.5669888,90,2.7512691241403,3.107438
6596.814,374.7313,1011.612,0.03014425,-0.01864591,0.7343382,0.2852001,90,2.26095440123404,2.805666
5730.121,279.0089,1582.109,0.03168853,0.02284605,0.2007154,0.8551431,90,3.44716472989657,3.63419
9101.358,119.2849,1147.155,0.03737464,0.02015316,0.01409412,0.3250512,90,2.86889442741594,3.616918
8669.163,342.1918,820.6483,0.0009884607,-0.04477333,0.6714551,0.7235702,90,2.5597236008823,2.948415
5734.044,203.1757,654.7785,0.04849363,-0.002930978,0.5143346,0.5936463,90,2.85267703286576,3.176869
8773.939,269.7817,1926.613,0.01472315,-0.02910258,0.08350149,0.7485083,90,3.24058740157609,3.659591
6462.518,482.6384,881.716,0.02428088,-0.0259103,0.09265954,0.002207215,90,2.51151898875106,3.499433
7683.819,190.1387,1276.55,0.000993157,0.000389675,0.496774,0.6043719,90,2.8990354458434,3.206322
8873.61,138.665,456.0784,0.02717867,-0.03777124,0.7461897,0.02102602,90,1.89035733430897,2.697181
6313.205,211.1681,809.2932,0.005594004,0.0009118381,0.8409726,0.1498475,90,2.04138307322236,2.586297
9008.014,161.5167,977.6938,0.01521802,0.01748604,0.683106,0.7671978,90,2.71741971617122,2.952541
6724.468,426.1398,1789.725,0.02047946,0.01866709,0.9866267,0.6657527,90,2.24554531765095,2.26925
5793.916,486.6269,1414.538,0.03524933,0.02138369,0.8122869,0.3175717,90,2.24659985862746,2.70532
8146.376,243.5844,1185.538,0.036439,-0.03915542,0.9119802,0.09100297,90,1.71711048247199,2.382617
7065.54,171.3158,503.6963,0.04180042,0.04173704,0.07258105,0.6729551,90,3.00226111234426,3.600805
7008.02,327.1968,1713.377,0.01358235,-0.01630815,0.8019386,0.7931816,90,2.7551160595748,2.811371
8364.274,358.813,963.3082,0.05183173,-0.02833257,0.04474688,0.9734754,90,3.38525657517603,3.704729
5602.199,492.705,1482.609,0.03312537,0.02919753,0.7613466,0.3564205,90,2.34905201074357,2.813827
6981.164,143.3874,1339.808,0.04949466,-0.04119366,0.4634133,0.1866662,90,2.36438757834475,3.142638
6894.6,265.7264,1817.61,0.04271955,0.02542207,0.7963768,0.3883249,90,2.3098875580962,2.739161
9084.612,297.5798,1325.543,0.03316727,0.03448501,0.4093377,0.2182483,90,2.42240274306559,3.198069
7266.79,403.7217,1506.485,0.01817792,-0.01732715,0.3643482,0.3403579,90,2.71376993428935,3.315292
8123.922,288.5628,1788.169,0.004501447,0.004107556,0.316295,0.9276624,80,2.94691034585304,3.462967
8682.187,266.1307,1702.236,0.01037513,0.0306652,0.1992042,0.1841625,80,2.29816747094017,3.338256
7917.322,334.4745,1094.288,0.02111636,0.04775423,0.1277897,0.4100604,80,2.56540685652762,3.415791
8566.329,389.4591,579.1949,0.05091504,-0.004282639,0.05024848,0.137082,80,2.24510145508082,3.460161
7685.676,119.3923,1285.589,0.02160402,0.02302741,0.225677,0.5016783,80,2.57366439584218,3.396358
7392.913,242.0767,647.8443,0.0008582244,-0.01064391,0.7078616,0.06039693,80,1.70517818391789,2.739082
6433.056,426.467,1143.692,0.004586874,-0.01147932,0.3376329,0.6062816,80,2.57353834741702,3.354801
5923.637,324.4897,1046.23,0.05119861,0.007702393,0.4037682,0.2558594,80,2.22559123013427,3.191154
6346.66,214.3792,670.8114,0.00552481,-0.00703513,0.9099916,0.3972182,80,1.8082296275906,2.418974
6277.877,340.9815,1616.932,0.0005170931,-0.009557042,0.6081445,0.1967672,80,2.00315855358034,2.968682
6911.011,246.6443,1259.917,0.00343659,-0.02194428,0.8837284,0.4268577,80,1.88367605163319,2.512972
8438.048,438.1112,1635.081,0.05215064,-0.0002615977,0.08933455,0.2851002,80,2.42220999665996,3.499316
8516.592,236.3518,1863.513,0.01170985,-0.02582771,0.4370706,0.4570113,80,2.32292180253903,3.208148
8939.564,161.6996,1654.575,0.006594261,0.03981183,0.9316866,0.7075714,80,2.09425374192185,2.400207
8761.051,347.3688,1919.467,0.04974983,-0.04966481,0.02883658,0.3421668,80,2.39691954025787,3.567739
5596.732,184.84,1191.595,0.04230641,-0.0464683,0.1150626,0.7370717,80,2.81333759964269,3.619537
9033.909,148.8193,1662.147,0.002977471,-0.04823869,0.2127119,0.9663913,80,2.92956016070487,3.553311
7282.026,461.5647,536.7352,0.04240531,-0.01202886,0.3664325,0.0346762,80,1.9357236925269,3.158543
7486.169,190.0091,1220.129,0.007240683,0.01579856,0.2504968,0.9746351,80,3.01846270143187,3.517835
9252.046,255.6528,1470.515,0.01092514,-0.01094034,0.04681013,0.05830137,80,2.17827498977161,3.4881
6855.9,494.4799,302.0321,0.01462017,-0.05104263,0.3788866,0.300657,80,2.1117966802028,3.196286
7257.542,448.9565,408.9473,0.04058469,-0.03079389,0.4657985,0.02584052,80,1.82497437040476,3.053665
8538.749,458.1228,1231.78,0.0106527,-0.03251688,0.2619902,0.7284684,80,2.66890339024365,3.434237
7387.575,139.0699,1514.86,0.02160304,-0.01599322,0.5980332,0.2336556,80,1.99713175842423,2.962404
8672.584,414.186,715.1935,0.03792687,-0.04067989,0.9410091,0.1670776,80,1.45986370696018,2.269113
6289.125,411.1221,566.8845,0.01032278,-0.007905812,0.2792946,0.2611018,80,2.23823807116676,3.308888
8359.094,292.2283,806.8705,0.02767164,0.03143036,0.005843199,0.2175056,80,2.4067497910152,3.489799
7689.862,297.8618,1493.506,0.014386,-0.03338353,0.7605284,0.8225078,80,2.4101584693778,2.847858
6864.736,283.1826,624.5819,0.01933442,-0.03059833,0.6448073,0.8843291,80,2.54087698797641,3.016275
8524.434,155.0119,764.0453,0.01114297,0.03763725,0.4426307,0.4995923,80,2.40125545264147,3.129338
8153.476,370.567,315.9945,0.02658495,0.02514212,0.967795,0.3736419,80,1.66048067707579,2.180523
9001.438,403.6687,1432.972,0.02504621,-0.02127115,0.6837376,0.1711411,80,1.83066270343133,2.812588
6374.808,285.828,542.0257,0.04441192,-0.03412472,0.3963283,0.692906,80,2.53405780536621,3.277283
6610.205,464.2202,1728.809,0.04069205,-0.01377008,0.7525965,0.5570002,80,2.22892701757357,2.830735
6372.828,165.1923,1536.594,0.03083105,-0.04694481,0.7957077,0.5755297,80,2.14323723099057,2.742351
7244.995,130.0172,738.6462,0.0509929,-0.02668573,0.8368072,0.3184877,80,1.79359114171696,2.560801
7593.82,177.8193,225.2915,0.01429839,-0.03233799,0.5275136,0.5661248,80,2.2868032141631,3.072193
5657.807,362.7504,1821.883,0.01248434,-0.01435075,0.5834379,0.07587338,80,1.90805929845586,3.000201
6277.973,384.7546,1106.75,0.03361348,0.04901226,0.175503,0.1276324,80,2.29462937807219,3.328382
9377.71,316.5133,660.3111,0.008892355,0.05136216,0.8195597,0.3855925,80,1.94275192832469,2.556788
5750.007,376.6331,778.8648,0.03282653,-0.05150749,0.6929094,0.243028,80,1.85955572556487,2.825964
6626.155,301.6408,1747.968,0.02588505,-0.0459302,0.9547372,0.04196146,80,1.33763686805838,2.242635
8802.916,468.1643,610.2707,0.02593701,0.03600509,0.07815811,0.4368207,80,2.5660930355582,3.466943
8604.709,272.996,204.0587,0.01375934,0.03651539,0.7860215,0.2267126,80,1.82050872989781,2.584779
8806.542,210.1057,248.9016,0.02255481,-0.03026971,0.8797151,0.7885356,80,2.1681814977747,2.548594
7363.804,441.2328,1074.097,0.01370953,0.01086865,0.478639,0.8379202,80,2.71309548766085,3.228555
5862.853,230.2539,1449.445,0.02597402,0.0117738,0.5459988,0.4472166,80,2.34506889032241,3.089702
5556.712,313.2743,843.7431,0.02399557,0.05151986,0.4948722,0.0146251,80,1.96403258982012,2.968191
5984.894,251.1058,1749.519,0.03899759,0.003754592,0.09278485,0.7520052,80,2.99185003586279,3.674321
6082.42,201.9576,395.034,0.01008403,-0.03245961,0.7747091,0.9418898,80,2.47819795279584,2.823121
5636.7,193.6824,289.7758,0.03790858,0.001474028,0.5196511,0.3335823,80,2.15568781082123,3.040568
8984.318,473.567,1367.073,0.04086909,-0.01565842,0.2833639,0.0847795,80,2.05811432136976,3.275061
6329.096,199.0131,508.0136,0.006323442,-0.02969233,0.9817608,0.9089048,80,2.11136413375959,2.259641
8576.184,158.8105,1808.084,0.01415196,-0.03215396,0.6324862,0.3541039,80,2.05929721331705,2.93473
6030.574,307.1088,1499.133,0.03163272,0.02663509,0.1584473,0.1467928,80,2.32860326437204,3.406664
5555.631,498.9349,1323.875,0.01450877,0.01493452,0.7213055,0.6480994,80,2.41807695278531,2.903458
6252.718,269.6098,1768.025,0.02073363,-0.01751105,0.1808606,0.6554871,80,2.77678642130283,3.559294
7237.582,336.2302,868.4963,0.02794191,0.001088621,0.1094922,0.5392389,80,2.6426167193631,3.524405
7155.791,107.4538,850.6182,0.02243552,0.02611191,0.352128,0.4794276,80,2.4572696017017,3.25056
6954.993,225.847,373.3955,0.04159678,0.04746017,0.2336305,0.852809,80,2.86069609701969,3.421649
6493.505,206.1432,1158.73,0.04518258,0.01519811,0.7430122,0.8041599,80,2.48243667799682,2.859178
8339.617,354.7051,994.4423,0.0007708506,-0.007803689,0.5608382,0.8690727,80,2.65031950070923,3.13577
8706.451,175.9504,451.3583,0.04417986,-0.001376757,0.6784979,0.6831441,80,2.3447763907364,2.89091
7673.821,260.8243,1039.682,0.04943488,-0.03657507,0.4801913,0.6709153,80,2.46789632421951,3.186236
8670.548,144.7635,947.9441,0.04888603,0.03652485,0.9908547,0.6620455,80,1.85166413806312,2.108154
8272.026,140.09,1134.854,0.02409563,-0.000863522,0.5358098,0.8784385,80,2.68754730610222,3.175128
7863.666,232.5255,344.0564,0.02446673,0.01487506,0.3281905,0.1072541,80,2.07654920583892,3.178345
9124.99,422.9639,1988.381,0.0333413,0.005908741,0.01216276,0.6204817,80,2.80162576795368,3.637481
8024.541,135.4151,979.8394,0.005288458,-0.01783618,0.4590473,0.003736808,80,1.8473787277092,3.073876
9353.799,484.7882,1378.07,0.003742844,0.009582717,0.1642414,0.2069471,80,2.28852465877354,3.390813
7507.173,364.3555,1179.07,0.002074979,0.02713856,0.6220745,0.4611189,80,2.24671989373854,2.934213
7576.312,395.9881,338.0476,0.02092939,0.01003761,0.6606417,0.1545419,80,1.86532215149031,2.805039
9270.523,432.1115,1403.643,0.02510223,0.01753787,0.8631625,0.6144525,80,2.10815793390758,2.568672
5756.066,311.5424,1577.37,0.04527033,-0.02863365,0.06960405,0.7708456,80,2.94565208063959,3.68777
8453.605,108.5444,916.1978,0.01502921,-0.02306069,0.03689016,0.8178217,80,2.89181699849601,3.656798
6449.815,359.263,1957.313,0.01400762,-0.02786543,0.3005196,0.5884393,80,2.6189914315044,3.433398
7375.148,329.934,921.7457,0.002420377,0.03575219,0.1476726,0.5151854,80,2.6352588357564,3.446674
6841.328,121.4863,1341.569,0.0375233,-0.03651378,0.2463536,0.5480056,80,2.53565169401602,3.431192
9426.85,112.7735,1678.836,0.01321018,0.03922406,0.8519855,0.9919084,80,2.49641637691244,2.682259
8864.407,455.5822,1410.893,0.006209779,-0.03649957,0.1362219,0.7199546,80,2.73620316818048,3.557157
6200.064,218.5116,1850.385,0.04759543,-0.02238952,0.5579278,0.2748205,80,2.10574710785134,3.050266
7812.851,444.3991,1879.069,0.04452845,-0.03240657,0.5027867,0.9357089,80,2.76317516339475,3.262531
8363.098,417.0376,1272.608,0.02251613,0.01382637,0.2008512,0.7902841,80,2.84469914979508,3.497711
9278.76,183.544,463.1484,0.03234177,0.01652246,0.9720237,0.3256937,80,1.58246537975389,2.144209
8171.166,103.1709,261.044,0.04136986,-0.03575533,0.4276157,0.6317741,80,2.43158374788831,3.203752
9142.6,322.7177,749.9422,0.03246331,-0.0486747,0.8013586,0.9560985,80,2.43285586461874,2.767989
5527.309,490.8305,1565.08,0.05027067,0.001774398,0.6560439,0.915242,80,2.77197230796194,3.109525
8206.625,430.5033,699.3217,0.0314577,0.03660369,0.5739353,0.7498333,80,2.52896349711603,3.036839
7065.513,476.8445,494.7603,0.03900513,-0.01223519,0.6174268,0.2902343,80,2.01532747838024,2.91024
7888.432,127.1254,884.5703,0.04087804,0.03710381,0.7317719,0.5928723,80,2.24658749374041,2.783462
7260.364,407.9815,1598.459,0.02664291,-0.02981223,0.8277466,0.7670353,80,2.3063517204297,2.718425
6538.018,482.39,470.0412,0.04845179,0.004459765,0.712345,0.8417867,80,2.49375851443586,2.892092
7294.697,381.3275,961.8025,0.01818584,0.04562876,0.9245761,0.1167299,80,1.55098610871396,2.271946
6258.169,397.0844,825.2639,0.005793166,0.001197447,0.2913443,0.8962869,80,2.90881980341266,3.459441
7685.945,259.485,1965.657,0.04870201,0.04048248,0.3827638,0.09639901,80,2.12332975822169,3.127615
8717.349,277.4892,1304.12,0.03863758,-0.02060955,0.3441445,0.4836075,80,2.40237807936124,3.289168
6146.903,348.4369,1941.558,0.0009686291,0.01533166,0.9137402,0.4027894,80,1.92967648253174,2.46257
9435.197,374.1272,1027.942,0.04912161,-0.04646745,0.4150967,0.9820678,80,2.78787312943613,3.325488
7691.52,221.3832,1893.3,0.01655696,-0.02158648,0.8916514,0.5256759,80,1.97903250984688,2.521527
6250.393,170.9654,432.0699,0.009565112,-0.013844,0.8450973,0.368848,80,1.85438419737959,2.557523
7554.835,337.2774,1477.156,0.0349672,0.0318114,0.2727313,0.8885224,70,2.78997949851925,3.341863
8782.49,265.3597,295.2447,0.04529722,0.02399584,0.4123231,0.4706611,70,2.20835579797295,2.995649
8898.296,237.5602,259.4527,0.04148695,-0.02925959,0.7498856,0.8687264,70,2.34568189723684,2.758929
8001.634,485.3112,963.373,0.02716565,0.02284421,0.6363702,0.6143113,70,2.23674469281758,2.828508
7617.659,379.4814,640.6227,0.02891651,-0.04164571,0.7560136,0.4962256,70,1.9684998386558,2.651308
7872.545,218.5223,910.2785,0.001810467,0.02697071,0.5655623,0.452096,70,2.11818010594122,2.845019
8575.716,134.222,1940.456,0.01735658,-0.03090206,0.03922011,0.4840204,70,2.45955630683167,3.451353
6148.461,228.1769,1762.766,0.01708828,-0.04172763,0.3024936,0.2237194,70,2.0722978966241,3.180618
5773.084,172.8681,549.2374,0.04693857,-0.0470309,0.5993811,0.02052551,70,1.59354148453267,2.731157
6235.785,464.8988,1546.49,0.04451946,-0.051293,0.7149966,0.3471725,70,1.91126019844488,2.721698
5905.554,418.6533,1897.873,0.02467886,0.03358921,0.02890961,0.313566,70,2.3964296282911,3.369512
5882.009,496.3634,430.2348,0.01009317,-0.01294657,0.3762336,0.9087569,70,2.7020827527499,3.263862
6722.507,147.9787,1449.411,0.002029856,0.02474481,0.6858528,0.2666912,70,1.85881089915132,2.66091
8513.032,286.0674,1767.899,0.03887527,-0.03876114,0.8201577,0.634355,70,2.08397312815024,2.605065
6226.349,469.2275,607.8659,0.03272797,0.03088489,0.3960404,0.1821049,70,1.95818547156474,2.918948
7060.942,211.2851,1438.115,0.01885711,0.03325755,0.9931891,0.6956546,70,1.86628090983639,2.101758
6088.069,148.0228,351.6238,0.04328413,0.04755969,0.4321179,0.8070005,70,2.56409507398177,3.088258
8231.398,404.4127,387.3709,0.0321068,0.04593211,0.04892528,0.7038397,70,2.65938547281148,3.372144
5917.645,155.5573,1739.269,0.03918994,0.009294907,0.949613,0.9115739,70,2.27059043263046,2.429021
7621.483,251.1006,1491.52,0.04105131,-0.02828665,0.1750493,0.01725628,70,1.89145547570514,3.17578
7080.453,446.0583,1951.102,0.01259412,-0.002982512,0.2256455,0.1705941,70,2.07226372218066,3.190313
6124.819,495.9304,481.3678,0.0512585,0.01094616,0.91991,0.07621128,70,1.36658338690412,2.161696
7794.77,192.345,1302.4,0.03994152,-0.01626575,0.5729615,0.0615813,70,1.6844401911967,2.763161
5928.651,283.6368,1497.323,0.04858345,-0.01119385,0.9057812,0.5595855,70,1.94454878039254,2.423525
9414.236,320.3627,778.0342,0.04663587,0.02871037,0.2831463,0.3859262,70,2.21545704852953,3.085701
8449.505,157.424,1921.104,0.02397679,-0.004898959,0.203529,0.5948195,70,2.51926363261817,3.337669
7282.705,443.1997,1001.513,0.01496815,-0.02990599,0.3143624,0.8115073,70,2.64281792887273,3.30569
8366.251,368.6459,1882.563,0.03933794,-0.00968292,0.7232477,0.4692736,70,2.02524161419908,2.70798
5682.589,454.346,937.4614,0.01358742,0.04588268,0.8973681,0.5499588,70,1.9416319297743,2.387227
6987.446,344.47,1965.402,0.006279237,-0.0236151,0.1988458,0.7307288,70,2.68127411320203,3.428273
6534.643,359.1971,729.4729,0.01914591,0.006292372,0.06642214,0.05034391,70,1.99225621460204,3.220436
6413.691,318.2107,1341.117,0.03702684,-0.04997281,0.2539904,0.9578547,70,2.86062806533279,3.458815
9098.061,305.6079,1843.701,0.01929694,-0.03515324,0.2689753,0.1043172,70,1.91612071267828,3.121831
7964.287,227.2054,952.8174,0.005672444,-0.03378906,0.1362621,0.1561352,70,2.02435882951017,3.241944
7626.494,204.6702,216.4679,0.02841282,-0.005554227,0.4972634,0.3295347,70,1.99974517353614,2.894571
9400.598,353.962,1822.725,0.006298821,0.01261881,0.3872111,0.1439564,70,1.91831222256314,2.961012
9148.792,290.395,854.2759,0.004094549,0.0463552,0.1588115,0.5374322,70,2.44574885646945,3.233965
8238.42,116.8446,1234.532,0.02229215,-0.0215234,0.1064273,0.1238046,70,2.01635133771553,3.249597
9336.109,478.9674,407.3134,0.01992766,-0.01497055,0.4555632,0.04234068,70,1.71560519321271,2.866345
6696.167,233.1122,1617.675,0.03848286,-0.04500372,0.6710929,0.6529277,70,2.25997931661457,2.879057
5760.216,488.0132,1152.729,0.02873906,0.04733874,0.7778031,0.3302859,70,1.86776222277717,2.522374
7742.845,351.7051,1367.087,0.009231496,0.01482891,0.8859668,0.8359096,70,2.22955883000882,2.526355
7443.816,362.7403,1174.176,0.01870303,0.003829209,0.8041297,0.5885015,70,2.07140211170437,2.600596
8915.168,301.3383,1020.381,0.01850316,0.01327875,0.6519313,0.4328198,70,2.02567993725392,2.743232
6986.08,246.7641,870.0171,0.01627232,-0.03624398,0.7920372,0.1936029,70,1.62328215820516,2.505177
7812.495,189.6093,706.1526,0.005833354,0.03447106,0.9246844,0.208793,70,1.48495264496577,2.148712
9385.511,373.5481,1249.463,0.0001453907,0.01638825,0.5305474,0.7218214,70,2.41722658843597,2.998399
6216.544,112.0624,1322.503,0.03657767,-0.0152029,0.05706141,0.74662,70,2.76348832531932,3.537928
6361.041,241.6701,618.4597,0.01326158,0.02260759,0.4719838,0.2419501,70,1.95934971721644,2.879704
6084.432,168.7883,1856.726,0.01183632,-0.008380325,0.7652801,0.9779431,70,2.59155509813824,2.890234
6937.532,335.8513,1095.669,0.02054427,0.02707931,0.8743131,0.3633236,70,1.756455735439,2.362058
7724.629,431.4186,1407.475,0.01237844,-0.03062951,0.4622042,0.7982747,70,2.55180184014751,3.158667
8194.546,387.3358,1643.067,0.04849518,-0.05051876,0.4805284,0.9954517,70,2.73411651425668,3.206306
6032.236,197.4466,758.926,0.03368359,0.02090874,0.6953148,0.5747279,70,2.15657758007494,2.742444
7935.245,274.6299,1059.845,0.03630857,-0.0430702,0.6634207,0.3016778,70,1.85387895198836,2.734619
9264.94,121.6497,815.4908,0.01547021,0.04636141,0.1660463,0.08324752,70,1.98607416932492,3.047645
9418.752,412.7516,1715.065,0.02195375,0.03735375,0.3369749,0.4049174,70,2.23709779070982,3.056699
6253.156,341.8015,1108.913,0.03116479,0.00512497,0.345917,0.037766,70,1.83834622900046,2.991219
8747.796,435.0255,651.2399,0.009577392,-0.03182339,0.4479801,0.2507951,70,1.94130631472831,2.958777
7333.541,278.9517,316.5222,0.02911044,0.01070518,0.3245497,0.2177052,70,1.99471376159245,3.016996
7561.473,313.1091,1663.079,0.03409165,-0.03022226,0.7318243,0.878552,70,2.44749395262378,2.856375
8395.989,327.9736,1999.82,0.02842151,-0.02730911,0.3617584,0.5000504,70,2.31267237449284,3.168214
6044.285,396.632,1371.002,0.002181352,0.03118189,0.9803855,0.3751116,70,1.61244435621064,2.096014
8859.988,331.5864,1292.49,0.03276564,-0.04995203,0.2926551,0.949702,70,2.77588060661336,3.365137
7364.76,160.9639,1272.072,0.03032303,0.03649321,0.427609,0.9285577,70,2.72512126386987,3.191831
6271.365,366.4547,276.7799,0.03167176,-0.003634055,0.8195351,0.983079,70,2.43340882533803,2.694411
8940.628,179.5449,1130.121,0.04164446,0.03997142,0.07498516,0.3539079,70,2.31860934448786,3.235605
8357.948,263.9873,442.6785,0.03215352,0.0326333,0.8366019,0.7875932,70,2.20216949280626,2.552144
5533.489,181.4961,580.2703,0.01673082,-0.03276672,0.240331,0.6015695,70,2.46234355444586,3.29678
8964.17,458.7101,1633.226,0.02231945,-0.02848932,0.09609281,0.7679277,70,2.72087159956993,3.484155
9117.693,165.161,683.0605,0.01653265,0.0001598348,0.6150535,0.1364722,70,1.72324114570353,2.696792
7217.208,393.2693,577.0797,0.04137882,0.03008111,0.1239094,0.5119641,70,2.44214415750724,3.267257
7893.318,102.4452,1072.032,0.01608153,-0.0008906173,0.8634063,0.2730379,70,1.64632525613283,2.369899
7382.577,294.432,469.3332,0.04560998,-0.004974745,0.6020383,0.6752194,70,2.3015693154092,2.89416
7914.236,474.7553,1211.019,0.01967173,0.0135167,0.1833502,0.7175481,70,2.64540271869241,3.353195
5641.36,136.1902,332.4579,0.01055733,0.04690607,0.007565881,0.5229034,70,2.50665995039471,3.341536
9014.87,142.6164,1169.877,0.03883131,-0.04640281,0.5450499,0.9365577,70,2.607005279131,3.083952
7685.305,254.1006,753.3334,0.02797462,-0.004272438,0.1117127,0.7573303,70,2.69247713893344,3.433362
8962.972,481.4765,1034.583,0.02283053,0.02159261,0.5015202,0.5674652,70,2.27201090035703,2.962331
5958.756,425.8412,1815.267,0.00824878,-0.02300785,0.845166,0.9620908,70,2.4861024409252,2.740922
7205.793,109.2751,1558.138,0.02098627,-0.03613098,0.9315788,0.8243069,70,2.14226903661357,2.422226
8459.601,200.0848,222.1161,0.004785653,-0.04541336,0.957883,0.6815839,70,1.87399971033552,2.239221
7293.397,270.4504,840.5259,0.03565999,-0.02421794,0.1459512,0.6201463,70,2.52934179201197,3.371208
7353.239,221.5413,702.1898,0.02480483,-0.04967245,0.5531637,0.6417599,70,2.28348062061713,2.976325
7168.031,408.6722,1516.948,0.02592755,0.04480547,0.5190529,0.8562455,70,2.61857092671199,3.069214
8699.23,439.2571,530.3481,0.03973574,0.04996605,0.2111677,0.008952447,70,1.86687359560653,2.963975
8487.75,125.4859,1395.317,0.02844188,0.01805363,0.7060212,0.4413301,70,2.00050053180688,2.671916
7141.04,451.8593,1579.873,0.03682898,-0.005226146,0.9766125,0.395777,70,1.61672696159964,2.125656
8595.015,185.6234,809.9645,0.02140644,0.02746771,0.648552,0.6649149,70,2.26684937736039,2.812939
8102.826,401.8753,495.9919,0.004264807,0.05212258,0.9655309,0.2823948,70,1.48492938456206,2.029946
6995.655,420.1858,1195.308,0.04515946,0.03550956,0.4014998,0.8988466,70,2.72271904712208,3.213858
6731.175,214.364,980.1318,0.007894678,0.02888877,0.6268074,0.2340147,70,1.85659233074935,2.697799
5933.608,258.7574,898.5647,0.0184249,0.03035179,0.2350044,0.1186778,70,2.00141600197319,3.065089
9012.145,461.6808,1787.973,0.02870498,-0.009597157,0.01056606,0.4241205,70,2.41330188278039,3.423709
6922.155,389.7057,363.312,0.03864968,0.03204746,0.7883104,0.8411312,70,2.31144720868167,2.664959
6238.507,308.8405,522.595,0.0198418,0.02623952,0.08999014,0.4151619,70,2.35891627820267,3.283248
9055.623,130.3723,237.5786,0.01196689,-0.04592237,0.5859639,0.09799041,70,1.65961658927914,2.75315
8693.562,297.3199,1701.003,0.01431154,-0.0267198,0.3530332,0.1679314,70,1.93953271451582,3.049967
5786.48,104.9208,1688.444,0.01498791,-0.02956685,0.8566725,0.7785161,70,2.25450633807219,2.631497
6318.429,383.6466,1591.749,0.03952012,-0.004278392,0.5238902,0.2969976,70,2.02588356992938,2.921838
8296.91,187.7773,606.9653,0.03734005,0.04360121,0.1615994,0.2059753,60,2.10448322369231,2.795504
6996.713,302.0244,1973.011,0.0258882,-0.01197294,0.6853253,0.8809322,60,2.54067392364696,2.838196
9054.365,229.0197,1181.322,0.02825831,-0.02945072,0.7416062,0.8538592,60,2.39218571883507,2.689277
8740.526,482.5252,641.5528,0.006881493,0.01308731,0.8183585,0.8466721,60,2.29404893609289,2.540397
8993.577,489.3348,1442.229,0.04901579,-0.02116252,0.7680443,0.2549121,60,1.76230098500879,2.348798
6991.253,131.8252,566.8961,0.008485727,0.05139782,0.1747443,0.5276565,60,2.42822893772284,2.965435
9412.179,122.534,1780.035,0.04055643,0.02031346,0.7806542,0.05637508,60,1.54096765941575,2.171597
5598.016,444.4781,460.1818,0.02732779,0.02113809,0.06180144,0.7097639,60,2.68550893426755,3.222175
8387.642,247.7001,1199.736,0.03089575,0.05194255,0.5971032,0.9918473,60,2.64005539580539,2.888815
6500.245,402.1799,1811.129,0.009926643,-0.005356944,0.9200691,0.5317703,60,1.91433171584359,2.259979
9241.851,306.1163,314.0691,0.0292276,-0.03620214,0.5136791,0.4169554,60,2.10217829507218,2.723034
9473.768,372.2669,390.5648,0.02010544,-0.02931778,0.4921176,0.2711836,60,1.97560723250948,2.672537
7062.344,499.7899,1226.419,0.002545477,0.01728261,0.5504397,0.3178297,60,2.02317805915888,2.620965
6684.68,208.8805,1675.32,0.02458578,-0.0370215,0.4018484,0.1680058,60,2.00023739233818,2.785392
9465.552,478.6239,894.1149,0.02700419,0.02144625,0.8682136,0.3322652,60,1.7059804453123,2.166576
9370.173,149.3272,1730.476,0.0262946,0.04084805,0.1072736,0.08865608,60,2.0400159978383,2.802296
9363.294,316.6509,543.9091,0.05206273,-0.01561121,0.210349,0.6377049,60,2.518281640383,3.084739
6830.062,353.6436,1541.501,0.0156527,0.02765499,0.8879612,0.5174306,60,1.92617502340107,2.265149
8337.028,175.4904,478.2901,0.007572894,-0.005758004,0.01520516,0.1584451,60,2.1303964347547,2.994051
6538.196,363.8874,1909.521,0.02772876,-0.04621263,0.1554751,0.9450109,60,2.97217053076268,3.416462
7795.298,473.715,808.987,0.04392529,0.02017254,0.2561626,0.4744083,60,2.34486050703742,2.94186
5505.835,337.908,1412.19,0.05196147,-0.005413223,0.6751534,0.7269438,60,2.40240799444619,2.765832
7141.271,429.8746,1514.234,0.02042433,0.02703354,0.6682537,0.8702142,60,2.51346781604543,2.796273
6234.021,465.375,712.8757,0.01802189,0.02317478,0.4478442,0.7458225,60,2.51762061455301,2.937942
6811.078,133.9588,1953.478,0.03522007,0.02336395,0.05031792,0.8082346,60,2.87592262594081,3.344289
6093.257,205.6449,1252.466,0.0332168,-0.01008971,0.9188462,0.3918972,60,1.74830085977115,2.169847
6819.152,454.3628,1993.29,0.02452542,-0.03903109,0.5223961,0.3003439,60,2.07152166967864,2.742298
8865.755,159.0161,1352.254,0.006731176,-0.04056795,0.344623,0.4362675,60,2.26436714082244,2.934044
7945.015,296.7117,428.7365,0.03885797,0.03072428,0.4748923,0.1904664,60,1.90196164183889,2.556832
5510.093,145.1654,1441.376,0.02975498,0.03579634,0.1147894,0.4531553,60,2.4867337695723,3.075131
6593.827,126.143,1043.509,0.03133305,-0.03353714,0.03161424,0.9812199,60,3.02018305629899,3.481401
8279.273,456.0119,986.1732,0.04755943,0.01638866,0.3870063,0.5799611,60,2.38192921845283,2.897776
7351.151,346.4053,1014.959,0.03266927,0.01100981,0.9881996,0.4641448,60,1.64978552841408,1.950068
6368.609,163.3884,374.3026,0.03082364,-0.01432045,0.09552182,0.5886494,60,2.53761001447225,3.161856
6245.436,182.7081,1588.941,0.01568888,-0.001857148,0.9924318,0.5905504,60,1.79112803475548,2.028831
6147.823,212.3309,868.9899,0.04538426,-0.001930318,0.6287748,0.354525,60,2.00290782017236,2.572721
8558.941,391.4413,207.8346,0.02831523,-0.02141107,0.6991459,0.8154978,60,2.35234206915067,2.700356
6910.845,380.4139,672.3792,0.03899826,0.006894248,0.350026,0.7904964,60,2.6141569763437,3.05645
8458.796,397.2286,1605.838,0.01654876,-0.008369117,0.9680544,0.4433319,60,1.68350741735252,2.037411
8575.509,250.5269,1394.714,0.04530348,-0.02110093,0.561165,0.7792264,60,2.47602464804289,2.873531
6946.656,274.9627,1725.02,0.01511195,0.0493502,0.1959456,0.9249775,60,2.89394253036376,3.261424
9386.456,227.137,1791.07,0.03825148,-0.01053606,0.32698,0.3856975,60,2.23131734620007,2.903492
7851.023,288.4053,998.0036,0.04799987,-0.04340089,0.2019641,0.4202116,60,2.33465220763303,3.042845
8317.662,423.1823,1147.371,0.02545533,0.03844267,0.4603136,0.5573995,60,2.31434908660583,2.787257
5768.509,357.6852,438.0969,0.04382055,-0.03892541,0.6179311,0.869716,60,2.51035997111449,2.854274
8184.319,102.8011,1312.036,0.04673079,-0.05127859,0.1338497,0.09971253,60,2.05471670887199,2.961725
7632.966,104.3689,359.8532,0.02873075,-0.01080931,0.7281297,0.32387,60,1.84234622034805,2.412169
7689.17,268.5755,1827.684,0.01154052,-0.03422015,0.4512643,0.9003547,60,2.70387666903416,3.095579
7796.728,243.0088,1280.342,0.03218155,-0.01125197,0.8501727,0.5612099,60,1.9927189185008,2.380354
6151.48,348.5721,1263.682,0.02649963,0.01706722,0.8900237,0.1338218,60,1.51906520455105,2.062467
6349.327,328.3532,247.859,0.006406156,-0.01151196,0.5872525,0.6165782,60,2.26332988449849,2.737972
6142.128,340.5333,264.4139,0.05191711,-0.0132688,0.9796807,0.01271043,60,1.19523409620058,1.754333
5749.689,282.7467,1478.74,0.03548219,-0.01773041,0.3971512,0.9534003,60,2.83177387803873,3.209458
7915.888,449.2007,1208.511,0.01163075,-0.03441336,0.7792432,0.9103263,60,2.42122309997618,2.68566
9020.821,116.8383,1375.273,0.007637386,0.05116262,0.5742163,0.0645453,60,1.71978386175409,2.361148
5901.807,414.6539,1636.262,0.00217265,-0.02522612,0.71403,0.8299037,60,2.47532288067098,2.795244
7372.025,326.1636,411.5621,0.009586243,0.01113987,0.6451935,0.3496833,60,1.94599765784361,2.512711
9333.505,234.4283,1574.198,0.009045696,-0.04750644,0.304301,0.189708,60,2.04349046733833,2.860475
8202.112,365.1018,1709.11,0.01256205,0.002443024,0.0729185,0.7810655,60,2.79402756850322,3.315571
6721.387,385.2395,1133.291,0.04888851,0.008654584,0.2743836,0.2371762,60,2.11565582672319,2.844716
5935.775,264.3581,1164.329,0.01461873,0.009358677,0.8347403,0.489205,60,1.96509444079002,2.375478
6713.167,260.865,513.8624,0.04340125,0.02458104,0.6068059,0.6406109,60,2.2803159444516,2.695606
7964.429,194.6048,304.4612,0.01857184,-0.02521424,0.4378494,0.04823053,60,1.78188279428175,2.613746
5888.676,238.3687,952.8129,0.03931198,-0.0297367,0.6593082,0.2668255,60,1.90345983698551,2.533206
8878.767,179.763,222.3511,0.03811049,0.01446232,0.08246062,0.1410577,60,2.07221442572454,2.878598
9075.827,109.5006,620.037,0.02842181,-0.02529773,0.002644107,0.03909505,60,2.02061433417079,2.97279
9066.463,164.8195,1463.491,0.03967982,0.01682608,0.7557484,0.8935992,60,2.4275405950082,2.671096
8339.939,435.2538,1677.025,0.02556361,0.006849317,0.500192,0.6620348,60,2.4188676097365,2.87541
7070.995,463.7911,686.2671,0.04905363,-0.02176303,0.3360615,0.3633667,60,2.19125149250873,2.87509
8511.686,311.3398,968.1467,0.05064922,0.03574051,0.1202117,0.9742068,60,2.92413280633003,3.295542
8077.232,217.2526,1329.981,0.04615906,0.01046816,0.630101,0.6803838,60,2.32989812041055,2.729478
8031.681,252.1027,740.5808,0.01178393,0.04646451,0.1846261,0.02707425,60,1.91892177138473,2.679986
9282.861,170.5719,833.0861,0.008870713,-0.03961061,0.2967933,0.6704531,60,2.51484288020863,3.067932
8992.304,322.1052,1084.017,0.04600391,-0.05225858,0.5364466,0.9325345,60,2.62745629050648,2.977276
7848.936,392.9795,1102.855,0.008206838,-0.01471879,0.04446708,0.7521765,60,2.76265519649888,3.316418
8289.767,295.7861,1081.722,0.007277198,0.02308015,0.2454908,0.1765944,60,2.05212136430114,2.782118
6151.751,138.3734,340.8873,0.001532976,-0.02698025,0.7001306,0.215414,60,1.77151356485044,2.414642
7942.089,418.9991,275.8776,0.02627577,-0.01204247,0.8296822,0.1285922,60,1.54257700547758,2.162612
7074.953,411.6411,931.7492,0.02485432,0.004508827,0.4849935,0.6001481,60,2.35308096934401,2.845933
7089.704,369.0589,587.4473,0.03644314,0.002767602,0.02648064,0.9672106,60,2.97127943728177,3.410043
7832.077,155.0902,1344.856,0.02790989,0.006994918,0.8709754,0.4065933,60,1.80576581077231,2.237946
8754.967,379.8722,1839.721,0.01835941,-0.003622955,0.1415608,0.7699893,60,2.73869319158868,3.265461
9202.901,333.0457,1873.965,0.004989602,0.007468473,0.8458556,0.2990399,60,1.72860068184148,2.22874
7091.444,201.2434,723.6114,0.01573379,-0.02913897,0.9542435,0.1177401,60,1.36111398657246,1.915925
7451.001,407.5158,776.1395,0.03244532,-0.02004841,0.8097172,0.6947189,60,2.16320041659955,2.504579
9360.069,469.2382,1560.797,0.004310239,0.003702297,0.3781711,0.6554797,60,2.47454716765319,2.979454
7722.41,426.4594,1509.416,0.05006838,-0.02200848,0.2877396,0.3785529,60,2.26533269955335,2.943111
9313.244,142.6989,1884.048,0.03389314,-0.0052063,0.226504,0.2249911,60,2.12674208643806,2.899708
8033.895,495.8257,906.1819,0.03374661,-0.04051986,0.2676987,0.6223748,60,2.49778023228799,3.083695
7746.99,191.9109,821.7063,0.03419757,0.01201655,0.7999092,0.4933708,60,1.96641110998235,2.386316
9243.94,315.2165,773.4431,0.03882354,0.02512044,0.4265652,0.5090639,60,2.26593341157757,2.79253
7734.984,112.9659,657.2712,0.03203447,-0.03411194,0.9012177,0.07543249,60,1.39727394483793,2.026705
5944.758,257.1407,857.7622,0.01718544,0.003611451,0.9350142,0.5459902,60,1.87019802221744,2.193189
6354.096,436.3194,1943.551,0.00106137,-0.03117893,0.3695296,0.004757237,60,1.86567748632009,2.749294
9065.704,221.2613,1055.908,0.001734596,0.02720604,0.5460312,0.7337892,60,2.42711990884294,2.814823
9423.788,196.3832,534.7761,0.002577379,-0.002555062,0.7327385,0.8314636,60,2.35421926657612,2.663754
9067.458,442.2097,496.747,0.03562271,-0.02275197,0.2302149,0.2869713,60,2.15202067705702,2.908834
7758.351,284.0881,1641.527,0.02945302,-0.03909132,0.4160988,0.249055,60,2.06093417236994,2.791725
9458.559,276.8107,1752.736,0.03308036,-0.03455083,0.318139,0.7174961,60,2.56987054617689,3.092406
8210.816,487.7328,1926.359,0.0003466777,0.01639329,0.9442119,0.1071809,60,1.39409032834576,1.912311
8066.068,338.7944,1857.809,0.01611494,-0.0007040791,0.3803997,0.8383998,50,2.78439027023911,2.935977
8407.316,403.0902,426.7383,0.03066074,-0.05127401,0.545277,0.3490553,50,2.20909774241445,2.437021
5638.736,467.6492,1385.498,0.03596785,-0.0485311,0.2619308,0.7136756,50,2.80676951768091,2.990983
5561.622,233.5872,342.4329,0.02784887,0.02513884,0.9901578,0.09422758,50,1.35961453721411,1.509649
7117.626,410.1957,1798.744,0.01540167,-0.0319017,0.83405,0.4103408,50,2.01561310941681,2.184782
5762.356,214.3646,1973.928,0.02747775,0.01492921,0.5523125,0.2724393,50,2.18871993675924,2.397109
6767.778,335.8614,1422.706,0.01335975,-0.04201005,0.03401961,0.4206957,50,2.65635026473435,2.921241
5548.744,372.189,971.21,0.04623313,0.004588068,0.05918588,0.3344307,50,2.52073024024236,2.778495
8401.486,380.1117,1429.128,0.03214347,0.0465976,0.9435637,0.5126736,50,1.8666366883612,1.958494
5641.33,276.3499,218.4614,0.007151032,0.02377379,0.07837395,0.3217104,50,2.43897414504699,2.664286
8198.981,469.8397,666.8435,0.03091536,-0.03723396,0.2148873,0.03191061,50,2.15818565397431,2.481765
5640.411,188.7309,1945.325,0.03572655,0.03897462,0.4849132,0.3572901,50,2.31782757782021,2.483501
6016.838,344.412,1012.007,0.03325683,0.03945642,0.5342359,0.5797704,50,2.41903928698655,2.547681
9249.212,461.2522,1983.476,0.01826954,-0.02539344,0.8008462,0.4491663,50,2.06338931457944,2.230653
5529.682,390.7929,1684.963,0.01814227,-0.02505287,0.3989952,0.8179092,50,2.82607593611811,2.978848
8137.156,186.2555,1306.4,0.05225845,0.02794584,0.1099882,0.2251609,50,2.3600756115488,2.590572
7854.067,209.5788,988.8635,0.0493004,0.03194087,0.4579424,0.1637255,50,2.0724404454846,2.280112
6943.69,414.3169,1709.279,0.04217124,-0.001986112,0.4318841,0.9294241,50,2.85096386630331,2.971463
8710.817,399.643,1528.264,0.04766691,0.04038351,0.8665865,0.1505449,50,1.66371893989856,1.822396
9106.873,447.2729,1739.147,0.04800211,0.03557573,0.9628929,0.8906162,50,2.16708844740432,2.198478
6043.97,162.8545,1638.522,0.0333477,-0.002872101,0.229262,0.534541,50,2.63942532834699,2.861461
6054.601,248.0989,1191.116,0.01280708,0.02547969,0.1897651,0.7833586,50,2.86165777653496,3.004511
7170.724,359.9489,1672.774,0.01762334,-0.04338788,0.6322775,0.880313,50,2.64761519267704,2.761274
6737.59,370.2643,1753.196,0.04701258,-0.02927769,0.3659057,0.2948797,50,2.34387679997684,2.585863
9316.336,432.98,401.2977,0.0247918,0.02746335,0.6277816,0.6307193,50,2.33462129241205,2.466745
5834.681,130.243,994.7625,0.007376147,-0.0006949404,0.8110326,0.9950815,50,2.55111435198353,2.622488
6046.638,309.906,370.0298,0.02618551,-0.02559956,0.9721146,0.9882545,50,2.22713535385595,2.252786
6122.223,274.5128,1577.38,0.02080818,-0.05029135,0.7139565,0.1977506,50,1.98944525908715,2.224776
7999.744,497.809,721.5217,0.01885297,0.04917076,0.2885101,0.06271052,50,2.08531754702019,2.279622
7475.707,315.4756,523.2816,0.0115437,-0.02735199,0.02197673,0.129567,50,2.34447531743402,2.660095
9074.021,283.4139,1127.006,0.0118125,-0.01715939,0.2900984,0.6651987,50,2.65828444349026,2.850665
6309.965,172.538,1957.972,0.0101208,0.0227702,0.04881145,0.2830448,50,2.52000281180052,2.752525
7509.698,407.796,703.7136,0.02173267,-0.03275057,0.09534034,0.3714855,50,2.52295995581723,2.793888
6191.202,138.613,938.5019,0.01078191,0.001365815,0.01727304,0.9103352,50,3.06607563155025,3.234949
7553.834,488.2176,851.1226,0.01406894,-0.02978588,0.6565104,0.1098501,50,1.90395661444997,2.156615
6644.628,150.7364,741.9804,0.04024195,0.01593752,0.1962451,0.469724,50,2.53520620113787,2.740046
7744.615,494.3404,1876.532,0.006227393,-0.04302997,0.9148027,0.3085091,50,1.80741408261194,1.976409
7334.052,329.4292,1490.451,0.02418093,-0.02784813,0.2309035,0.314717,50,2.42043186089985,2.690102
8706.626,196.7218,908.9256,0.01661401,0.005616433,0.5910702,0.9058075,50,2.64717787145088,2.757478
6667.938,395.524,454.3619,0.03251897,0.01486118,0.5795212,0.7301839,50,2.48817484129219,2.615375
8829.796,109.6795,920.5667,0.003960873,0.03132299,0.8862986,0.6567881,50,2.07783814448063,2.172807
5559.243,449.0338,1235.448,0.01832863,0.03176938,0.4174372,0.7580099,50,2.70502589530828,2.828611
6259.452,142.2032,846.2335,0.04595021,0.02375633,0.6770444,0.4313797,50,2.14662026952691,2.307238
8473.414,147.4471,1770.395,0.02975145,0.01383169,0.7730575,0.8676744,50,2.46226196741204,2.547439
9301.52,486.0932,390.9184,0.03241766,0.03031652,0.8789952,0.05430471,50,1.53994904045786,1.71697
8712.647,426.0076,1220.558,0.01037834,-0.01141353,0.06161014,0.4536005,50,2.60862490663944,2.856759
5667.273,478.48,1177.488,0.02535342,-0.0323622,0.9841671,0.08310739,50,1.46740391736614,1.657703
6178.078,418.2722,577.6463,0.02299104,-0.04283765,0.7833973,0.9501593,50,2.5149618017593,2.596737
5734.458,228.4008,1104.829,0.03885227,-0.04438024,0.2450238,0.2542367,50,2.39303960281366,2.661981
7479.142,295.2354,591.5332,0.03230489,0.02641752,0.6072177,0.6278125,50,2.36617646482249,2.494638
7895.094,156.1504,292.8605,0.005215619,-0.005756926,0.8593489,0.2007603,50,1.71034635705844,1.913596
9382.908,349.0596,309.8998,0.01744903,-0.0232407,0.7258643,0.7689067,50,2.37625563208976,2.502523
9234.05,219.8942,1919.54,0.02371349,-0.04159338,0.470161,0.6185601,50,2.52389278971305,2.713839
7893.766,179.9505,774.0174,0.03000404,-0.03039488,0.1307339,0.1896851,50,2.33710644974457,2.640327
7476.316,155.1506,1837.351,0.02863357,-0.008066181,0.4075907,0.547328,50,2.50928726714541,2.711397
6111.368,262.4369,822.8041,0.04203758,-0.04471354,0.7411311,0.4770974,50,2.16404052719047,2.341243
6997.774,442.0269,1363.772,0.04538036,-0.003777214,0.8256722,0.5036509,50,2.08983837338328,2.224751
7670.298,126.2299,1277.066,0.01232149,0.02922245,0.6497626,0.1472108,50,1.91998382851889,2.111018
8018.663,378.8402,210.0968,0.02203642,-0.03498333,0.6805174,0.8434974,50,2.49142944669381,2.613052
6967.911,317.1855,890.6579,0.0269903,0.02574072,0.9200058,0.1168059,50,1.55603036591871,1.722112
5835.193,285.7069,1642.907,0.0352287,-0.01394277,0.5090033,0.3882355,50,2.33370977139112,2.547046
9454.708,429.0197,645.0684,0.01262283,0.0140746,0.1158112,0.02037161,50,2.1487294583901,2.443141
6894.59,133.1943,1723.613,0.03906715,-0.03172895,0.5848777,0.1716485,50,2.05879370741295,2.310857
5667.069,195.4318,1563.673,0.04677094,0.0111209,0.3105955,0.8511574,50,2.89431535233409,3.022331
6930.966,360.5749,1510.816,0.02377453,-0.03403792,0.258453,0.2321293,50,2.34489453895627,2.624703
7321.91,200.6066,1056.704,0.004465497,-0.02660999,0.7904802,0.04642004,50,1.70560006817005,1.954132
7163.916,105.3231,442.8436,0.04888438,-0.0008480365,0.1578261,0.497084,50,2.56786821840309,2.785998
8708.069,181.8396,1161.119,0.0513967,0.04016953,0.08410364,0.7417911,50,2.82248659989424,2.97254
8407.885,169.4977,615.069,0.05153297,0.03275382,0.3763118,0.9706893,50,2.83626116137714,2.933249
6846.421,352.0425,345.9541,0.01569643,0.02663506,0.9578049,0.6737283,50,1.96856267959052,2.044652
7621.84,304.1521,1898.516,0.001549037,0.03912888,0.4457096,0.2119104,50,2.16018514507987,2.343557
6569.488,258.1645,246.7836,0.03745019,-0.01112926,0.1209124,0.7939991,50,2.8431734708627,3.028142
7650.125,303.9253,530.0668,0.03966935,0.0225998,0.8439233,0.360815,50,1.88214834400428,2.021224
7662.932,247.6334,1592.799,0.003758069,-0.01541887,0.3329001,0.5226522,50,2.53212511169733,2.748954
7458.857,437.1221,1542.96,0.02533124,0.01159195,0.6196124,0.6419444,50,2.42209382532336,2.5593
9319.221,242.8257,1468.709,0.03421151,-0.03097399,0.6938173,0.9351399,50,2.59306104454269,2.689003
7397.356,264.2343,1617.691,0.03842416,0.0516319,0.4256277,0.8786428,50,2.76289169796819,2.863868
5947.208,452.7167,1341.436,0.02491266,-0.001118116,0.2059882,0.5823749,50,2.68738584843652,2.893247
8156.696,386.511,1142.749,0.04864506,-0.02292144,0.3001057,0.7773718,50,2.75920968806069,2.924969
8175.723,268.1041,487.5677,0.05191533,-0.04017407,0.3253217,0.6977266,50,2.6577987903367,2.845654
7360.355,340.5137,263.3523,0.01773204,0.02993057,0.4977571,0.7244911,50,2.51620230631316,2.653387
5860.135,252.2801,882.7507,0.01283217,0.0490927,0.1734919,0.9632213,50,3.00320606951403,3.106768
6132.196,324.861,1397.121,0.01648864,-0.0003822354,0.009458375,0.9418485,50,3.13458609138375,3.297543
7032.496,320.4292,1320.518,0.03703313,0.0343019,0.7645179,0.5682196,50,2.2011671263742,2.308297
7731.599,456.0642,670.3211,0.02548887,-0.04791465,0.5665761,0.006402823,50,1.90007274031154,2.195128
6709.642,227.8145,1090.08,0.03180722,-0.02744459,0.9088049,0.5512146,50,2.00123172987021,2.123613
7989.96,207.4465,1840.688,0.02607753,-0.005384978,0.6685711,0.4853083,50,2.23643634936176,2.413415
6730.684,475.8863,1257.708,0.03198166,0.04752492,0.3578793,0.01664749,50,2.02717455755756,2.227148
8429.524,290.8345,790.3095,0.03614114,-0.04069866,0.4670982,0.8288921,50,2.67924840081658,2.827857
9274.336,367.0849,1455.16,0.0003199092,-0.009647208,0.7322947,0.4095108,50,2.08069990162521,2.2664
7193.164,299.761,605.6232,0.05166343,-0.0358069,0.3421336,0.2497974,50,2.26101145126433,2.532115
9495.116,483.658,800.8538,0.01305924,0.005590299,0.890617,0.2618972,50,1.72886764618853,1.904476
5910.857,119.8736,558.0422,0.02855334,0.01350482,0.1699495,0.8039818,50,2.8519043390234,3.009172
7591.801,223.1856,738.8515,0.0473473,-0.01384909,0.5199714,0.1342015,50,2.01700625024527,2.281107
8993.357,121.8988,1297.581,0.0477063,0.002926014,0.5250917,0.07252431,50,1.94725934120012,2.207481
7430.185,113.2674,1075.647,0.0005658164,0.04054455,0.2762417,0.7026131,50,2.68421814226804,2.825225
6546.859,165.6658,1819.141,0.02809764,-0.04701663,0.7039339,0.5949299,50,2.34232688580093,2.503789
8324.037,102.2978,282.8159,0.03617719,0.03605854,0.1409265,0.6898426,50,2.7117464840765,2.868876
8379.232,237.9192,1042.428,0.04950308,-0.03389385,0.9396503,0.3929131,50,1.78316263001034,1.924993
5973.85,420.3547,494.4687,0.009406609,0.009952215,0.7556681,0.6032512,50,2.22898365690756,2.358536
6354.283,103.4489,932.2653,0.01678414,-0.03475155,0.7659724,0.04728124,40,2.00268039302902,1.746757
6122.897,475.9079,1759.052,0.04014082,0.02411475,0.1449604,0.7376674,40,3.07352136628995,2.839622
6543.079,233.8257,1482.897,0.001500716,0.02574144,0.8152608,0.7661103,40,2.44255344668017,2.322929
8916.224,254.8868,919.7842,0.0001927537,0.0178216,0.4991895,0.8306643,40,2.77886391239944,2.626803
7391.746,366.5363,1815.445,0.02973699,0.04006103,0.6329648,0.4151665,40,2.38667616707653,2.152507
7887.132,429.2334,841.7351,0.004911233,0.03273023,0.7378515,0.7728542,40,2.49785950513547,2.359267
7941.055,155.7419,1602.933,0.02175051,0.002396729,0.7581028,0.6420804,40,2.41824176400316,2.275047
6181.882,148.7773,1217.71,0.04713332,0.04125162,0.3815199,0.4499269,40,2.63156462669175,2.357902
5782.086,157.3475,970.2401,0.008864737,-0.00734376,0.1181956,0.2397733,40,2.69423160813208,2.407684
7447.248,106.5729,1099.048,0.01800247,-0.03733132,0.9051186,0.4305186,40,2.04064672296919,1.891767
7421.942,263.7473,492.4704,0.009626833,0.03415299,0.06011105,0.8019166,40,3.06029886104489,2.848556
7546.418,242.773,1975.807,0.006677714,-0.03783198,0.9252618,0.5312263,40,2.10261123655447,1.972502
5820.343,318.0112,887.6391,0.003187304,-0.03939371,0.2212981,0.6236213,40,2.92819682525758,2.707231
7644.251,205.4141,1798.744,0.04963898,-0.0003210794,0.4128676,0.8701946,40,2.94352676904221,2.782174
7234.704,306.2331,522.511,0.009819313,-0.009463213,0.1767091,0.5034302,40,2.80588920372138,2.567912
6742.696,309.6314,1899.788,0.01465697,-0.04959592,0.8329841,0.727763,40,2.4266128756573,2.307387
7357.566,173.8008,1735.75,0.04666189,0.05147688,0.6606629,0.123697,40,2.12542865849774,1.823834
6813.633,265.6686,1001.251,0.009615644,-0.03255836,0.1333996,0.299565,40,2.74662188127556,2.458958
9151.834,476.5858,1624.793,0.02459477,0.04701557,0.1527741,0.9863802,40,3.16483737112151,2.988198
6049.19,271.5912,1040.63,0.04076756,-0.01494547,0.3706759,0.3403552,40,2.59344917187365,2.343134
8308.49,494.302,735.1435,0.01011471,0.04794029,0.84043,0.9431001,40,2.46462434703005,2.38557
9345.585,202.0797,1984.428,0.03479223,0.00838628,0.5025216,0.1719701,40,2.32771056775288,2.055003
7788.861,436.3119,786.6522,0.01022638,-0.01689343,0.333009,0.5717615,40,2.75009308967115,2.543466
9292.517,444.6798,753.551,0.03613921,0.03201272,0.3608035,0.5243986,40,2.65193675794404,2.413862
6895.478,416.2641,1403.779,0.03280691,0.009777657,0.5287072,0.9169484,40,2.86840444818401,2.737596
6513.697,312.2196,1062.007,0.04975161,0.01848545,0.8566689,0.6933595,40,2.30672969742093,2.191788
6146.521,397.4128,1529.087,0.02079703,-0.04698096,0.9520176,0.14128,40,1.79868847164516,1.595563
8042.892,300.108,1842.628,0.01714942,-0.04172762,0.3190201,0.007545888,40,2.42561917346326,2.109049
6250.118,343.1966,1504.124,0.02141982,0.05096052,0.3944877,0.9694558,40,3.01609718559896,2.868793
7468.735,208.5798,1075.52,0.05086657,0.05150679,0.0557442,0.8422553,40,3.10912781455801,2.881584
7539.814,190.6356,629.0374,0.01200368,0.04366479,0.296807,0.6510324,40,2.79300571558764,2.567649
7966.974,117.7524,588.1982,0.04853057,0.02237503,0.4311263,0.7080758,40,2.73368967304748,2.551608
9030.974,380.2942,673.409,0.01778669,-0.02680491,0.899512,0.285148,40,1.92878575589778,1.746552
8142.368,198.4287,1171.972,0.005577217,-0.04306215,0.6592813,0.4844937,40,2.43341312622788,2.237731
5977.571,293.3266,250.2998,0.04718047,-0.01064334,0.4043419,0.1329266,40,2.36451082127328,2.084214
6482.234,362.689,1278.345,0.04195709,0.0262144,0.6119037,0.1562215,40,2.22443510388054,1.937312
7176.46,385.5463,440.6815,0.01693418,-0.05203627,0.0807468,0.9368653,40,3.19397386606077,3.016811
7445.573,248.4326,1865.406,0.001242769,-0.0293532,0.6989492,0.9770183,40,2.7639614421178,2.665457
8149.17,498.9047,287.4612,0.05003376,0.04947256,0.6076365,0.2012906,40,2.19136796724635,1.898332
5688.57,353.2179,695.0501,0.04661262,-0.04597433,0.4529379,0.5541145,40,2.67900575020765,2.483968
7224.063,415.9197,803.1357,0.03235922,0.02780408,0.1934114,0.01917701,40,2.4289023475728,2.065495
8636.558,391.0576,1952.121,0.04706093,0.036352,0.6718263,0.8283108,40,2.63659267450129,2.504043
7095.38,144.6431,351.4757,0.0123964,-0.03398375,0.5593915,0.4794948,40,2.4970198191154,2.29147
8077.874,192.6439,822.913,0.03312194,0.04506247,0.9426164,0.2547029,40,1.78066527298246,1.572853
5578.839,348.7323,1335.541,0.04709909,0.03978533,0.04782828,0.2211742,40,2.71682225837032,2.371684
8837.375,490.7178,202.1614,0.04812274,-0.0004112841,0.2068291,0.7510366,40,2.92507216670396,2.739962
8298.826,168.013,1290.939,0.01227889,0.01580251,0.2408038,0.06853496,40,2.44486869360031,2.114559
9442.3,280.5439,537.3009,0.03829194,-0.05220735,0.007172349,0.03164316,40,2.63820472945202,2.277594
6168.975,401.1154,481.5801,2.082967e-06,-0.01824075,0.7488713,0.3130161,40,2.18443957631291,1.978986
6689.841,124.5858,411.6018,0.02153606,0.03855628,0.8689398,0.2677434,40,1.93195681706505,1.71451
7168.134,237.0932,633.7952,0.02229615,0.03635892,0.3021261,0.5912343,40,2.75310105359132,2.514282
6145.416,287.4348,602.3843,0.03064236,0.02739275,0.467844,0.9287111,40,2.88304165210725,2.739211
7799.32,459.5102,1185.513,0.03552088,-0.04904111,0.5924907,0.07839599,40,2.23938765366778,1.950246
7798.505,140.8614,310.8788,0.04853139,-0.03952615,0.2184403,0.3286756,40,2.66771235820812,2.388399
8183.249,483.3911,870.9821,0.02341815,0.007250203,0.8228389,0.5661905,40,2.2451092399297,2.101262
7070.403,370.0138,1468.577,0.04437059,0.02245935,0.910149,0.2132,40,1.87041006405861,1.659165
8992.086,433.9061,1582.31,0.01219797,0.01491417,0.873951,0.9972391,40,2.49695780877429,2.434504
7317.558,275.1212,1554.15,0.001071229,-0.05140868,0.5197709,0.3758641,40,2.52917754433528,2.293666
9352.236,379.4975,1148.568,0.01263282,-0.01356775,0.8013071,0.02458773,40,1.90299613255897,1.648062
8061.954,427.0794,1448.935,0.03921061,-0.007501656,0.1299731,0.2753464,40,2.6939244729395,2.410626
8452.95,339.5645,991.2674,0.01801318,-0.05111825,0.5404667,0.1195301,40,2.30769530401097,2.022901
7640.816,443.2504,1254.227,0.01828819,0.001883342,0.4417675,0.8969562,40,2.91934289961641,2.778379
9119.04,329.133,663.046,0.006899924,0.02588763,0.7773722,0.09741439,40,1.94754400657422,1.684293
5607.446,325.3872,1776.045,0.01363042,-0.02797087,0.4852331,0.2441598,40,2.49783039535674,2.239199
7949.302,276.3642,1354.957,0.04857454,0.04969394,0.263563,0.7108024,40,2.87806608436222,2.658521
8303.703,212.5735,1377.932,0.02274276,0.01861483,0.9775981,0.1060109,40,1.58563457700562,1.387061
5992.236,395.2885,1835.128,0.006869849,0.02757812,0.7883726,0.9528584,40,2.66387877759168,2.568467
5925.753,163.3327,762.0816,0.02343586,-0.01231433,0.628682,0.1832796,40,2.2302342591544,1.983316
9095.889,454.4415,269.6629,0.01559293,0.02006452,0.07343007,0.9031379,40,3.11112033261855,2.926722
5955.725,470.6966,1889.869,0.01149279,0.01441102,0.6402278,0.8647054,40,2.77631377103548,2.652606
6777.747,322.5091,1235.251,0.03963711,0.03626464,0.7956629,0.6384385,40,2.35116202850064,2.201512
8056.317,180.7007,1414.778,0.04212838,-0.009504683,0.8816177,0.086886,40,1.8286386838203,1.599168
8440.094,122.0337,1713.989,0.03851319,0.05040247,0.4709823,0.05431741,40,2.24224636248207,1.889234
8129.268,131.2121,331.4566,0.03087106,-0.05066738,0.9957223,0.6627258,40,1.8971814805344,1.818627
8341.456,333.2615,1131.433,0.0001740868,0.01532882,0.6893761,0.8176497,40,2.60188568951412,2.473208
7499.989,411.0163,1304.413,0.02988057,-0.01214422,0.02984104,0.601756,40,3.00579339391277,2.77062
8283.691,225.1697,864.5477,0.04999426,0.01996755,0.3432277,0.1962599,40,2.44684490105224,2.147457
8172.829,289.1722,373.1117,0.01201416,-0.03144344,0.2835494,0.4024598,40,2.67012609838924,2.417981
5762.562,230.5804,1323.428,0.01345348,-0.001383653,0.4271697,0.3507645,40,2.55935970744242,2.328303
8203.999,110.1697,1668.768,0.04418427,0.008386121,0.09574011,0.6714547,40,3.0022299959942,2.785899
6565.739,346.199,1540.01,0.009016471,0.02468241,0.2312195,0.429213,40,2.75301868586694,2.483397
7203.505,217.7677,225.3773,0.04302866,0.01034409,0.7267802,0.5866045,40,2.36098004564783,2.189542
7194.304,222.8635,1711.341,0.02500909,-0.04869492,0.1666896,0.5483254,40,2.93213059178637,2.694485
9011.173,420.7277,1640.536,0.04548119,-0.05002842,0.3228293,0.8842354,40,3.02256982974819,2.843673
9419.743,407.9821,1193.733,0.02836837,0.008366941,0.1899745,0.1656818,40,2.54579712523236,2.232232
5545.259,132.1303,1691.322,0.04261358,0.0464922,0.9357295,0.4993616,40,2.05421087509053,1.898596
6726.645,359.5629,549.1491,0.03603917,0.02388751,0.3507742,0.684426,40,2.79063595185863,2.582554
7939.649,164.4334,565.7904,0.0361299,0.04071086,0.2581659,0.4574138,40,2.67242867993161,2.395053
8824.265,450.3706,432.7516,0.01089259,0.03523621,0.5772585,0.616239,40,2.52989070129795,2.334316
8318.108,139.406,291.807,0.04509879,0.04482598,0.9619482,0.367914,40,1.79139186324877,1.624118
5722.186,299.5061,1106.622,0.003665835,-0.04023655,0.7013715,0.3868843,40,2.34694493156281,2.144314
5804.363,467.9331,1611.761,0.04676983,-0.02549782,0.01713839,0.7844108,40,3.21840085415071,2.998226
9180.355,114.0149,1020.145,0.04623236,-0.02621156,0.2710318,0.392728,40,2.67079140220194,2.427765
5641.385,176.3581,397.5527,0.01713511,-0.02099659,0.5345639,0.3384217,40,2.4292052758918,2.191583
9141.641,462.5825,1923.945,0.04697186,-0.0138651,0.9834419,0.307667,40,1.74967046465064,1.597438
7970.34,486.3172,707.0529,0.0351702,0.002884024,0.03341008,0.7918221,40,3.09772503236293,2.896828
8934.037,373.4125,1937.33,0.04998536,0.009476921,0.7117763,0.7468544,40,2.54617078387903,2.409875
5626.924,187.5173,950.3751,0.02508873,0.0001315992,0.56904,0.5116224,40,2.53589124057388,2.346984
7830.683,257.1533,1430.15,0.02325442,0.04366429,0.5854529,0.4690808,40,2.45041232561804,2.215439
8884.556,246.824,465.7442,0.04771098,-0.02303537,0.1074645,0.8591783,40,3.10123218293312,2.909186
9161.088,355.8737,590.53,0.009435043,0.02473453,0.5501567,0.9419467,30,2.93256829156366,2.603891
8849.34,235.2344,923.3252,0.006386182,0.02403428,0.2852302,0.5681932,30,2.98579361880688,2.397256
7134.024,109.6239,620.8804,0.04760305,0.009776958,0.2170744,0.6092352,30,3.06830727774298,2.479375
7034.319,426.9198,1153.051,0.05016253,0.02222517,0.7776795,0.687249,30,2.55487214740692,2.189377
8025.203,396.38,1811.919,0.008976724,-0.002873008,0.3682038,0.4476777,30,2.91299612708507,2.289007
9355.87,338.9863,1665.396,0.04960135,0.01780081,0.127967,0.7614669,30,3.23715112081001,2.707401
6167.37,376.3743,505.4583,0.03280812,0.03108345,0.9702995,0.8103283,30,2.20202873722811,2.035196
5629.004,218.4658,228.5889,0.02926163,-0.01020361,0.5265839,0.2649096,30,2.61823134301055,1.950169
7887.524,311.601,865.3031,0.03737305,0.05164382,0.9203347,0.6527528,30,2.23139701240757,1.945039
8105.465,447.446,1948.506,0.001079925,0.02776575,0.5159972,0.3769956,30,2.71129091384316,2.093774
7853.002,119.3817,1854.226,0.01546102,0.01450497,0.1173917,0.8880107,30,3.35710986649521,2.877038
7309.872,155.2022,808.0549,0.00984335,-0.04981864,0.7234065,0.2572335,30,2.43406913033947,1.805445
6503.382,410.4845,1831.024,0.026226,-0.03446821,0.1520589,0.2236437,30,3.04314293996534,2.214159
7725.437,405.0683,655.5352,0.04166612,-0.04928007,0.8663869,0.1034153,30,2.12951364432011,1.489218
6345.777,284.0121,1599.354,0.008295566,-0.01833652,0.9588599,0.7279781,30,2.24966003058219,2.03188
5539.578,182.2308,1394.346,0.00398554,0.02919991,0.4426359,0.6199329,30,2.95286049440094,2.429291
5505.588,176.2518,1756.487,0.01647079,-0.0253767,0.0486506,0.2480381,30,3.14642500670807,2.322937
8949.142,489.3729,916.8545,0.03555896,-0.04759317,0.4201742,0.4700573,30,2.87216877946329,2.23908
6072.331,135.7066,1535.414,0.05059799,0.01526645,0.382379,0.558623,30,2.97127729187967,2.397139
8921.448,236.5771,273.0696,0.05100665,0.005816528,0.3780271,0.1875353,30,2.6954868942878,1.943511
7204.613,391.7161,601.808,0.003351901,0.04563954,0.1769191,0.6216684,30,3.0865891165112,2.492826
5635.04,256.9479,1727.596,0.04328168,0.03260126,0.7639461,0.4527828,30,2.49683204333464,2.008417
6483.343,275.2101,1613.941,0.01271425,0.02162343,0.197567,0.05572604,30,2.84722007198223,1.966925
9396.67,380.5926,444.0478,0.02968907,0.04078138,0.6123519,0.380073,30,2.54971284319016,1.962487
8100.014,346.5195,682.1227,0.02512936,-0.01121832,0.8184053,0.849187,30,2.55952442695019,2.299553
8149.279,131.5828,944.5772,0.03429996,-0.02596284,0.6968573,0.5726935,30,2.59981329087057,2.13795
6584.808,144.7976,885.0123,0.04067275,-0.04207779,0.8478942,0.4852184,30,2.36020150883859,1.915849
8923.467,413.2766,1053.503,0.0058668,0.05147184,0.6598264,0.07549971,30,2.33996145562989,1.610285
8176.944,483.5828,1997.806,0.003580334,0.02039438,0.5316658,0.968462,30,3.03514922361451,2.708754
8781.507,423.3224,1469.804,0.0319206,-0.008751881,0.8711739,0.09697727,30,2.08501010553898,1.47696
6307.413,162.0099,1171.202,0.008451709,-0.05152881,0.2457761,0.6364062,30,3.15318605149723,2.555478
8739.437,331.1567,1282.785,0.00551203,-0.008196469,0.906781,0.3990801,30,2.16611124116048,1.740795
8673.672,278.9621,1350.429,0.01830407,-0.01885651,0.4640597,0.938022,30,3.067288072387,2.702069
8940.795,349.5164,1014.977,0.04841995,0.003785731,0.9334731,0.987607,30,2.40404152388669,2.275549
8223.674,123.8708,696.7883,0.05151139,0.01378087,0.4898903,0.19977,30,2.60521658919757,1.884145
7417.408,318.9127,1933.097,0.01859984,-0.01885222,0.09557927,0.973721,30,3.45459245113798,2.999851
5847.108,470.0151,1443.456,0.01233846,0.03816861,0.3052605,0.5182266,30,3.00738392476266,2.394828
7749.989,417.253,1326.2,0.02222967,0.04822535,0.8022612,0.04180663,30,2.152162703497,1.462397
5683.509,104.5239,997.4633,0.01684193,-0.002048505,0.6767968,0.7879844,30,2.77192954884808,2.426384
6041.869,102.049,523.9763,0.04573952,-0.003113142,0.5873119,0.5398703,30,2.70349128736623,2.201965
9129.269,457.1341,308.008,0.005402931,0.02802438,0.9855851,0.7988353,30,2.09821392187066,1.947534
8758.385,143.8808,390.4537,0.01186713,-0.004769747,0.0001761569,0.2740825,30,3.05946431022633,2.24804
5891.21,327.1517,1897.359,0.02299621,0.01076975,0.06354408,0.8513697,30,3.44319339888354,2.929312
6066.779,226.6812,1531.618,0.01011422,0.02904208,0.4564398,0.4315055,30,2.82532153229287,2.21645
7807.973,157.9443,1507.493,0.005855348,-0.004788731,0.598147,0.892374,30,2.91679271209177,2.58406
6660.49,213.9807,1038.697,0.00601283,-0.01041041,0.6212123,0.870641,30,2.87436063282979,2.538259
6395.886,432.0209,252.2388,0.03413595,-0.001880625,0.9615438,0.06716964,30,1.84555208239139,1.28802
7669.867,333.7898,1567.834,0.04445263,0.004926512,0.1865558,0.5261979,30,3.08638648366462,2.463463
9114.369,167.5763,1256.653,0.05033589,0.01611975,0.3994932,0.156713,30,2.6781391523493,1.918481
5587.152,297.6836,1493.73,0.04257805,-0.03834708,0.7009536,0.3694037,30,2.57607766417258,2.003881
5929.934,374.6921,1776.355,0.001587545,0.04714638,0.8567426,0.3461671,30,2.27925822082003,1.783646
6419.361,221.2984,1678.928,0.01479465,-0.04482629,0.02636459,0.9287573,30,3.50310558741601,3.005479
8052.938,361.8653,1747.897,0.0442036,0.03422915,0.4149956,0.8292459,30,3.04956750542262,2.609168
7419.984,248.0921,1377.662,0.005999184,0.04940341,0.6441879,0.2311785,30,2.46338739327826,1.809742
6113.142,492.6354,1975.108,0.01647525,-0.01370615,0.2376029,0.4177403,30,3.06618122719227,2.392014
6032.035,281.8804,1236.808,0.01839032,-0.03409858,0.3520235,0.1758275,30,2.82644520018654,2.037521
5679.255,393.9184,1367.933,0.04574072,0.04936754,0.3257681,0.08484433,30,2.7382495284219,1.894905
7141.143,304.7348,816.1186,0.02724581,0.0435264,0.5455565,0.3162567,30,2.60659671367046,1.963054
7364.581,189.6676,1865.56,0.01182427,-0.03288831,0.8235918,0.7176596,30,2.54265002169252,2.213256
5780.976,401.3692,1416.158,0.04635294,0.04574896,0.3163918,0.1453248,30,2.78436732245397,1.979561
9257.095,240.2554,1784.885,0.006176391,-0.02559601,0.567619,0.83467,30,2.91841476386066,2.532284
8442.355,112.12,728.6844,0.03591079,-0.003065612,0.6344748,0.7035857,30,2.72560483026026,2.31836
9386.596,439.6939,326.7665,0.01302445,0.04836316,0.4058657,0.01228901,30,2.56280532477109,1.703879
8823.651,195.6777,419.7993,0.05149805,-0.04756236,0.2231989,0.5497456,30,3.06343265473893,2.411888
5756.283,320.8743,296.1662,0.03063078,0.01132701,0.05978858,0.3542635,30,3.0486261532715,2.301705
6132.297,230.1552,1224.101,0.02282828,-0.01095185,0.7360588,0.215378,30,2.39779940446915,1.781408
8757.948,478.825,1568.789,0.01021276,-0.01139318,0.60967,0.8677785,30,2.8809990097173,2.539142
8360.009,186.9526,637.6833,0.02330137,0.03661783,0.2715152,0.505542,30,2.95018535089732,2.323484
8882.915,369.2014,351.3022,0.04956499,0.003241144,0.1064694,0.4601925,30,3.06286833933452,2.382849
5778.999,487.4107,1082.264,0.02041057,0.03919783,0.2068066,0.337077,30,2.96645616007111,2.23065
7128.132,440.7915,1632.914,0.001997371,0.009466637,0.1639344,0.7761631,30,3.26761828272657,2.752977
7209.805,139.4788,876.0752,0.04954897,-0.02533986,0.9413051,0.740718,30,2.25713617560013,2.027796
7251.348,474.9846,775.4707,0.04260808,-0.003502267,0.03785776,0.02675658,30,2.92564603924306,1.994133
5622.982,264.5567,460.5278,0.01382173,0.04352218,0.7896437,0.03318099,30,2.15903689399297,1.458325
6443.502,342.1342,369.8857,0.0228585,0.01775587,0.3457468,0.6633627,30,2.98122225611903,2.455574
6959.972,430.4095,207.5419,0.0004908467,0.02023603,0.6853878,0.423458,30,2.5010390827372,1.965476
8968.248,252.4799,402.6955,0.0434832,-0.02293295,0.4942128,0.006446133,30,2.52574224200871,1.697344
5868.237,174.2267,1313.09,0.005733184,0.04025274,0.7966328,0.5812304,30,2.48464389891142,2.082877
6140.218,261.8198,1079.236,0.01187828,0.009870223,0.759375,0.49382,30,2.49183571740676,2.03236
8578.464,496.5013,1696.576,0.04497175,-0.01185434,0.8922079,0.2037721,30,2.11707524541419,1.570102
9247.587,268.8162,558.2052,0.03517205,0.04673529,0.883912,0.1369616,30,2.02565509976625,1.438618
8720.38,170.378,988.461,0.0143194,-0.0179991,0.4332231,0.698955,30,2.95198320643358,2.468666
8144.458,385.2313,1911.454,0.003872491,0.03514868,0.9141162,0.1123592,30,2.00172209828751,1.417521
8611.118,197.8878,842.5981,0.01782406,-0.02111189,0.9955629,0.5914782,30,1.94976522020809,1.713359
9320.199,303.9582,1268.892,0.02089325,0.04147861,0.5041529,0.9144681,30,2.97186662245022,2.615725
8020.363,460.5287,480.0969,0.03732253,-0.03850029,0.2555277,0.644277,30,3.08259600024316,2.498027
6846.624,466.0356,265.4052,0.02904008,0.0214531,0.8389015,0.9932864,30,2.58548311459578,2.396299
9265.26,211.7597,1432.271,0.03206487,-0.03750981,0.7126743,0.7365918,30,2.67888189015234,2.29526
6436.615,452.2136,567.3872,0.04582342,0.004494289,0.2978574,0.2952055,30,2.84590763625733,2.123801
9432.946,244.2132,780.3706,0.008245011,-0.02862742,0.2661643,0.2853666,30,2.88949024561889,2.140376
5795.232,294.587,1175.165,0.01213529,0.04559335,0.4706659,0.9006587,30,3.05465929101732,2.674436
8956.622,203.0574,1193.9,0.04481807,-0.02279177,0.332843,0.1273224,30,2.75999843359158,1.944142
8333.195,449.6755,1653.705,0.04696346,0.03625406,0.1408098,0.6721027,30,3.17872231285052,2.594094
5577.451,314.7341,960.9791,0.002622031,-0.02705319,0.0157994,0.305804,30,3.14893765677499,2.344584
6864.294,206.7119,1100.71,0.01233199,-0.03402366,0.1314252,0.1694761,30,2.98410309866572,2.126794
5559.702,288.2094,1128.479,0.0385322,0.007968396,0.07425508,0.3221227,30,3.08951906028508,2.329147
6449.816,366.0336,751.0194,0.03439564,0.02465406,0.08296467,0.7575769,30,3.26710753272404,2.720159
8484.023,126.6287,527.6473,0.005693383,-0.01142361,0.7439924,0.4079485,30,2.4319560117746,1.918824
7119.444,150.0572,1886.229,0.04726158,0.006145117,0.5708041,0.803554,30,2.91628537651425,2.536273
7364.496,357.8928,709.1053,0.008323913,0.04187398,0.6695254,0.958615,30,2.81568009143159,2.540857
6888.703,135.667,1385.319,0.0004719943,-0.0429424,0.98661,0.9786726,20,2.25100127338915,2.170552
9495.264,185.6175,1512.033,0.005292039,0.04593836,0.9035798,0.2578492,20,2.2470726504602,1.56885
9275.277,361.2533,1985.009,0.02744851,0.03367761,0.05076412,0.6805761,20,3.46343676703103,2.675056
6634.279,250.8278,1774.505,0.006988067,-0.02464744,0.519006,0.4893657,20,3.01661509496913,2.226847
9189.841,376.5441,627.4094,0.0033071,0.04662325,0.383688,0.9887585,20,3.23423203706164,2.767522
7853.12,177.7728,701.8204,0.0203265,0.02527806,0.5851919,0.3652047,20,2.8028254007882,1.99427
5929.233,286.7144,1759.804,0.05041853,0.04067997,0.177273,0.0939068,20,3.19070794689404,2.037169
7090.563,437.2523,603.9253,0.03367987,0.02805539,0.03074064,0.4798852,20,3.38090310620143,2.442904
9297.347,265.9849,274.6402,0.04990733,-0.01303425,0.2844013,0.8511283,20,3.28342565514005,2.661211
8360.249,229.6858,981.2838,0.03344103,0.008219922,0.958791,0.1077374,20,2.0478496593301,1.302407
5755.61,212.7224,1457.666,0.01614049,-0.03479347,0.9198391,0.3154491,20,2.31740844662251,1.645743
5905.415,153.9829,1261.956,0.01292214,0.002257326,0.5999021,0.5514685,20,2.92216308020286,2.248256
7403.618,364.7806,1345.285,0.04669483,-0.02538421,0.4290234,0.6496295,20,3.14157913800291,2.412849
6454.557,219.7086,591.8481,0.04605473,0.01333076,0.2595141,0.1107518,20,3.07425220003427,1.935028
5558.48,338.2415,1861.615,0.01991834,-0.01933468,0.3082289,0.3841188,20,3.24819650343779,2.296128
6167.421,447.9652,557.1209,0.02381985,0.01710706,0.72517,0.9377241,20,2.85057261066774,2.497009
9242.757,119.0183,822.8716,0.03495846,-0.02216758,0.8899536,0.2170733,20,2.28518878409811,1.522639
6556.82,434.3043,955.2642,0.0431806,-0.04001363,0.07229059,0.7413401,20,3.5001240337631,2.696625
6507.48,298.0477,1568.691,0.01689293,0.03248456,0.19606,0.5608158,20,3.32787281912952,2.501589
5528.191,359.0329,1853.313,0.01674328,0.01010634,0.5034957,0.7703477,20,3.1723686590733,2.609348
7644.909,278.9731,1711.572,0.02661881,-0.03069459,0.5773212,0.1589762,20,2.81023949217162,1.791396
9004.634,236.5321,1928.841,0.03982561,-0.005371708,0.0925112,0.7697019,20,3.49324443558355,2.739394
7956.166,411.562,318.3603,0.01668084,-0.01820292,0.112348,0.4085742,20,3.30485705918205,2.292125
7043.984,380.7745,1819.476,0.03070907,0.0463232,0.1512611,0.6549127,20,3.387766996306,2.622914
6276.42,390.4975,676.1732,0.0005680806,-0.04471237,0.8067887,0.3595038,20,2.54332455565951,1.787573
6320.803,137.6484,807.8157,0.02353247,0.0009009984,0.6525148,0.01173522,20,2.63593435180196,1.570735
6002.443,384.4046,740.6825,0.02660725,-0.03602938,0.6403611,0.2443941,20,2.75279333160366,1.821997
6211.978,331.5131,253.8805,0.04227461,-0.02105227,0.7456496,0.6783675,20,2.70652611415141,2.170573
7012.523,416.0724,265.6368,0.03157246,-0.01007589,0.9635705,0.7377958,20,2.25580151806022,1.959828
6644.955,158.7724,1912.006,0.02648498,-0.02941758,0.945734,0.5122773,20,2.29421536340471,1.809626
7226.138,401.7086,1226.688,0.01293951,-0.01364593,0.2139976,0.07836911,20,3.14446524727538,1.936334
8960.666,448.9054,650.4196,0.04268441,0.01079027,0.1860438,0.1758344,20,3.1470826977742,2.025881
8855.08,325.4663,1530.821,0.03434966,0.01345766,0.3117882,0.6277816,20,3.21158492571692,2.468254
5758.429,373.2905,880.3191,0.01434856,-0.02816162,0.8406078,0.1686819,20,2.42683515515064,1.571661
5920.558,334.8103,739.3773,0.03640601,-0.01046607,0.7796895,0.3917521,20,2.59014244034683,1.870186
6663.916,345.1172,219.4179,0.03644406,0.02445843,0.1467099,0.2385754,20,3.18340552638092,2.105319
7125.224,220.969,1073.541,0.0001495233,0.01078665,0.04541063,0.3040714,20,3.34044167893365,2.26619
8466.68,441.5074,363.8984,0.0520321,0.0503041,0.8168041,0.03939453,20,2.32941642579089,1.424967
7074.86,131.351,499.9093,0.03953064,0.003315976,0.2099552,0.6961964,20,3.31804202956162,2.569105
7117.209,316.1383,1124.885,0.01974181,-0.01335257,0.08431556,0.9590415,20,3.57073314867627,2.943101
5980.905,406.0971,1493.897,0.03474218,-0.03982038,0.9721781,0.2976656,20,2.15815246043446,1.524842
8252.837,394.2279,782.6144,0.0390451,0.0156668,0.7625126,0.4175992,20,2.58513470390697,1.901845
8939.895,164.107,574.3049,0.01834507,-0.03244159,0.4564793,0.338269,20,2.9722390719707,2.022281
6188.428,283.1313,834.8902,0.02169474,0.00309546,0.4727747,0.8881899,20,3.17335479525246,2.651946
7288.213,202.7822,1408.107,0.002583922,-0.04875877,0.01996933,0.04654871,20,3.33905032379209,1.978395
9421.447,424.7887,1587.32,0.0004879796,-0.02713026,0.8372949,0.286514,20,2.44261318589667,1.681544
8990.931,125.1154,992.0785,0.04218325,0.02073103,0.164147,0.7826625,20,3.38462202216798,2.687075
5914.388,113.1442,1689.743,0.002437689,0.03662789,0.4428792,0.5813307,20,3.11901683317108,2.405622
9102.268,224.7342,1618.407,0.04522678,0.03322784,0.1286346,0.8274687,20,3.43695846432414,2.772462
7103.609,245.4919,451.1947,0.0362425,0.03910353,0.9356797,0.9167565,20,2.38565388028072,2.192207
6833.443,198.093,1215.314,0.04884166,0.01775382,0.2366372,0.8944437,20,3.40663291632928,2.793526
8612.966,311.7484,923.3033,0.02034772,-0.004940494,0.4863918,0.4635801,20,2.97887788653494,2.168856
7697.374,234.8344,1637.022,0.003297328,-0.0334122,0.9265882,0.548641,20,2.34551513136381,1.851391
5931.743,194.9117,1903.386,0.004204475,0.03310556,0.3512259,0.3289432,20,3.12686705271652,2.19786
6600.765,261.5234,514.6986,0.02802965,0.003374898,0.5423379,0.8174559,20,3.03124296892406,2.500823
7245.978,497.9748,967.6111,0.02704562,0.008883898,0.06637969,0.02372253,20,3.21499570404371,1.947827
7036.29,181.8997,1144.819,0.03106009,0.01057679,0.666217,0.7545219,20,2.88197508530086,2.36826
7792.491,256.2611,1955.285,0.009796832,0.03172885,0.4312689,0.3402241,20,3.01276715837705,2.1139
7946.91,253.9463,455.1199,0.006580102,-0.0258678,0.704652,0.6180264,20,2.75529892340568,2.137379
8392.661,172.8083,527.3803,0.03298103,-0.0521593,0.262291,0.6086652,20,3.25284222932577,2.407047
5527.306,103.3523,649.2113,0.01345694,0.02410255,0.3624552,0.05341132,20,2.96349182320215,1.829841
6907.871,485.4011,716.5583,0.02258995,0.01203245,0.8520872,0.2030235,20,2.37078641824352,1.589238
7452.243,467.2971,1792.597,0.03665488,0.02109791,0.7329517,0.9063227,20,2.85719893072213,2.4974
6912.357,320.045,297.865,0.03828049,-0.03098989,0.8759656,0.1834372,20,2.32044038934465,1.502639
7006.529,207.393,1875.875,0.0185671,-0.03102233,0.9928591,0.1224678,20,1.94870910804853,1.244194
8724.222,289.3462,774.9808,0.02401628,0.02802524,0.6733246,0.006965859,20,2.57112014511849,1.538245
7064.662,189.3442,916.4061,0.009471891,0.02658116,0.2277913,0.8047392,20,3.34981740132238,2.699278
7865.711,163.656,1173.182,0.02706557,-0.03152963,0.8976754,0.4307474,20,2.36661540609792,1.755255
8742.335,145.9485,339.4137,0.01694062,-0.00704943,0.7111078,0.6621396,20,2.73719323244106,2.181228
6695.064,151.3891,1463.026,0.04084434,0.04418889,0.3413996,0.454455,20,3.13164571217971,2.28821
7962.948,491.8793,402.7308,0.0514579,-0.03957014,0.5584872,0.5315247,20,2.91665051711269,2.155423
5596.378,430.1195,1653.202,0.0135677,-0.03506197,0.8295178,0.7001191,20,2.67856135947591,2.211544
7444.615,468.0436,1032.395,0.02636506,0.02888401,0.0250475,0.08183595,20,3.25931201197285,2.034488
7349.983,301.8857,1325.076,0.0516211,-0.035664,9.890647e-06,0.5988487,20,3.50784892415112,2.573405
8624.656,480.7058,1714.179,0.04241119,-0.02706075,0.3366015,0.1458506,20,3.06077827294674,1.922283
7644.046,122.239,1312.178,0.05198117,0.05088084,0.6124008,0.8300641,20,2.9455070973247,2.486271
6561.088,456.8685,1107.259,0.0227389,-0.0223103,0.5267829,0.9683335,20,3.15680027485183,2.703533
6824.261,274.6756,1834.067,0.02538624,-0.001046748,0.4659929,0.8669766,20,3.20669198917304,2.683057
5971.364,208.3118,421.1333,0.005774291,0.02735358,0.7590988,0.2661976,20,2.53601625319358,1.7433
7524.954,492.1937,1733.716,0.005789166,0.01409003,0.499467,0.8788008,20,3.15161087313396,2.654136
5726.414,368.7883,1190.964,0.020571,0.006308623,0.7827605,0.1941017,20,2.52830645628402,1.693856
8547.903,169.5678,1969.361,0.02849707,-0.04609239,0.2753165,0.847163,20,3.37098390389041,2.703388
8631.653,306.6047,1159.123,0.01935501,-0.04783362,0.868798,0.711949,20,2.52101526813904,2.079991
7202.758,454.6837,1551.903,0.02447467,0.01173423,0.4138826,0.06628274,20,2.94021779462846,1.827851
8449.57,354.8209,1545.055,0.03386171,0.008715613,0.6006808,0.4986336,20,2.85837787904894,2.145135
7862.257,242.927,1352.408,0.04327515,0.05048477,0.3742767,0.6302058,20,3.13365515598614,2.426666
9415.778,141.3645,1093.197,0.02135614,0.0001883454,0.5329261,0.5051027,20,2.94078595254971,2.180494
7003.264,415.4836,1285.565,0.006115223,0.04990559,0.6850183,0.1370417,20,2.60720662154369,1.700852
5595.695,473.5031,385.9071,0.04829399,-0.01363199,0.6934997,0.4264972,20,2.71527471416738,1.977944
7127.223,463.1291,1397.03,0.02091662,-0.04073145,0.3961882,0.221161,20,3.04809085654746,1.974917
6292.636,343.9775,485.7867,0.02386438,-0.02266655,0.6242207,0.575077,20,2.86255266264878,2.175958
8898.845,269.7438,211.7634,0.04154254,0.02512858,0.4054862,0.9992409,20,3.21581700259947,2.739174
6360.787,420.1327,885.1098,0.03598735,0.03508575,0.3244994,0.9292609,20,3.31593468387206,2.777531
6513.665,351.5605,1055.207,0.006970668,0.03030176,0.135376,0.7920241,20,3.44442404526055,2.753595
7063.306,398.0576,857.3424,0.05147938,-0.01761499,0.7999392,0.5219947,20,2.5873290159797,1.982693
9163.289,476.2236,1661.567,0.01745101,0.002965188,0.6321109,0.9410919,20,2.99458319861728,2.595709
9291.992,314.9654,1433.622,0.04000313,0.005270888,0.5601755,0.7247675,20,2.98452029192453,2.397273
9363.446,293.8901,346.681,0.008256617,0.03013449,0.2491875,0.2702279,20,3.10130182589409,2.08469
8916.504,105.5535,1027.655,0.01646126,0.03857659,0.1081241,0.3749377,20,3.27126606649419,2.298636
6974.728,108.9652,1270.619,0.02303798,-0.0005926167,0.2945076,0.4499877,20,3.19399965618069,2.308253
9308.638,291.9732,1150.988,0.01478332,0.01478851,0.7531836,0.2126778,10,2.69173688023206,1.843559
8420.123,350.1628,756.9832,0.001214466,-0.04371742,0.8133492,0.2367089,10,2.5962598206692,1.715625
9047.313,420.1282,1487.449,0.0423855,-0.007932383,0.7079259,0.203212,10,2.77750222094514,1.861099
5762.802,244.2949,1192.8,0.001637089,0.001931991,0.8831051,0.8979983,10,2.6533197989819,2.429282
6996.139,238.9457,802.197,0.03633743,0.02629601,0.1571341,0.4818232,10,3.45376487886304,2.580225
6323.133,270.8217,253.6623,0.003490521,-0.03648499,0.05536564,0.1306768,10,3.47002730504113,2.160426
6902.891,185.4861,652.4549,0.01543316,0.02623839,0.7254464,0.826764,10,2.86535859810502,2.465594
9160.917,145.2938,1529.825,0.02783881,-0.04116979,0.3055326,0.01412349,10,3.24433743553386,1.910655
6253.805,310.1797,1896.038,0.05010592,-0.04148795,0.6833182,0.7787182,10,3.01081362067573,2.508258
8555.396,138.9359,1085.393,0.006441414,-0.02667347,0.8230621,0.3056049,10,2.58995126933583,1.802394
9092.143,373.5619,734.7819,0.03526978,-0.01281981,0.02448773,0.6233555,10,3.59952740790052,2.715455
7496.465,430.5537,1264.503,0.01176945,0.01840956,0.9598069,0.8669096,10,2.37709543162285,2.206052
5815.916,497.8517,418.1655,0.009803538,0.006347506,0.500422,0.3912429,10,3.08188247614864,2.239116
7418.439,315.6484,1162.199,0.0482868,0.02413848,0.7465828,0.05086365,10,2.66828663349408,1.707619
7332.55,193.2856,1361.473,0.00884336,0.006462346,0.3396337,0.06880885,10,3.21997968737257,2.066608
6147.781,122.277,688.5195,0.05226646,-0.04354079,0.08556864,0.2967327,10,3.49421279688586,2.314572
9431.886,280.3076,1003.73,0.01465624,0.02709312,0.2132808,0.007754147,10,3.2876338087964,2.079519
7639.958,241.6619,548.4658,0.01811431,-0.02364138,0.6026846,0.7284964,10,3.02601510101048,2.424065
7178.898,440.6919,1509.47,0.04877134,0.01042844,0.3928254,0.4632741,10,3.25505714415832,2.427595
8984.95,134.5834,1287.439,0.006346104,-0.04711054,0.06484652,0.7504767,10,3.62158164056035,2.774809
6719.305,249.3263,1924.599,0.02087139,0.0503495,0.1630225,0.5197625,10,3.49531812331397,2.736414
7091.28,361.7758,452.8034,0.03916887,-0.03123361,0.9901109,0.0364486,10,2.03767451733014,1.218594
9407.486,468.39,1685.801,0.01323242,-0.01169735,0.2447873,0.8306927,10,3.47453525615766,2.832562
7155.296,130.8771,1584.974,0.01512847,-0.04937683,0.001875295,0.5220207,10,3.64694338668745,2.621471
5582.679,395.8557,1065.216,0.03010945,-0.02606099,0.3610731,0.5913135,10,3.33582781520617,2.546631
7610.932,294.5129,264.061,0.01361653,-0.04422393,0.8393574,0.3614433,10,2.5554828629735,1.795959
7785.203,124.0152,1621.242,0.03014296,-0.02241711,0.04177674,0.9162687,10,3.71055977699515,3.034975
6129.235,352.8787,630.8791,0.009598659,-0.03778429,0.1962533,0.9912477,10,3.56543390878659,2.960274
9172.017,495.1517,685.6714,0.01024797,0.02784561,0.6695114,0.1917722,10,2.79813462214761,1.911277
8382.018,449.5931,1225.626,0.04330439,0.05206709,0.6702716,0.09368008,10,2.77158643679217,1.853015
5870.22,159.4629,642.7567,0.00453106,0.04158642,0.9880919,0.4768512,10,2.12096635797272,1.723155
7112.929,154.7865,883.1675,0.02196515,0.0006574202,0.8010567,0.3585401,10,2.64924359867452,1.929315
8945.819,205.3696,380.0294,0.006238857,0.02215291,0.4637977,0.1682984,10,3.05323285522212,2.042673
8278.905,387.9345,213.0478,0.02532497,0.005649751,0.4738266,0.786923,10,3.18511849756544,2.599324
8749.193,221.723,1833.745,0.03547812,-0.02810522,0.8591487,0.4243527,10,2.55811672769937,1.897668
5576.097,100.1351,1022.997,0.03509508,-0.0369893,0.5219626,0.5875064,10,3.14436821383299,2.396762
7028.72,338.7407,824.6433,0.02543727,-0.0002900998,0.03377657,0.3464144,10,3.5528428922195,2.495582
5545.217,405.4767,1945.419,0.02966301,0.007179594,0.928068,0.858472,10,2.57581386715185,2.413118
9373.011,212.035,1697.33,0.01490174,0.02420241,0.5574742,0.9544382,10,3.15906415571221,2.759183
9156.906,445.7992,786.6289,0.02843547,0.03142356,0.4072937,0.5405739,10,3.19082577470656,2.455836
7768.418,142.1626,955.1492,0.04937768,0.04544437,0.9119912,0.2769711,10,2.34894160800365,1.704628
7409.976,181.2322,495.7788,0.03020851,-0.05207775,0.07359695,0.6091286,10,3.55288804117999,2.593672
6422.393,112.8587,1386.39,0.04150449,0.01294896,0.7765596,0.4127814,10,2.73001423903135,2.054927
8206.64,321.4772,320.2595,0.02826732,0.02935544,0.3814626,0.6753103,10,3.23857639423662,2.57032
5934.772,388.8447,1243.895,0.006237071,0.02426194,0.8499918,0.8433452,10,2.70706411221825,2.432418
9386.776,330.7548,1754.06,0.02462404,0.005442614,0.1292158,0.3788584,10,3.47546766033441,2.492599
8548.848,279.205,1313.767,0.02616943,0.007172641,0.8926924,0.3176039,10,2.44465957383489,1.774438
6610.272,316.8117,1947.633,0.02798671,0.05035658,0.260093,0.6991136,10,3.4553630614818,2.856124
8264.923,307.1833,1861.798,0.03829173,-0.0267159,0.4882111,0.9765391,10,3.27699944857178,2.817997
9499.01,439.1022,594.5984,0.04815981,0.01668601,0.01762168,0.8875138,10,3.65303258204755,2.98047
6614.19,191.5623,1563.382,0.01142691,-0.0183569,0.2209625,0.2680739,10,3.41099945968777,2.317676
6580.205,345.6597,1181.172,0.04215309,0.01379904,0.3773709,0.04616663,10,3.1686280257049,2.02665
8902.857,199.9824,1403.034,0.0406238,0.05025631,0.2920633,0.6393554,10,3.3406184373241,2.659063
7933.806,376.8686,1783.592,0.0386341,0.03764291,0.5702712,0.7117897,10,3.08649706778915,2.569859
8723.09,224.6626,329.8105,0.03365012,0.009699992,0.1853962,0.3320812,10,3.37133051998265,2.361013
5811.389,217.418,1729.277,0.04932554,0.05151425,0.592725,0.9806641,10,3.16851406449017,2.913323
5991.212,258.7622,884.272,0.0009133128,-0.02863619,0.6466476,0.5301656,10,2.96104695836432,2.233812
7866.36,208.8627,541.6473,0.02084354,-0.04769156,0.4191759,0.4599926,10,3.1860564173342,2.253918
7143.803,398.0701,509.8323,0.008282281,0.03578727,0.2387586,0.5662587,10,3.37053532572578,2.597814
5713.977,490.552,928.3533,0.0284856,-0.04883945,0.4258928,0.5040941,10,3.23723250669809,2.349619
6358.319,464.7786,1248.974,0.03406048,0.04190183,0.1713614,0.1167149,10,3.36783681326673,2.267525
5643.918,303.3666,1412.045,0.004280756,0.02989091,0.3576431,0.3247986,10,3.2834946342924,2.386701
7955.079,453.5333,224.5662,0.02757095,0.03562813,0.5376749,0.7418484,10,3.07188935179906,2.520086
7112.948,105.6714,1808.96,0.01530605,-0.0350037,0.2771725,0.5746088,10,3.42193011037011,2.569679
5907.725,370.4361,1659.779,0.003224439,-0.04434262,0.4919314,0.5563953,10,3.2106757907004,2.429606
8148.24,264.3227,363.1845,0.03066665,-0.03098035,0.6908054,0.2548986,10,2.79358211760481,1.862438
7497.701,412.6949,1994.467,0.01565843,0.01022132,0.7902753,0.9252629,10,2.8465430841909,2.581115
8794.821,427.0408,483.5637,0.03013089,-0.04906516,0.3125043,0.9621063,10,3.4148163070358,2.804303
9281.244,462.9221,1969.284,0.02097124,0.03482878,0.1149272,0.1761713,10,3.42919040963131,2.342607
6249.784,262.5978,1737.196,0.04085585,-0.04384795,0.5193092,0.02315245,10,3.05451254951388,1.820602
9324.055,274.775,1317.774,0.01322692,0.01713564,0.734099,0.2293338,10,2.72251931606451,1.884819
5726.515,254.8534,1100.274,0.02909293,-0.03681285,0.6152518,0.1888815,10,2.9448842060996,1.914937
6206.718,478.3404,1124.332,0.004979185,0.001485878,0.8668392,0.9068476,10,2.68455162951199,2.444658
7888.798,285.5335,959.3491,0.02447207,0.02382596,0.6343407,0.7371866,10,2.9878610593067,2.474067
9336.272,401.1419,708.4307,0.01526778,-0.01411419,0.9327479,0.9309116,10,2.45332769933347,2.249718
7412.502,324.7693,1882,0.02080281,-0.0009786944,0.4542788,0.2424635,10,3.15572721953946,2.173577
6236.795,366.3085,1032.808,0.01614687,-0.03720093,0.7160608,0.7053946,10,2.90013436240697,2.341567
7299.713,111.1693,301.9499,0.01003921,0.04574115,0.9089143,0.763019,10,2.45252980228374,2.137179
7490.389,458.4405,1343.658,0.04217239,0.00296206,0.09205944,0.4089601,10,3.52982125513103,2.540883
6505.391,149.2969,1425.573,0.006570323,-0.02962603,0.1393576,0.8785889,10,3.63113959324491,2.965782
6191.473,486.4933,1651.166,0.008433317,0.03479689,0.2099522,0.08001418,10,3.371292384532,2.233291
6865.479,162.7289,596.4245,0.03326273,-0.05104904,0.9690492,0.1016454,10,2.14728470029663,1.314246
8053.7,474.7398,837.9658,0.0197616,-0.02035562,0.2857132,0.1448008,10,3.27100397390112,2.096352
7895.53,334.2602,850.3311,0.04565919,-0.03132601,0.433481,0.7986531,10,3.25624358523675,2.625794
8286.588,172.7499,275.3747,0.05146927,0.00603471,0.9795423,0.437066,10,2.13964506992724,1.659658
7059.484,357.0941,979.8403,0.02428453,0.04502774,0.3282611,0.6853254,10,3.32071256142334,2.689938
8007.748,483.9934,565.5523,0.03974782,-0.02998809,0.3406129,0.07547265,10,3.19020627375144,1.96058
7363.972,170.7153,451.9247,0.01392005,-0.01227119,0.6283977,0.9429541,10,3.04442459093566,2.625978
7414.04,433.8292,1840.908,0.04479837,-0.009194876,0.1033836,0.2897481,10,3.52198514809235,2.425849
7960.494,118.2937,760.2612,0.01475627,0.009705499,0.1460523,0.6578905,10,3.50309632883249,2.724406
8145.829,382.3383,408.1825,0.04019099,-0.0157794,0.5454621,0.8118575,10,3.11016395760712,2.547399
7124.033,203.949,1047.464,0.0188205,0.02209297,0.7814701,0.447435,10,2.70581708061044,2.06381
6082.643,417.3416,1446.319,0.03766608,0.01075233,0.5818814,0.4962196,10,3.060539727655,2.364254
9127.472,410.9392,1793.133,0.02071846,-0.01634306,0.4427053,0.6626894,10,3.23461435032001,2.535851
9479.655,299.3911,1466.27,0.03495639,-0.01766302,0.656724,0.1236721,10,2.83825231317077,1.811506
7102.297,234.644,902.7163,0.02423616,-0.04054883,0.2512462,0.8057934,10,3.45513673568056,2.745552
6648.87,343.5851,1626.834,0.01913296,0.01861759,0.8788595,0.152714,10,2.46896300963838,1.67623
6649.234,167.574,1543.87,2.204395e-05,-0.02887252,0.5698944,0.6114695,10,3.10103899180889,2.404553
7614.413,178.4242,360.5896,0.01858331,0.03363575,0.9444963,0.3893876,10,2.27035619848416,1.728822
7701.406,230.5133,1601.671,0.04269118,-0.03680016,0.7618651,0.6483363,10,2.80349019990742,2.238641
6170.151,405.9849,947.5561,0.03380305,0.0513031,0.2053778,0.4665594,0,3.47249837675479,2.787075
9023.995,351.6989,1108.441,0.02808669,-0.02737329,0.1835403,0.9952259,0,3.60113746449476,3.297716
7537.214,483.3888,336.8596,0.05042751,-0.005190497,0.5109097,0.101739,0,3.06003580171777,2.326
7762.032,468.3585,383.4797,0.02189697,0.02044826,0.01667029,0.9801609,0,3.73257969460276,3.35448
7033.258,138.8536,1734.268,0.03579739,-0.001009649,0.1612111,0.7373197,0,3.62232016236989,3.392374
8389.518,162.8097,538.3104,0.04744418,-0.0104492,0.05973902,0.2903412,0,3.55549959184648,2.807744
6474.648,305.4491,620.9269,0.009485922,-0.01398213,0.4295079,0.3416284,0,3.21449097003449,2.60663
8185.094,386.6273,1011.446,0.0163832,0.02257262,0.005189766,0.695867,0,3.69905220411804,3.206907
8718.007,461.6885,1481.128,0.0343459,-0.03837679,0.2129483,0.4156009,0,3.45325910260907,2.749471
9369.264,436.4647,1670.495,0.02647204,0.018193,0.1262111,0.4458023,0,3.55904986908685,2.940691
8861.43,159.5225,1598.06,0.0322579,-0.02383114,0.1069684,0.5272454,0,3.59149620766273,3.002139
6723.762,454.7836,644.169,0.01365967,-0.02703694,0.5491486,0.6541455,0,3.12718597333672,2.724716
6942.382,190.0664,733.2562,0.03799086,0.01848263,0.7980701,0.1502789,0,2.65269228802906,2.022726
8414.429,216.2673,1882.244,0.02990149,-0.04600723,0.6602843,0.9532059,0,3.05486471827362,2.89761
8526.349,490.2502,718.2402,0.03827283,0.0325584,0.7428785,0.6749551,0,2.83373938287379,2.488172
6404.021,431.2793,363.976,0.01436986,0.04149917,0.91901,0.3204916,0,2.39941318381069,1.883168
7415.029,108.1436,1942.427,0.02344859,0.002157705,0.1967493,0.2333449,0,3.49774389292871,2.819266
6610.971,273.7334,1320.715,0.02285779,-0.03362485,0.8044987,0.354513,0,2.69694083758556,2.207175
7997.996,120.8593,1533.877,0.04860078,0.04017636,0.2625812,0.02369607,0,3.33373634483161,2.363576
8322.608,201.0255,1145.686,0.04258286,0.03070039,0.2741253,0.05942303,0,3.31782261774535,2.401464
7196.627,284.7457,1555.744,0.03661007,0.001946131,0.03298113,0.1204601,0,3.60920726216037,2.794752
8471.201,239.5632,1821.143,0.0175851,0.03238402,0.6851866,0.03777084,0,2.83627897522954,2.023672
8327.539,458.4594,816.8429,0.008121264,0.05152357,0.4150252,0.04198712,0,3.14699488766752,2.194763
8014.148,346.373,1301.296,0.03205092,0.003961834,0.9645301,0.2579838,0,2.25736841286972,1.85587
7061.095,435.6971,248.9583,0.002094628,0.00583621,0.8238728,0.01787527,0,2.57977773072784,1.88944
6030.78,155.2116,1509.249,0.01003839,-0.02391861,0.884654,0.8986036,0,2.66286246692681,2.733955
7914.875,262.0056,1069.62,0.008179707,0.008269546,0.6337733,0.4529955,0,2.98048100518229,2.554414
5870.38,496.2664,226.6455,0.04943079,0.004044515,0.7071019,0.6465921,0,2.89421815947334,2.595863
7149.855,355.5702,293.2291,0.03612733,0.04842753,0.302661,0.07926697,0,3.25271638067873,2.298405
8688.867,177.7555,853.6571,0.03913573,0.05126282,0.720243,0.9633812,0,2.92504047471036,2.70443
7438.385,254.5649,572.178,0.004501054,0.04748127,0.6041069,0.7611055,0,3.04813165787397,2.661189
7194.414,279.2568,1277.356,0.005863091,-0.02179012,0.533426,0.2400407,0,3.08855410606003,2.428383
8593.607,302.6793,893.4255,0.03966895,-0.04907615,0.142981,0.5699484,0,3.51533092214622,2.842658
6385.356,181.3305,273.3513,0.004008381,0.01313969,0.8925336,0.7991645,0,2.55345437342225,2.395578
7625.632,102.6152,425.9413,0.02935753,0.04404662,0.326871,0.3685223,0,3.29549179909481,2.544146
6785.561,248.6108,1962.908,0.02933175,-0.0204943,0.4536836,0.8423846,0,3.35122503873433,3.214519
8730.52,484.9081,1841.977,0.0324182,-0.03713154,0.5808414,0.5004554,0,3.06657040642366,2.563139
6613.75,232.0207,1243.773,0.01265406,-0.004339518,0.3419717,0.2721425,0,3.32791562782384,2.717017
9002.713,364.4959,1192.729,0.01963805,0.000884401,0.8526558,0.6200545,0,2.63606188143716,2.438987
5622.971,132.0864,781.0958,0.0514464,-0.02409209,0.7615515,0.5314148,0,2.80025461118774,2.440087
7737.572,369.3941,695.5133,0.03000836,0.008321357,0.9093137,0.284105,0,2.4320845607298,1.976391
9107.352,294.862,582.4399,0.04881246,0.009702099,0.6766756,0.5483514,0,2.90537015508793,2.519237
6896.867,228.1333,1338.07,0.04794466,-0.04456422,0.4357177,0.4088176,0,3.22796351437399,2.595514
6327.134,390.0027,455.7955,0.01991757,-0.04310951,0.1383153,0.6317771,0,3.53706746212769,2.927996
6457.892,392.3486,1366.71,0.005965665,0.004081621,0.5531239,0.8836457,0,3.22542309519019,3.19767
6411.322,297.5697,315.9747,0.04832043,0.03344808,0.9294551,0.8603712,0,2.45859750771842,2.313838
6568.873,403.9866,1052.412,0.04201558,-0.0149653,0.8435624,0.8560336,0,2.72603620711761,2.690271
8342.714,318.3548,1125.533,0.01702453,-0.007358563,0.3389695,0.7814331,0,3.40837213838881,3.139651
9161.592,280.6556,1765.705,0.0308356,-0.01721736,0.07964208,0.972274,0,3.71430712822375,3.482404
7988.578,166.8272,1867.316,0.004617182,0.007589391,0.6246616,0.1978937,0,2.97431675831097,2.367471
6368.915,324.943,1916.344,0.01493751,-0.0398069,0.1557142,0.3196945,0,3.55556451969162,2.803406
8817.193,372.8896,1635.493,0.01092016,0.0003320808,0.7100647,0.9207132,0,2.9812276318497,2.984207
6543.497,118.6723,931.491,0.01673206,0.04474537,0.5793394,0.002348326,0,2.97292205863239,2.056443
5824.094,398.6311,1803.455,0.04338536,-0.03979103,0.5689885,0.1607774,0,3.06716264351006,2.31457
8391.973,220.365,348.0032,0.03449074,-0.008652704,0.8677046,0.7264508,0,2.59062790914728,2.38414
8966.122,476.9068,1166.164,0.01110181,-0.04772805,0.9850376,0.6622165,0,2.20454262299666,2.002908
9166.198,474.1737,1676.737,0.02560569,0.005279209,0.691173,0.7117452,0,2.95151780111216,2.768083
6542.131,106.9423,989.3498,0.01047544,-0.03055764,0.1160708,0.5582733,0,3.58584219894987,3.015469
8991.51,192.9853,212.4033,0.02707606,0.005022302,0.4852026,0.8144459,0,3.20774208201742,2.883625
6503.537,187.6853,1996.516,0.006877225,0.04782897,0.2994693,0.4846075,0,3.43219598072681,2.844955
5796.346,173.3347,470.6187,0.01889978,-0.006230651,0.8335241,0.4262649,0,2.63504895938898,2.269809
5665.523,115.0596,1427.158,0.03621651,0.04357383,0.2237873,0.1191765,0,3.42474754751015,2.511281
6479.27,309.389,546.9504,0.00721797,-0.0155581,0.08535405,0.304599,0,3.55262012539387,2.824148
5556.346,290.1099,1379.692,0.01797549,-0.001986247,0.4987577,0.8712441,0,3.31467759658929,3.333872
5832.695,442.5135,1396.105,0.04160151,-0.02657419,0.7724938,0.5763829,0,2.83080993564056,2.549703
9303.586,314.1943,1222.564,0.005151193,0.02170831,0.4021393,0.2291765,0,3.21717818368156,2.499927
7563.868,449.1387,1457.76,0.004500949,-0.004934431,0.2321837,0.7097833,0,3.52100904154473,3.240578
7907.375,148.1188,1174.106,0.04813365,0.02227861,0.8133843,0.7776142,0,2.73440097799339,2.57618
7699.7,208.7572,1975.207,0.01040826,0.002805502,0.3593939,0.5935045,0,3.38973771103363,3.074368
8904.223,146.6091,1283.676,0.02067015,-0.03608064,0.3633672,0.4361924,0,3.29778841022052,2.664115
7795.112,492.5044,1004.101,0.01534907,-0.005781318,0.9311026,0.7525805,0,2.46492419463406,2.412538
9192.479,356.6336,1092.621,0.05060969,-0.03439571,0.7547069,0.9069188,0,2.86300844180386,2.672311
7426.478,467.933,747.76,0.03047532,0.0376423,0.4626532,0.4978556,0,3.19387379182757,2.622384
5848.901,265.2039,1526.869,0.03850643,-0.04947301,0.9515542,0.09578838,0,2.29567504921258,1.652012
6426.045,423.2074,908.603,0.05003468,0.009990689,0.09276753,0.5835895,0,3.62554697553251,3.143536
8658.732,332.5597,804.1853,0.01494864,-0.01317442,0.1792106,0.3766663,0,3.47477663351162,2.828484
5685.286,321.5781,834.5013,0.01931425,-0.0004296063,0.8796765,0.6069916,0,2.59699099634136,2.466988
8012.445,408.9375,656.6597,0.0252997,-0.005354434,0.2816898,0.8212476,0,3.45682441776223,3.174935
9437.57,376.7836,1407.531,0.02960742,-0.01335213,0.6157038,0.2164175,0,2.95916122881366,2.324497
8159.094,419.9183,255.6348,0.01656687,-0.02920191,0.7860988,0.3350062,0,2.68302180494806,2.118124
6569.989,446.1783,1728.765,0.05098961,-0.02275975,0.442068,0.9130329,0,3.37789665689115,3.274104
8268.203,330.8007,501.5034,0.02986498,-0.01275767,0.509749,0.511863,0,3.13619038253177,2.644525
8206.907,414.643,1464.842,0.01037815,-0.02599372,0.3742327,0.1393801,0,3.25053091923519,2.443561
8748.197,224.0403,1258.542,0.02136485,0.03356873,0.9913166,0.393022,0,2.10287509144252,1.767046
8660.783,363.2057,400.5768,0.0498602,0.04105186,0.731187,0.3806064,0,2.77636635260409,2.187119
7838.043,381.8498,1905.11,0.008231883,-0.01913782,0.2555612,0.8328018,0,3.53520102290758,3.312656
6970.86,268.8236,1611.227,0.0115646,-0.03057242,0.3945065,0.945649,0,3.41889640712283,3.269119
5864.436,168.8201,1585.138,0.03546536,-0.03870132,0.06862226,0.6831422,0,3.69695372365222,3.26076
7348.166,143.0168,879.0776,0.01514476,-0.009369637,0.04125216,0.1423432,0,3.56941544101688,2.752945
7192.902,246.8281,437.3058,0.038169,-0.01121644,0.3897679,0.9392981,0,3.36725621620904,3.13468
7704.634,199.7295,507.7364,0.02385883,-0.04762362,0.5949708,0.2657338,0,2.959735912887,2.231012
6294.232,258.5244,1706.636,0.002505675,-0.002129017,0.9433905,0.2048219,0,2.36499800140208,1.947333
7774.302,205.3259,671.3005,0.03067396,0.03219507,0.0216263,0.188498,0,3.5611482380174,2.676868
6935.874,129.6798,1788.936,0.02798548,0.01314783,0.477235,0.08420444,0,3.15647301458415,2.38702
8731.122,214.7797,960.6177,0.02892793,-0.03778284,0.2437105,0.0693762,0,3.3319774906815,2.394245
5859.564,425.2511,1029.216,0.005852178,-0.03432769,0.3170032,0.8002202,0,3.45958992400008,3.148392
7198.762,241.5781,1646.909,0.01055689,0.009336676,0.9744744,0.4774596,0,2.26212896029835,2.077522
9218.4,124.8915,1769.408,0.03273684,0.02862532,0.6463824,0.1764134,0,2.90883973061483,2.216594
5620.028,338.5617,762.3104,0.02105282,0.0248012,0.6583248,0.6151812,0,2.98778902080809,2.662992
7103.928,343.4187,599.1534,0.04157742,0.02033929,0.5246976,0.7475126,0,3.1595498506721,2.830552
